# Exported from Blender-2.78 (sub 0)
v 0.0049248328 0.00060651219 0.62150335
v 0.0049248328 0.12849435 0.21201223
v 0.0049248328 0.18633237 0.71655655
v 0.0049248328 0.21638663 0.21201223
v 0.0049248328 0.21638663 0.52446812
v 0.0049248328 0.24644089 0.90268993
v 0.0049248328 0.42875978 0.61195588
v 0.0049248328 0.48536718 0.84453851
v 0.045467377 0.26189432 0.44246438
v 0.045926869 0.21638663 0.43023062
v 0.046161354 0.21638663 0.43173108
v 0.046164751 0.21638663 0.42601502
v 0.04622066 0.26097065 0.45078185
v 0.047630012 0.25704077 0.45838791
v 0.048630297 0.21638663 0.41623473
v 0.048649967 0.21738675 0.43946266
v 0.049189329 0.21638663 0.41320351
v 0.04992485 0.22591604 0.38695741
v 0.049952269 0.21638663 0.40906677
v 0.05219394 0.21638663 0.39063555
v 0.052952766 0.21638663 0.38815811
v 0.054702282 0.30123726 0.34964824
v 0.061162353 0.29416704 0.33512408
v 0.062903583 0.29830956 0.34168509
v 0.062903583 0.30430958 0.35207739
v 0.067311943 0.21812522 0.50040454
v 0.067556083 0.21638663 0.52446812
v 0.067815423 0.21638663 0.50021636
v 0.068399429 0.21705253 0.50262821
v 0.068447888 0.21638663 0.50236613
v 0.068510115 0.31068787 0.36114782
v 0.071534514 0.27422109 0.5118674
v 0.071569502 0.28475139 0.5526312
v 0.073138058 0.29687241 0.33558664
v 0.073138058 0.3088724 0.35637125
v 0.074260771 0.30885994 0.36320379
v 0.075341463 0.33909494 0.42907041
v 0.076232195 0.30996066 0.36323541
v 0.076856673 0.31185159 0.36021993
v 0.077875316 0.31259197 0.36875233
v 0.077899873 0.22465585 0.3842091
v 0.077899873 0.23065585 0.3946014
v 0.078550339 0.21638663 0.35265785
v 0.079046905 0.29857856 0.336458
v 0.079046905 0.30897087 0.354458
v 0.08035028 0.29658788 0.33255041
v 0.080502152 0.32372278 0.37681246
v 0.080691755 0.34295127 0.43355292
v 0.081024408 0.34129745 0.41198877
v 0.081744313 0.27844954 0.34110698
v 0.081814408 0.31122515 0.35961646
v 0.084666848 0.28009346 0.34159777
v 0.084699869 0.27974677 0.34167349
v 0.084955752 0.30467701 0.34493706
v 0.085043132 0.31037518 0.35623389
v 0.085257232 0.31062534 0.3551335
v 0.08605659 0.30942512 0.35739323
v 0.087005556 0.30872607 0.35687071
v 0.087416589 0.31152251 0.35992372
v 0.088134289 0.22321868 0.37811065
v 0.088134289 0.23521867 0.39889523
v 0.089113832 0.30394343 0.34220007
v 0.089909077 0.30399808 0.35252458
v 0.090080976 0.31132892 0.35950193
v 0.090604961 0.29413366 0.34720564
v 0.090615928 0.30660132 0.34627399
v 0.090786994 0.30692196 0.34676898
v 0.090803862 0.30695352 0.34681773
v 0.094043136 0.22492483 0.37898201
v 0.094043136 0.23531714 0.39698198
v 0.095642924 0.29749638 0.54423344
v 0.095680356 0.29817221 0.54308343
v 0.0963521 0.31947997 0.37156603
v 0.096501231 0.25747946 0.34318137
v 0.098665237 0.26640278 0.33703598
v 0.099153996 0.26587412 0.33566391
v 0.099300027 0.25698671 0.34141937
v 0.09964788 0.32048127 0.36960572
v 0.099951982 0.23102328 0.38746107
v 0.10029042 0.32140133 0.36977482
v 0.10072523 0.26287162 0.3341122
v 0.10079074 0.31288466 0.36372325
v 0.10084665 0.26617289 0.33441597
v 0.10133958 0.29869932 0.55121094
v 0.10149568 0.27008098 0.34289849
v 0.10165811 0.29928026 0.55245
v 0.10183311 0.26975265 0.34123835
v 0.10191953 0.26528269 0.33363035
v 0.10243279 0.31263056 0.36030686
v 0.10290712 0.30618274 0.55040586
v 0.10316044 0.29837504 0.55824351
v 0.10319453 0.27061743 0.34181002
v 0.10343677 0.29922608 0.55719513
v 0.10345495 0.27135009 0.34201258
v 0.10351533 0.30721748 0.55092686
v 0.10381991 0.30831566 0.54112601
v 0.10414839 0.32644042 0.36424682
v 0.1046406 0.30197555 0.5426417
v 0.10470402 0.32448095 0.360724
v 0.10580003 0.34642363 0.42053962
v 0.10600704 0.2855725 0.34447744
v 0.10613799 0.34622085 0.41878936
v 0.10655892 0.34695759 0.41956484
v 0.10656506 0.34696743 0.41957641
v 0.10657901 0.34699285 0.41960517
v 0.10658514 0.34700277 0.41961679
v 0.1065861 0.34700552 0.41961941
v 0.10658729 0.34700826 0.41962188
v 0.10658878 0.347011 0.41962415
v 0.10659134 0.34701276 0.41962835
v 0.10659218 0.34701544 0.41963106
v 0.10659331 0.34701815 0.4196336
v 0.10659468 0.34702083 0.41963595
v 0.10659629 0.34702352 0.41963813
v 0.10659754 0.3470228 0.41963992
v 0.10659933 0.34702808 0.41964531
v 0.10660064 0.34703073 0.41964772
v 0.10660237 0.34703308 0.41965112
v 0.10660422 0.34703147 0.41965261
v 0.10660547 0.34703809 0.41965696
v 0.10660905 0.34704441 0.41966406
v 0.10661161 0.34704816 0.41966856
v 0.10661268 0.3470507 0.41967112
v 0.10661638 0.34705365 0.419669
v 0.10661781 0.34705874 0.41967857
v 0.10661852 0.34705982 0.41968179
v 0.10662699 0.34707129 0.41969237
v 0.10663652 0.34708422 0.41970432
v 0.10678685 0.34728804 0.41989282
v 0.10681856 0.35182491 0.4203293
v 0.10684299 0.352503 0.4208273
v 0.10689253 0.35246903 0.42071047
v 0.10689718 0.35265744 0.42090866
v 0.10693127 0.34748781 0.42006746
v 0.10698038 0.27975836 0.34059814
v 0.10707706 0.34965447 0.41996688
v 0.1071502 0.34962407 0.42005545
v 0.10719454 0.34934244 0.42003363
v 0.1072548 0.35056332 0.42238238
v 0.10725886 0.34934399 0.41952738
v 0.10726446 0.34982565 0.42020741
v 0.1074155 0.35009104 0.41948125
v 0.10742402 0.35021999 0.41950119
v 0.10768008 0.35079989 0.42332402
v 0.10782301 0.34913224 0.42161733
v 0.10793805 0.34812245 0.42216346
v 0.10805678 0.30838379 0.54213339
v 0.10845178 0.2840111 0.3401421
v 0.10859299 0.30835497 0.54311585
v 0.10861546 0.35398501 0.42511147
v 0.10910374 0.28252548 0.33934838
v 0.109317 0.35162151 0.41962138
v 0.10961288 0.35430267 0.42601189
v 0.10981578 0.35451877 0.42593297
v 0.11416531 0.35345569 0.4276813
v 0.11541969 0.35394135 0.42782083
v 0.11572385 0.35405913 0.42785466
v 0.11589581 0.35412571 0.42787379
v 0.11627614 0.35359615 0.42817709
v 0.11642718 0.35364556 0.42820325
v 0.11764622 0.35404542 0.42813489
v 0.11776394 0.27270761 0.34063485
v 0.11794382 0.35066974 0.42473519
v 0.12090862 0.2831881 0.33913296
v 0.12104803 0.28226104 0.33902782
v 0.12114692 0.27704805 0.33949402
v 0.12154478 0.28416535 0.339843
v 0.12222034 0.2871339 0.34495014
v 0.12244457 0.27895686 0.34029686
v 0.12356186 0.28067097 0.3407439
v 0.12499338 0.26067418 0.33124247
v 0.12561256 0.25946596 0.33050442
v 0.12644339 0.27462164 0.33494392
v 0.12706286 0.45695496 0.37724021
v 0.12767857 0.49455211 0.46653652
v 0.12785608 0.37152395 0.57938731
v 0.12794524 0.37173602 0.57944727
v 0.12819332 0.37387234 0.57833183
v 0.12822235 0.3757858 0.57340586
v 0.12831062 0.49379024 0.46459711
v 0.12844938 0.37318099 0.57894981
v 0.12848312 0.37583718 0.57281375
v 0.12860739 0.35274926 0.42767379
v 0.12867153 0.37323537 0.57889199
v 0.12974697 0.50684857 0.5016408
v 0.1299085 0.50877976 0.50543708
v 0.12999976 0.37532726 0.57145047
v 0.13013291 0.30159357 0.55956936
v 0.13048017 0.37142381 0.57911307
v 0.13049966 0.27636603 0.33291402
v 0.1307742 0.27639273 0.33267701
v 0.13089877 0.37574589 0.57006699
v 0.13089979 0.37579113 0.57076472
v 0.13093901 0.36869472 0.58135134
v 0.13113332 0.37299004 0.57719141
v 0.13117242 0.30177218 0.55934799
v 0.13122219 0.36571607 0.57885665
v 0.13124853 0.37038484 0.56304163
v 0.13141221 0.27929196 0.3238245
v 0.13153923 0.27650952 0.33203521
v 0.13160294 0.38019842 0.5671314
v 0.13164681 0.27901778 0.32377845
v 0.13172656 0.30362925 0.55678666
v 0.13175756 0.38225207 0.573107
v 0.1318801 0.27705717 0.33225021
v 0.13191116 0.27701372 0.33221373
v 0.13194615 0.27889666 0.32474977
v 0.13202786 0.37500346 0.58576578
v 0.13220674 0.37005013 0.58682334
v 0.13228285 0.38259476 0.5736593
v 0.13229024 0.362409 0.5846225
v 0.13229394 0.36400634 0.58528054
v 0.13231617 0.27687547 0.3315773
v 0.13233161 0.36507636 0.58572131
v 0.13238245 0.36652106 0.58631647
v 0.13244385 0.36826435 0.58703464
v 0.13258696 0.28705212 0.32365561
v 0.13259161 0.27702478 0.33135086
v 0.13267124 0.28057137 0.32119012
v 0.13277739 0.37516767 0.5863139
v 0.13278532 0.27724627 0.33085054
v 0.13285315 0.27697352 0.33119604
v 0.13294941 0.3599664 0.58361626
v 0.13308537 0.27676618 0.33119962
v 0.13309723 0.36951807 0.58755112
v 0.13356632 0.28038475 0.32069835
v 0.13376641 0.30294713 0.56012702
v 0.13380051 0.27982023 0.32087448
v 0.13393259 0.2769742 0.33085617
v 0.1344589 0.34399837 0.57703817
v 0.13451445 0.30733684 0.55716228
v 0.134633 0.38116515 0.58010018
v 0.13471997 0.35419893 0.42444003
v 0.13475484 0.3508642 0.57986659
v 0.13477719 0.47125748 0.54596752
v 0.13494956 0.30904701 0.56263983
v 0.13498628 0.30907688 0.56265217
v 0.13584745 0.34622344 0.4535085
v 0.13602394 0.47822437 0.53964746
v 0.13605618 0.37752566 0.55968708
v 0.13609576 0.37777504 0.56017774
v 0.136168 0.32810745 0.36381862
v 0.13625711 0.33915913 0.49011967
v 0.13672209 0.31127617 0.5476498
v 0.13706309 0.32859233 0.36255071
v 0.13709098 0.44923198 0.54486769
v 0.13738132 0.33081588 0.4975369
v 0.13767081 0.46002522 0.55633312
v 0.13768023 0.46016896 0.55629641
v 0.13773412 0.473263 0.55038482
v 0.13782167 0.46079355 0.557055
v 0.1379146 0.46140313 0.55741507
v 0.13797015 0.31186727 0.55153525
v 0.13804805 0.35950959 0.56742173
v 0.13805747 0.32855558 0.37450743
v 0.13814265 0.33867922 0.39167058
v 0.13822657 0.33118013 0.49786851
v 0.13826573 0.33125857 0.49778476
v 0.1384123 0.31208524 0.55200559
v 0.13846862 0.4762921 0.36341259
v 0.13848698 0.32836911 0.36090249
v 0.13878375 0.46675426 0.55420625
v 0.13893104 0.52564102 0.53017569
v 0.13921386 0.36500236 0.3762396
v 0.13935876 0.46347824 0.55911571
v 0.13937914 0.31119061 0.56352293
v 0.13961607 0.47026408 0.55294377
v 0.13979203 0.35359603 0.42285407
v 0.14009345 0.33284071 0.49864739
v 0.14016974 0.36516041 0.37453389
v 0.14052093 0.32137498 0.56771839
v 0.14056551 0.36256638 0.36962292
v 0.14071691 0.30179921 0.35445157
v 0.1407485 0.35405019 0.42051682
v 0.14097762 0.35433853 0.42065039
v 0.14133739 0.35433549 0.42039436
v 0.14173961 0.35446039 0.42129818
v 0.14226687 0.38200322 0.55971539
v 0.14233375 0.34636554 0.56265205
v 0.14239115 0.35466149 0.42077518
v 0.14254516 0.30131188 0.35192522
v 0.14269525 0.30142063 0.35147569
v 0.14295334 0.30102658 0.34973842
v 0.14299423 0.34594214 0.44441348
v 0.1431371 0.3508755 0.56170082
v 0.14364052 0.47469312 0.35713431
v 0.14366257 0.5419212 0.44623432
v 0.14377004 0.55278748 0.47361058
v 0.14377248 0.44092497 0.54926795
v 0.14408541 0.3819131 0.56699771
v 0.14458907 0.35448536 0.41684777
v 0.14502698 0.34723169 0.41038662
v 0.14506584 0.30521938 0.34490639
v 0.14515913 0.35530478 0.41663441
v 0.14525592 0.34723178 0.40708733
v 0.14547938 0.38288739 0.56575882
v 0.14548749 0.34566537 0.40632245
v 0.14572638 0.305352 0.34377375
v 0.14578164 0.36293477 0.58483911
v 0.14589214 0.53687394 0.44152039
v 0.14595938 0.38469663 0.56367463
v 0.14603311 0.36982554 0.58767778
v 0.14620697 0.30405137 0.34138423
v 0.14628166 0.30552489 0.34421363
v 0.14661044 0.39718288 0.40303823
v 0.14669019 0.28743929 0.33555418
v 0.14670515 0.30386144 0.34112638
v 0.14701343 0.36935586 0.5874843
v 0.14738536 0.36807698 0.58695745
v 0.14789671 0.39714363 0.38133687
v 0.14793032 0.53380769 0.43894729
v 0.1480996 0.36803514 0.58656889
v 0.1483649 0.37917349 0.58254987
v 0.14899945 0.38205877 0.35042143
v 0.14904916 0.38144016 0.35022575
v 0.14924002 0.52818334 0.52665675
v 0.14926416 0.3832334 0.3502205
v 0.14928681 0.37809512 0.3497816
v 0.14955789 0.36821112 0.58592105
v 0.15007496 0.30223712 0.35259449
v 0.1512391 0.54083228 0.44369745
v 0.15159309 0.51514232 0.37844178
v 0.15176493 0.54110229 0.44373682
v 0.15202039 0.4728764 0.56160557
v 0.15229994 0.38187239 0.56552017
v 0.15264076 0.27603623 0.33112511
v 0.15274459 0.27608505 0.3307564
v 0.15287322 0.36376423 0.57493359
v 0.15289861 0.378923 0.568928
v 0.15293097 0.36634445 0.57770598
v 0.15341568 0.36940289 0.58352995
v 0.15392983 0.36131564 0.31771556
v 0.15395629 0.36297104 0.31174201
v 0.15416664 0.3744902 0.566778
v 0.1544348 0.372224 0.56814373
v 0.15460765 0.30168509 0.3543939
v 0.15564889 0.28736159 0.27607268
v 0.15592694 0.26031893 0.32802731
v 0.15594316 0.36306867 0.33600682
v 0.15628636 0.27890894 0.2870158
v 0.15655649 0.28561944 0.2889702
v 0.15656561 0.55330765 0.47365057
v 0.15666914 0.28473097 0.28911525
v 0.15675068 0.29761645 0.34976614
v 0.15679455 0.37212846 0.5798946
v 0.15683538 0.29024649 0.28675613
v 0.15686131 0.27867517 0.28703314
v 0.15686482 0.47694501 0.56470513
v 0.15688491 0.27768189 0.28611746
v 0.15692925 0.2933003 0.28194356
v 0.15696406 0.29212046 0.27689573
v 0.15697217 0.37144706 0.58011436
v 0.15698713 0.37181339 0.58002573
v 0.15704513 0.37111136 0.58010244
v 0.15706688 0.29073295 0.28642222
v 0.1571306 0.27867624 0.28693169
v 0.15723133 0.3829447 0.56348985
v 0.15724015 0.37114611 0.58007491
v 0.15727091 0.37081662 0.57996935
v 0.15729129 0.25166413 0.33623388
v 0.15729803 0.3715381 0.58006245
v 0.1573016 0.28644139 0.28859815
v 0.15732485 0.21638663 0.21201223
v 0.15732485 0.21638663 0.34375703
v 0.15732485 0.2516382 0.33626637
v 0.15732485 0.25172943 0.3359192
v 0.15732485 0.25742427 0.32775462
v 0.15732485 0.26000229 0.32801026
v 0.15732485 0.26104677 0.32811382
v 0.15732485 0.26774451 0.32966906
v 0.15732485 0.27291712 0.33058813
v 0.15732485 0.27504179 0.32883325
v 0.15732485 0.27564541 0.28277534
v 0.15732485 0.27729777 0.28544709
v 0.15732485 0.27866307 0.32407886
v 0.15732485 0.27952525 0.32289267
v 0.15732485 0.28012088 0.32216829
v 0.15732485 0.28241402 0.320795
v 0.15732485 0.28358844 0.32095268
v 0.15732485 0.2836521 0.28868917
v 0.15732485 0.28399372 0.3210071
v 0.15732485 0.28402957 0.28877145
v 0.15732485 0.28646469 0.28849533
v 0.15732485 0.28756523 0.336402
v 0.15732485 0.28770503 0.32227346
v 0.15732485 0.28865013 0.33758524
v 0.15732485 0.29124752 0.28557995
v 0.15732485 0.29547414 0.345377
v 0.15732485 0.29832289 0.35117647
v 0.15732485 0.29868296 0.35190952
v 0.15732485 0.34137306 0.57595664
v 0.15732485 0.34918925 0.4300099
v 0.15732485 0.34992313 0.43299282
v 0.15732485 0.35358173 0.43352768
v 0.15732485 0.35968342 0.36956662
v 0.15732485 0.36223266 0.37297633
v 0.15732485 0.36349148 0.30667257
v 0.15732485 0.36831933 0.563622
v 0.15732485 0.36866948 0.56334311
v 0.15732485 0.3687537 0.56331676
v 0.15732485 0.37001273 0.57893878
v 0.15732485 0.37112296 0.58005512
v 0.15732485 0.37156731 0.58005452
v 0.15732485 0.37261856 0.57131213
v 0.15732485 0.3734231 0.57085741
v 0.15732485 0.37352332 0.56269252
v 0.15732485 0.37470797 0.56266266
v 0.15732485 0.37524658 0.57717037
v 0.15732485 0.37545598 0.57090962
v 0.15732485 0.37561834 0.57672518
v 0.15732485 0.37564304 0.5710777
v 0.15732485 0.38104051 0.56329882
v 0.15732485 0.38185704 0.40632126
v 0.15732485 0.38382158 0.5637095
v 0.15732485 0.39015132 0.34571576
v 0.15732485 0.39141926 0.34621406
v 0.15732485 0.40541315 0.37111706
v 0.15732485 0.42875978 0.61195588
v 0.15732485 0.44356441 0.54981291
v 0.15732485 0.45487106 0.55634451
v 0.15732485 0.45617244 0.35023975
v 0.15732485 0.45799142 0.55814356
v 0.15732485 0.4793227 0.56392735
v 0.15732485 0.48635286 0.54270679
v 0.15732485 0.48667005 0.54208821
v 0.15732485 0.5149129 0.37768775
v 0.15732485 0.52567255 0.53188306
v 0.15732485 0.52630091 0.53158605
v 0.15732485 0.52977598 0.52386171
v 0.15732485 0.58284503 0.34692505
v 0.15732485 0.62688577 0.52212244
v 0.47482485 0.00060651219 0.62150335
v 0.47482485 0.12849435 0.21201223
v 0.47482485 0.18633237 0.71655655
v 0.47482485 0.24644089 0.90268993
v 0.47482485 0.42875978 0.61195588
v 0.47482485 0.48536718 0.84453851
v 0.47482485 0.58284503 0.34692505
v 0.47482485 0.62688577 0.52212244
vn -0.27857548 -0.88980347 0.36144909
vn -0.32199755 -0.87299371 -0.36633268
vn -0.64872664 -0.63670999 0.41683835
vn -0.33621168 0.66225374 -0.66961306
vn -0.97977 0.16498855 -0.1132681
vn -0.29943234 -0.37540957 0.87715906
vn -0.17505777 0.91957748 -0.3517555
vn -0.51323354 0.54744208 0.66098291
vn -0.95877653 0.27678239 0.064334884
vn -0.18974002 0.98182279 -0.004787147
vn -0.013800529 0.99989551 0.0043162163
vn -0.12044642 0.99245155 -0.023078002
vn -0.86724317 0.43104988 0.24916905
vn -0.97302121 -0.0074958652 0.23059386
vn 0 -1 0
vn -0.9509843 -0.084652513 0.2974273
vn -0.059773218 0.99812263 -0.013357844
vn -0.98591268 0.14021593 -0.09119004
vn -0.95279729 -0.27583662 -0.12685175
vn -0.10986131 0.99382186 -0.015765656
vn -0.47977829 0.80087453 -0.35834727
vn -0.96551508 0.22104779 0.13754453
vn -0.46960828 -0.21329187 -0.85672325
vn -0.64050257 -0.10719033 -0.76043838
vn 0.72544342 -0.13475478 -0.67496145
vn -0.91189355 -0.40812698 0.043389067
vn -0.27086687 0.57821953 -0.76960588
vn -0.95172364 -0.092048377 0.29282984
vn -0.96830142 -0.11608138 0.22117303
vn -0.0025368256 0.99999684 -2.7127917e-05
vn -0.62485451 0.42752928 0.65328056
vn -0.63754171 0.77041137 -0.0026053803
vn -0.15603629 0.41199782 -0.89772505
vn 0.3438291 0.57635653 0.74134654
vn 0.10307002 -0.38758132 -0.91605526
vn -0.94843459 0.30169129 -0.097232521
vn -0.91002226 0.39782819 0.11658653
vn -0.41402626 0.85702729 -0.30673516
vn 0.0041436972 0.99999076 0.0011423358
vn -0.88678086 0.41977435 -0.19341503
vn 0.69124085 0.61058605 0.38648516
vn 0.91099823 0.055788007 -0.40861943
vn -0.21554288 0.81299448 -0.54090774
vn -0.59961718 0.33790582 0.72545081
vn -0.70593011 -0.40518326 -0.58093828
vn 0.18092497 -0.14933716 -0.97209287
vn -0.49001199 0.72905391 -0.47787949
vn -0.31872311 0.89732492 0.30532542
vn -0.20853344 0.89544237 -0.39331514
vn 0.27070034 -0.13809079 -0.95270795
vn -0.20812966 0.91802597 -0.3375062
vn 0.68819565 -0.10993405 -0.71714801
vn 0.038537551 0.34315291 -0.93848866
vn -0.99471921 -0.088883057 0.051316708
vn 0.62440616 0.77577353 0.091062911
vn -0.058873739 0.94093901 -0.33341807
vn 0.2098169 0.88723409 -0.41084367
vn 0.53860992 0.63574332 -0.55292845
vn -0.052479375 0.96025622 -0.27414241
vn 0.11679061 0.53760785 0.83506745
vn 0.35245791 -0.39353937 -0.84905845
vn 0.7711913 -0.11105163 -0.62684244
vn 0.93436849 0.13717321 0.32884488
vn 0.028918007 0.59354681 -0.8042798
vn 0.20968051 0.45195913 -0.86704493
vn 0.94388038 -0.024681812 -0.32936406
vn -0.17364815 0.85286844 -0.49240413
vn 0.95409393 0.20314416 0.22008471
vn -0.7868517 0.36625165 0.4967134
vn -0.71767861 -0.24472654 -0.65195578
vn -0.52037543 0.84864128 -0.094960541
vn -0.8403095 0.45132613 0.30030781
vn -0.087026022 0.84341764 -0.53016341
vn -0.20834972 -0.17466368 -0.96233213
vn -0.86360294 0.49964505 0.067414291
vn -0.66257507 -0.3538442 -0.66014272
vn -0.1919947 -0.84520769 -0.49876049
vn -0.81149036 0.30086219 -0.5009644
vn -0.99447501 -0.090909906 0.052486949
vn -0.14900155 0.88880032 -0.43339658
vn -0.23985176 -0.54536021 -0.80315214
vn -0.19157346 0.70041001 -0.68755025
vn -0.1820017 0.83884996 -0.51303637
vn -0.75513178 0.65003479 0.085033417
vn -0.079837158 -0.15145651 -0.9852345
vn -0.92140722 0.24539872 0.30131081
vn -0.814897 0.57923776 0.020652099
vn -0.075446203 0.49993685 -0.86276942
vn -0.11764887 0.47540137 -0.87186706
vn -0.83494282 0.19611652 -0.51420683
vn -0.0065221395 0.40019348 -0.91640753
vn -0.18731458 0.84079796 -0.50790954
vn -0.26489294 0.84847587 0.45817068
vn -0.1131481 -0.10572364 -0.98793715
vn -0.083150618 0.70272583 0.70658505
vn -0.5661599 0.72301471 0.39586955
vn -0.2846297 0.9582147 0.028470922
vn -0.34165773 0.48877078 0.80272847
vn -0.10876346 0.28519684 -0.95227796
vn -0.10841458 0.93420178 -0.33987242
vn -0.04023692 0.45955133 -0.88723928
vn -0.1552487 0.82225567 -0.54753393
vn 0 0 0
vn 0 0 0
vn -0.51410335 -0.46727976 0.71926856
vn -0.91392589 0.38451424 0.12995431
vn 0.58330524 -0.73148096 0.35311565
vn -0.27870443 -0.61693573 0.73601228
vn -0.21694224 0.76629692 -0.60475212
vn -0.63786453 -0.35790768 0.68193179
vn -0.89842284 0.051306497 0.43612382
vn 0.89942169 -0.019079864 -0.43666521
vn -0.65868914 -0.36973792 0.65530336
vn -0.77312684 -0.24662228 0.58433926
vn -0.87517804 0.48356631 0.015063435
vn 0.092529878 0.70938659 -0.69871956
vn -0.88807619 0.45471653 0.06748002
vn -0.52602768 -0.49312049 0.69291192
vn 0.81737107 -0.56831074 0.094485849
vn -0.31018159 -0.63014412 0.71183276
vn -0.59957922 -0.42248344 0.67971504
vn -0.89073831 0.028188538 0.4536415
vn -0.92721766 0.23145604 0.29444107
vn -0.3458069 0.7688387 -0.53787035
vn -0.27332243 0.79057997 -0.54797632
vn 0.049311265 0.71362913 -0.69878608
vn -0.34639195 0.88052672 0.32355121
vn -0.87929058 0.35832402 0.31377056
vn -0.90935302 0.29020676 0.29808903
vn -0.43209317 0.34574291 -0.83292103
vn -0.98902875 -0.094780795 0.11330729
vn -0.07029967 0.93245423 -0.35438257
vn -0.061822128 0.9776656 -0.20086807
vn -0.89534342 0.26869053 0.35519788
vn -0.079819098 0.037511498 -0.99610335
vn -0.97820628 0.00062918838 0.20763457
vn -0.048997965 -0.92956418 0.36538973
vn -0.97688609 -0.19943905 0.07692612
vn -0.94279528 0.078607462 0.32397217
vn -0.92625564 0.2889697 -0.24196479
vn -0.92306954 -0.22212917 0.31400833
vn 0.098921821 -0.048373111 -0.99391878
vn -0.44773537 0.27339837 -0.85134381
vn -0.3380138 -0.59463006 0.72949409
vn -0.197901 -0.64506012 0.73806006
vn -0.16133323 0.94813663 0.27387679
vn -0.27406311 0.90772283 0.31769267
vn -0.075795695 0.83712751 -0.54173106
vn -0.15288042 0.93316901 0.3253046
vn -0.93662405 0.12756519 0.32628578
vn -0.30302384 0.027631314 -0.9525823
vn -0.0076346048 0.29623154 -0.95508569
vn -0.46355137 -0.21565677 0.8594256
vn 0.11531886 0.93056619 -0.34748843
vn -0.31971431 -0.39858013 0.85960263
vn -0.19830336 0.54276198 0.81614041
vn -0.26985699 -0.40891957 0.87175798
vn 0.00067776738 0.98281109 -0.18461275
vn -0.09566763 -0.76096767 0.64169765
vn 0.051846739 -0.12585287 0.99069309
vn 0.076467887 0.62294269 0.77852106
vn -0.11299034 0.59124553 -0.79853737
vn -0.10053153 -0.6605792 0.74399501
vn 0.068438642 0.40445921 -0.91199172
vn -0.042054731 -0.13861118 -0.98945355
vn -0.25293782 0.094983265 -0.96280861
vn 0.19773717 0.78995031 -0.58041233
vn -0.088454843 0.48930347 -0.86761618
vn 0.53412741 -0.065247178 -0.84288228
vn 0.075427979 0.40636024 -0.91059434
vn -0.14217606 0.33956337 -0.9297756
vn -0.13585852 -0.78644884 -0.60252857
vn -0.32246083 0.4214808 -0.84756881
vn -0.99818754 -0.053416081 -0.02771475
vn -0.93161392 -0.32993987 0.15243058
vn -0.92112613 -0.335704 -0.19705199
vn -0.3171528 0.34662658 0.88275939
vn -0.88522613 -0.44496265 -0.13558353
vn -0.9505586 0.078982197 -0.30033335
vn -0.85773879 0.48326761 -0.1753183
vn 0.12549002 0.53459531 0.8357392
vn 0.63293821 0.69686532 0.33729511
vn -0.23415917 0.91440511 0.33020115
vn 0.64485848 0.70010608 0.30660897
vn -0.99941081 -0.016480464 0.030106587
vn -0.97878087 0.20289545 0.028661611
vn 0.16880998 0.86984974 0.46353483
vn -0.0079227583 0.438465 -0.89871329
vn 0.43983093 0.77567643 0.45263118
vn -0.14441578 -0.10099898 -0.98434907
vn -0.097851381 -0.95556152 -0.2780779
vn -0.83042771 0.4381007 -0.34417665
vn -0.96499264 0.22459538 0.13544814
vn 0.017284172 -0.9984377 0.05313649
vn -0.71398944 0.44015536 0.54450202
vn -0.37324455 0.83756638 0.3989625
vn -0.9156307 -0.31164175 -0.25396827
vn -0.8741048 -0.27897868 -0.39763266
vn -0.85477692 0.51730704 -0.041829593
vn -0.1506224 -0.80999619 -0.56676203
vn -0.82923484 0.38800493 -0.40227062
vn -0.18607831 -0.94400603 -0.2724472
vn -0.13991183 0.46534619 0.87400091
vn -0.87298197 0.48406377 -0.059873268
vn -0.081521176 -0.96630424 -0.24415258
vn -0.49852699 0.7619108 -0.41347647
vn -0.089064904 -0.96386606 -0.25105709
vn -0.89925402 0.35275418 0.25866348
vn -0.99745643 -0.014881573 0.069708064
vn 0.085893631 0.98923981 0.11843582
vn -0.12139981 0.38501722 -0.91489011
vn -0.0012495251 0.38091463 -0.92460936
vn -0.21304205 -0.77166587 -0.59928697
vn -0.94941133 -0.090464354 0.30072308
vn -0.011359049 0.38121706 -0.92441577
vn -0.021695841 0.38523436 -0.92256367
vn -0.1925841 0.97198254 -0.13476412
vn -0.22674012 -0.92920434 -0.29183576
vn -0.71725976 0.68857801 -0.1067645
vn 0.52379167 0.35425264 0.77469182
vn -0.13410336 -0.95461977 -0.2659272
vn -0.057795979 -0.80590469 -0.58921742
vn -0.89442718 0 -0.44721359
vn -0.021920471 0.020536508 -0.99954879
vn 0.0027826533 0.48724878 -0.87325871
vn -0.056421176 0.25896537 -0.96423727
vn -0.8263455 0.54896843 -0.12564559
vn -0.012044615 -0.89641631 -0.44304943
vn -0.056469508 -0.96247315 -0.26543665
vn -0.70383704 0.11811721 -0.70047247
vn -0.30619368 0.79524153 0.52329373
vn 0.015537331 0.87610948 0.48186174
vn -0.2197106 0.93016207 0.2941525
vn -0.94758266 -0.1163056 -0.29759035
vn -0.89726877 0.34160626 0.27966747
vn 8.0883628e-06 0.38089868 -0.92461675
vn -0.1503697 0.46236852 -0.87384456
vn -0.83155382 -0.35004935 -0.4312582
vn -0.93028265 0.13189431 0.34231272
vn -0.97977233 0.031200668 0.19766833
vn -0.13048078 0.92131263 -0.36627546
vn -0.066039532 0.99769264 -0.015759539
vn -0.53999883 0.80175966 0.25609127
vn -0.34087887 0.88889712 0.30604485
vn -0.98986262 0.109891 -0.089977786
vn -0.95973259 0.012385365 0.28064215
vn 0.81965476 0.5387094 0.19482827
vn -0.79753619 -0.41306511 0.43967381
vn -0.98153996 -0.10586943 0.15928233
vn -0.33978528 0.74586016 0.5729211
vn -0.70668226 0.33757943 0.62180406
vn -0.77083367 -0.046349049 0.63534814
vn -0.99809813 -0.039302774 0.047489874
vn -0.91233522 -0.2807444 -0.29803875
vn -0.68636549 0.71810901 -0.1149864
vn -0.53750098 0.77838522 -0.32435948
vn -0.49434528 0.80765957 0.32141674
vn -0.69952011 0.67057806 0.24697518
vn -0.97567195 0.18021314 0.12484972
vn -0.90614372 0.10866612 -0.40877277
vn -0.070249058 0.33194986 -0.94067758
vn -0.4838959 0.6546616 0.58074343
vn -0.77389944 0.48617968 0.40584332
vn -0.89451778 0.41225928 0.17285955
vn -0.082072183 -0.37401339 0.92378467
vn -0.91721761 0.30921134 -0.25119737
vn -0.85210443 0.15591608 0.49960798
vn 0.36704755 -0.92462415 0.10171673
vn -0.99606198 -0.088143609 -0.0095508574
vn -0.64133716 0.58625656 -0.49496457
vn -0.88036293 0.062306903 -0.47019029
vn -0.15594976 0.34943959 -0.92388934
vn 0.1067028 0.39528614 -0.91233951
vn -0.11382923 0.87409121 -0.47223669
vn -0.059866861 0.91429359 -0.40060338
vn -0.61181831 0.5614143 -0.55721849
vn 0.04124495 -0.98129559 -0.18803632
vn -0.43166631 0.19719367 0.88021523
vn -0.8571105 -0.059560597 -0.51167786
vn 0.55495018 0.67460155 0.48676795
vn -0.4416222 0.68715334 -0.5768798
vn -0.13742349 0.96863979 0.20700669
vn -0.91125745 0.37762976 -0.16433397
vn 0.20980524 0.95098919 0.22715935
vn -0.97460234 -0.078513198 0.20972843
vn -0.73301619 0.44949034 -0.51053464
vn -0.66046184 -0.68915856 0.2980783
vn -0.91883469 0.3919791 0.045773089
vn -0.3380858 0.038419727 0.94033074
vn 0.093984477 0.99415606 0.053110179
vn -0.99888623 -0.017547119 0.043800425
vn -0.99545729 -0.095045991 -0.0055780364
vn -0.93704259 0.31234753 0.15617377
vn 0.24320714 0.9403978 0.23770207
vn -0.94831753 0.13735265 0.28605598
vn 0.12183642 0.74410391 0.65686011
vn 0.064826012 0.89839619 -0.4343752
vn -0.92590892 0.34630349 -0.15088591
vn 0.9102782 -0.051979847 0.410721
vn -0.036343686 0.90572834 -0.42229763
vn -0.29073685 0.27736267 0.91571945
vn 0.13874687 0.65228647 -0.74516559
vn -0.88264859 0.18661772 -0.43139929
vn 0.70593119 0.69607502 -0.13092279
vn -0.82484967 -0.36513141 -0.43162715
vn -0.60480845 0.67453426 -0.42333242
vn 0.50232697 0.60924512 -0.61358607
vn 0.007692649 0.38699433 -0.92204994
vn 0.023975955 0.37685451 -0.92596209
vn -0.94808316 0.15228152 -0.27919301
vn -0.94588083 0.28390983 -0.15717711
vn 0.41270289 -0.41351056 0.81159437
vn 0.21017179 0.79203153 0.5731613
vn -0.99933779 -0.0012990871 -0.036362965
vn -0.69907856 0.24150829 -0.67302519
vn -0.56694478 0.7463789 0.34855697
vn -0.77546012 0.55164188 -0.30716905
vn -0.92126465 -0.37471542 0.10421103
vn 0.58539146 -0.52764904 0.61555123
vn 0.39300856 0.91903776 -0.030230504
vn -0.4588235 0.81849802 -0.34574842
vn -0.78492069 0.55049384 -0.28435212
vn -0.83028477 0.49272665 -0.26047549
vn -0.64519781 0.68922377 0.32968223
vn 0.10800524 0.27910477 0.95416743
vn -0.026229644 -0.080602311 -0.99640113
vn -0.065785624 -0.93582737 -0.34626487
vn 0.86918783 0.11932255 0.47986925
vn 0.48466039 0.85114384 0.20163958
vn 0.74103105 -0.67146361 -0.0030910021
vn 0.54257542 0.25209972 0.80128497
vn -0.82457763 -0.55150384 0.12615524
vn -0.94485879 0.21334234 -0.24844897
vn 0.90214038 0.17344521 0.39504355
vn 0.44551992 -0.66743672 -0.59669107
vn -0.047722019 0.38269368 -0.92264193
vn -0.99987352 -0.013205779 0.0088680964
vn -0.267566 0.20186035 -0.94215751
vn -0.99902773 -0.0052696252 -0.043770306
vn -0.99081516 0.0075279055 -0.13501349
vn -0.98784578 0.031099759 -0.15229391
vn -0.99087095 0.13462938 0.0070552449
vn -0.34079912 0.0066958489 0.94011223
vn -0.99771178 0.060684323 -0.029808534
vn 0.41612226 0.53314185 0.73661524
vn 0.81277454 0.19280542 0.54974878
vn -0.48997217 -0.55051202 0.67591697
vn -0.99754697 -0.016951231 0.06791757
vn -0.51821333 -0.45721486 0.7227791
vn -0.99915922 -0.0027078197 0.040909097
vn -0.99982399 0.0095441956 -0.016153069
vn 0.47235861 0.42807654 0.77047253
vn 0.10503829 0.20155165 0.97382957
vn 0.6456905 0.13300224 0.75192708
vn -0.99791485 -0.044581171 0.046672698
vn 0.62516564 -0.29501426 0.72258884
vn 0.26107165 0.20353112 0.94361889
vn 0.66185361 -0.14568587 0.73534024
vn 0.61572462 -0.59017116 0.52209312
vn -0.13019347 -0.2091563 -0.96917653
vn 0.049553357 0.18288004 0.98188567
vn 0.016099222 0.33124125 0.94340867
vn -0.043983512 0.35960042 -0.93206918
vn -0.15622877 0.98383731 -0.087502502
vn -0.86850291 -0.10343456 -0.48477215
vn -0.78148806 -0.53272718 -0.32477412
vn -0.99727464 -0.044665407 -0.058721341
vn -0.89557815 -0.19006929 -0.40226033
vn -0.99538523 0.093795791 0.020262666
vn -0.67119086 0.13181837 -0.72947025
vn -0.14695509 -0.067214787 -0.98685682
vn -0.86536187 -0.37570849 -0.33165005
vn -0.99999446 -0.0033257843 4.8938698e-05
vn -0.99998868 -0.0043594078 0.0018892179
vn -0.041727971 -0.90621507 -0.42075282
vn -0.99145895 -0.10368291 -0.079112634
vn -0.71109349 -0.41312239 -0.5689252
vn -0.7627219 -0.2091668 -0.61196774
vn -0.028352529 0.2690118 -0.9627195
vn -0.99997002 -0.0049213022 -0.005974289
vn -1 0 0
vn -0.99999994 -0.00010479095 0.00048209613
vn -0.99743205 -0.013752712 0.070285581
vn 0.0029684126 0.94523162 -0.3263869
vn -0.99042726 0.11918961 -0.069625095
vn -0.032275308 0.74987012 -0.6607973
vn -0.9995985 -0.0048979074 0.027909495
vn -0.97869146 0.1774947 -0.10324053
vn -0.95080948 -0.08613161 0.2975612
vn -0.086334869 0.25958106 -0.96185446
vn -0.58447456 0.50698674 -0.63352507
vn -0.11131397 0.97351968 0.19967119
vn -0.99657667 0.053425949 -0.063091762
vn -0.54075146 -0.53436214 -0.6496498
vn -0.96706784 0.072391264 -0.24400704
vn -0.74896562 0.64477932 0.15267684
vn 0.91379786 0.3989135 -0.076429039
vn -0.91918212 0.1502012 0.36406556
vn 1 0 0
vn -1 0 0
vn -0.98196864 -0.18787211 0.021014547
vn -0.99999988 -0.00011727987 0.00036826343
vn -0.99996376 0.0052044536 0.0067462018
vn -0.029588262 -0.91191518 -0.40931076
vn -0.87667507 -0.067568898 -0.47631422
vn 0.8013041 0.015193576 0.59806418
vn -0.99999994 0 0
vn -0.84081692 0.238638 0.48587942
vn 0.50213575 0.27189741 -0.82093334
vn -0.66539162 0.74176568 0.083891347
vn -0.99973655 0.02294041 -0.00064046634
vn 0.59555048 0.089754462 0.79828793
vn -0.94952083 -0.31333521 0.015208415
vn -0.99999303 -0.0035505544 -0.0011485834
vn -0.99946284 0.013657864 -0.029792771
vn -0.97071427 0.2083509 -0.11959873
vn -0.9650138 0.016269481 -0.26169375
vn -0.11793651 0.55303395 0.82476932
vn -0.28891018 0.040019833 0.95651931
vn -1 0 0
vn -0.95887274 -0.056558181 -0.27814457
vn -0.78543991 -0.26734412 0.55822152
vn -0.99526727 0.086848415 0.043593433
vn -0.99155748 0.12289928 0.041347023
vn -0.35048747 0.5233295 0.77671397
vn -0.9893133 0.090155341 -0.11459085
vn -0.68818855 0.16564155 0.70637059
vn -0.99348348 0.020892337 0.11204489
vn -0.99195457 0.076622777 -0.10077235
vn -0.29913154 0.57538229 -0.76121974
vn -0.16074905 0.95750159 0.23947935
vn 0.58367836 -0.8096109 -0.062046934
vn 0.58392614 -0.40595362 -0.70301628
vn 0.60773152 -0.52186519 0.59859771
vn 0.33933192 -0.37011716 0.86479306
vn 0.81032115 0.56665301 0.14927827
vn 0.22668689 0.94702649 0.22749537
vn 0.75982332 0.36645266 -0.53701127
vn 0.23666395 0.689592 0.68443644
s 1
f 8//8 7//7 5//5
f 5//5 4//4 2//2
f 2//2 1//1 3//3
f 3//3 6//6 8//8
f 5//5 2//2 3//3
f 5//5 3//3 8//8
f 432//432 433//433 438//438
f 438//438 439//439 436//436
f 436//436 437//437 435//435
f 434//434 432//432 438//438
f 436//436 435//435 434//434
f 438//438 436//436 434//434
f 418//418 410//410 408//408
f 418//418 408//408 403//403
f 400//400 399//399 398//398
f 404//404 405//405 400//400
f 401//401 404//404 400//400
f 401//401 400//400 398//398
f 418//418 403//403 402//402
f 401//401 398//398 391//391
f 391//391 418//418 402//402
f 391//391 402//402 401//401
f 24//24 25//25 42//42
f 42//42 41//41 24//24
f 9//9 16//16 28//28
f 9//9 28//28 26//26
f 32//32 13//13 14//14
f 14//14 9//9 26//26
f 29//29 30//30 27//27
f 14//14 26//26 29//29
f 33//33 32//32 14//14
f 29//29 27//27 33//33
f 29//29 33//33 14//14
f 336//336 344//344 388//388
f 388//388 386//386 307//307
f 307//307 304//304 320//320
f 320//320 336//336 388//388
f 388//388 307//307 320//320
f 365//365 360//360 366//366
f 264//264 245//245 255//255
f 256//256 297//297 295//295
f 264//264 255//255 256//256
f 292//292 291//291 264//264
f 264//264 256//256 295//295
f 295//295 292//292 264//264
f 436//436 418//418 7//7
f 7//7 8//8 437//437
f 7//7 437//437 436//436
f 215//215 214//214 212//212
f 211//211 223//223 234//234
f 211//211 234//234 230//230
f 230//230 271//271 266//266
f 230//230 266//266 237//237
f 211//211 230//230 237//237
f 236//236 227//227 188//188
f 211//211 237//237 236//236
f 211//211 236//236 188//188
f 211//211 188//188 91//91
f 212//212 211//211 91//91
f 33//33 27//27 5//5
f 212//212 91//91 33//33
f 215//215 212//212 33//33
f 33//33 5//5 7//7
f 391//391 299//299 309//309
f 391//391 309//309 308//308
f 33//33 7//7 418//418
f 216//216 215//215 33//33
f 225//225 216//216 33//33
f 418//418 391//391 308//308
f 418//418 308//308 302//302
f 225//225 33//33 418//418
f 302//302 225//225 418//418
f 423//423 424//424 324//324
f 160//160 183//183 233//233
f 161//161 156//156 155//155
f 160//160 233//233 161//161
f 155//155 159//159 160//160
f 161//161 155//155 160//160
f 138//138 141//141 137//137
f 374//374 356//356 347//347
f 347//347 349//349 373//373
f 347//347 373//373 374//374
f 265//265 289//289 419//419
f 419//419 420//420 422//422
f 422//422 348//348 265//265
f 419//419 422//422 265//265
f 312//312 309//309 299//299
f 299//299 328//328 330//330
f 401//401 402//402 358//358
f 359//359 354//354 331//331
f 401//401 358//358 359//359
f 299//299 330//330 401//401
f 319//319 312//312 299//299
f 359//359 331//331 319//319
f 299//299 401//401 359//359
f 299//299 359//359 319//319
f 245//245 264//264 270//270
f 270//270 272//272 261//261
f 261//261 242//242 245//245
f 245//245 270//270 261//261
f 97//97 80//80 255//255
f 255//255 245//245 242//242
f 255//255 242//242 97//97
f 216//216 209//209 215//215
f 123//123 121//121 122//122
f 122//122 126//126 123//123
f 418//418 436//436 439//439
f 439//439 431//431 418//418
f 97//97 242//242 261//261
f 261//261 99//99 97//97
f 329//329 411//411 409//409
f 409//409 334//334 329//329
f 42//42 61//61 70//70
f 70//70 79//79 69//69
f 69//69 60//60 41//41
f 41//41 42//42 70//70
f 70//70 69//69 41//41
f 51//51 38//38 40//40
f 40//40 82//82 89//89
f 89//89 64//64 59//59
f 59//59 51//51 40//40
f 40//40 89//89 59//59
f 113//113 110//110 115//115
f 115//115 117//117 113//113
f 219//219 217//217 385//385
f 385//385 381//381 379//379
f 379//379 378//378 226//226
f 226//226 219//219 385//385
f 385//385 379//379 226//226
f 28//28 16//16 11//11
f 30//30 28//28 11//11
f 5//5 27//27 30//30
f 364//364 363//363 4//4
f 43//43 364//364 4//4
f 5//5 30//30 11//11
f 5//5 11//11 10//10
f 21//21 43//43 4//4
f 17//17 19//19 20//20
f 20//20 21//21 4//4
f 4//4 5//5 10//10
f 12//12 15//15 17//17
f 4//4 10//10 12//12
f 17//17 20//20 4//4
f 12//12 17//17 4//4
f 321//321 311//311 300//300
f 300//300 287//287 288//288
f 342//342 426//426 322//322
f 342//342 322//322 323//323
f 300//300 288//288 342//342
f 342//342 323//323 321//321
f 321//321 300//300 342//342
f 133//133 131//131 136//136
f 136//136 139//139 150//150
f 136//136 150//150 133//133
f 346//346 341//341 343//343
f 378//378 377//377 228//228
f 228//228 226//226 378//378
f 84//84 86//86 95//95
f 95//95 90//90 84//84
f 330//330 335//335 404//404
f 404//404 401//401 330//330
f 25//25 35//35 61//61
f 61//61 42//42 25//25
f 348//348 423//423 324//324
f 324//324 252//252 265//265
f 324//324 265//265 348//348
f 31//31 39//39 35//35
f 25//25 24//24 22//22
f 31//31 35//35 25//25
f 25//25 22//22 31//31
f 194//194 177//177 176//176
f 191//191 190//190 173//173
f 191//191 173//173 213//213
f 213//213 200//200 191//191
f 263//263 427//427 428//428
f 316//316 429//429 342//342
f 263//263 428//428 316//316
f 342//342 288//288 263//263
f 263//263 316//316 342//342
f 134//134 129//129 146//146
f 146//146 145//145 141//141
f 138//138 136//136 143//143
f 146//146 141//141 138//138
f 140//140 134//134 146//146
f 143//143 142//142 140//140
f 140//140 146//146 138//138
f 138//138 143//143 140//140
f 355//355 387//387 350//350
f 162//162 92//92 94//94
f 166//166 169//169 170//170
f 162//162 94//94 166//166
f 88//88 83//83 162//162
f 367//367 172//172 171//171
f 171//171 88//88 162//162
f 171//171 162//162 166//166
f 368//368 367//367 171//171
f 370//370 369//369 338//338
f 338//338 368//368 171//171
f 171//171 166//166 170//170
f 370//370 338//338 171//171
f 190//190 371//371 370//370
f 173//173 190//190 370//370
f 101//101 135//135 50//50
f 53//53 52//52 65//65
f 101//101 50//50 53//53
f 101//101 53//53 65//65
f 65//65 58//58 64//64
f 89//89 99//99 261//261
f 65//65 64//64 89//89
f 168//168 101//101 65//65
f 168//168 65//65 89//89
f 261//261 272//272 395//395
f 168//168 89//89 261//261
f 170//170 168//168 261//261
f 261//261 395//395 390//390
f 390//390 389//389 344//344
f 390//390 344//344 336//336
f 173//173 370//370 171//171
f 173//173 171//171 170//170
f 261//261 390//390 336//336
f 273//273 173//173 170//170
f 261//261 336//336 273//273
f 170//170 261//261 273//273
f 148//148 167//167 164//164
f 164//164 165//165 151//151
f 164//164 151//151 148//148
f 77//77 81//81 172//172
f 172//172 367//367 366//366
f 366//366 360//360 77//77
f 172//172 366//366 77//77
f 151//151 135//135 101//101
f 101//101 148//148 151//151
f 397//397 339//339 332//332
f 194//194 195//195 189//189
f 181//181 178//178 177//177
f 194//194 189//189 181//181
f 177//177 194//194 181//181
f 121//121 123//123 117//117
f 117//117 116//116 118//118
f 118//118 120//120 121//121
f 117//117 118//118 121//121
f 232//232 220//220 225//225
f 225//225 302//302 313//313
f 225//225 313//313 232//232
f 238//238 284//284 243//243
f 238//238 243//243 247//247
f 257//257 258//258 269//269
f 269//269 238//238 247//247
f 247//247 257//257 269//269
f 90//90 95//95 149//149
f 1//1 432//432 434//434
f 434//434 3//3 1//1
f 182//182 179//179 178//178
f 178//178 181//181 184//184
f 178//178 184//184 182//182
f 283//283 293//293 298//298
f 298//298 303//303 306//306
f 306//306 217//217 219//219
f 219//219 199//199 206//206
f 206//206 213//213 173//173
f 173//173 273//273 281//281
f 281//281 282//282 283//283
f 283//283 298//298 306//306
f 306//306 219//219 206//206
f 206//206 173//173 281//281
f 281//281 283//283 306//306
f 306//306 206//206 281//281
f 126//126 127//127 128//128
f 109//109 107//107 106//106
f 110//110 113//113 111//111
f 39//39 31//31 36//36
f 121//121 120//120 115//115
f 115//115 122//122 121//121
f 71//71 98//98 72//72
f 122//122 119//119 125//125
f 421//421 417//417 310//310
f 305//305 413//413 394//394
f 421//421 310//310 305//305
f 260//260 286//286 421//421
f 238//238 174//174 260//260
f 305//305 394//394 238//238
f 260//260 421//421 305//305
f 305//305 238//238 260//260
f 125//125 126//126 122//122
f 116//116 117//117 115//115
f 105//105 104//104 103//103
f 163//163 160//160 159//159
f 159//159 155//155 144//144
f 144//144 137//137 141//141
f 145//145 163//163 159//159
f 144//144 141//141 145//145
f 159//159 144//144 145//145
f 136//136 138//138 137//137
f 137//137 144//144 139//139
f 137//137 139//139 136//136
f 433//433 2//2 4//4
f 363//363 430//430 438//438
f 433//433 4//4 363//363
f 433//433 363//363 438//438
f 220//220 208//208 209//209
f 209//209 216//216 225//225
f 209//209 225//225 220//220
f 130//130 143//143 136//136
f 136//136 131//131 132//132
f 136//136 132//132 130//130
f 130//130 152//152 143//143
f 54//54 79//79 70//70
f 70//70 45//45 54//54
f 154//154 153//153 157//157
f 157//157 158//158 154//154
f 327//327 372//372 371//371
f 371//371 190//190 191//191
f 371//371 191//191 200//200
f 326//326 327//327 371//371
f 224//224 222//222 326//326
f 206//206 205//205 218//218
f 371//371 200//200 213//213
f 213//213 206//206 218//218
f 224//224 326//326 371//371
f 213//213 218//218 224//224
f 371//371 213//213 224//224
f 84//84 149//149 147//147
f 147//147 98//98 71//71
f 71//71 32//32 33//33
f 33//33 91//91 93//93
f 93//93 86//86 84//84
f 84//84 147//147 71//71
f 71//71 33//33 93//93
f 84//84 71//71 93//93
f 182//182 187//187 193//193
f 193//193 192//192 179//179
f 179//179 182//182 193//193
f 234//234 197//197 254//254
f 254//254 285//285 279//279
f 279//279 271//271 230//230
f 230//230 234//234 254//254
f 254//254 279//279 230//230
f 52//52 53//53 50//50
f 50//50 46//46 62//62
f 62//62 65//65 52//52
f 52//52 50//50 62//62
f 295//295 297//297 292//292
f 105//105 103//103 106//106
f 106//106 107//107 105//105
f 35//35 39//39 56//56
f 56//56 68//68 67//67
f 67//67 66//66 62//62
f 23//23 24//24 34//34
f 46//46 23//23 34//34
f 67//67 62//62 46//46
f 45//45 35//35 56//56
f 54//54 45//45 56//56
f 46//46 34//34 44//44
f 54//54 56//56 67//67
f 46//46 44//44 54//54
f 67//67 46//46 54//54
f 193//193 187//187 195//195
f 341//341 340//340 349//349
f 349//349 347//347 343//343
f 349//349 343//343 341//341
f 319//319 331//331 308//308
f 308//308 309//309 312//312
f 308//308 312//312 319//319
f 74//74 85//85 87//87
f 75//75 76//76 74//74
f 74//74 87//87 75//75
f 18//18 19//19 17//17
f 17//17 15//15 12//12
f 17//17 12//12 18//18
f 304//304 307//307 303//303
f 303//303 298//298 304//304
f 127//127 100//100 146//146
f 129//129 124//124 125//125
f 128//128 127//127 146//146
f 129//129 125//125 128//128
f 146//146 129//129 128//128
f 335//335 334//334 409//409
f 405//405 404//404 335//335
f 409//409 405//405 335//335
f 301//301 278//278 240//240
f 240//240 241//241 290//290
f 290//290 296//296 301//301
f 240//240 290//290 301//301
f 311//311 287//287 300//300
f 196//196 188//188 227//227
f 227//227 231//231 203//203
f 227//227 203//203 196//196
f 420//420 419//419 414//414
f 414//414 412//412 407//407
f 407//407 406//406 400//400
f 400//400 405//405 409//409
f 411//411 410//410 418//418
f 400//400 409//409 411//411
f 414//414 407//407 400//400
f 422//422 420//420 414//414
f 348//348 422//422 414//414
f 414//414 400//400 411//411
f 418//418 431//431 428//428
f 427//427 425//425 424//424
f 418//418 428//428 427//427
f 414//414 411//411 418//418
f 348//348 414//414 418//418
f 427//427 424//424 423//423
f 423//423 348//348 418//418
f 423//423 418//418 427//427
f 238//238 394//394 393//393
f 113//113 110//110 118//118
f 208//208 220//220 232//232
f 232//232 210//210 204//204
f 232//232 204//204 208//208
f 270//270 396//396 395//395
f 395//395 272//272 270//270
f 399//399 400//400 406//406
f 406//406 407//407 412//412
f 412//412 357//357 325//325
f 325//325 329//329 334//334
f 328//328 299//299 391//391
f 412//412 325//325 334//334
f 334//334 328//328 391//391
f 398//398 399//399 406//406
f 334//334 391//391 398//398
f 406//406 412//412 334//334
f 406//406 334//334 398//398
f 48//48 96//96 147//147
f 48//48 147//147 149//149
f 49//49 37//37 48//48
f 146//146 100//100 49//49
f 163//163 145//145 146//146
f 183//183 163//163 146//146
f 146//146 49//49 48//48
f 146//146 48//48 149//149
f 95//95 86//86 93//93
f 93//93 91//91 188//188
f 188//188 196//196 203//203
f 231//231 237//237 266//266
f 93//93 188//188 203//203
f 231//231 266//266 259//259
f 93//93 203//203 231//231
f 149//149 95//95 93//93
f 158//158 157//157 161//161
f 133//133 154//154 158//158
f 132//132 131//131 133//133
f 275//275 274//274 132//132
f 277//277 280//280 275//275
f 294//294 268//268 277//277
f 264//264 291//291 294//294
f 396//396 270//270 264//264
f 284//284 392//392 396//396
f 244//244 247//247 243//243
f 231//231 259//259 253//253
f 149//149 93//93 231//231
f 183//183 146//146 149//149
f 158//158 161//161 233//233
f 233//233 183//183 149//149
f 149//149 231//231 253//253
f 149//149 253//253 244//244
f 133//133 158//158 233//233
f 233//233 149//149 244//244
f 233//233 244//244 243//243
f 132//132 133//133 233//233
f 277//277 275//275 132//132
f 396//396 264//264 294//294
f 294//294 277//277 132//132
f 233//233 243//243 284//284
f 294//294 132//132 233//233
f 284//284 396//396 294//294
f 284//284 294//294 233//233
f 283//283 282//282 320//320
f 320//320 304//304 298//298
f 298//298 293//293 283//283
f 320//320 298//298 283//283
f 228//228 202//202 199//199
f 199//199 219//219 226//226
f 199//199 226//226 228//228
f 34//34 24//24 41//41
f 41//41 60//60 34//34
f 161//161 157//157 153//153
f 153//153 150//150 139//139
f 153//153 139//139 144//144
f 156//156 161//161 153//153
f 153//153 144//144 155//155
f 153//153 155//155 156//156
f 334//334 335//335 330//330
f 330//330 328//328 334//334
f 66//66 67//67 68//68
f 68//68 63//63 65//65
f 65//65 62//62 66//66
f 68//68 65//65 66//66
f 326//326 222//222 229//229
f 229//229 221//221 207//207
f 207//207 202//202 228//228
f 228//228 377//377 376//376
f 375//375 372//372 327//327
f 228//228 376//376 375//375
f 229//229 207//207 228//228
f 327//327 326//326 229//229
f 228//228 375//375 327//327
f 229//229 228//228 327//327
f 323//323 322//322 286//286
f 323//323 286//286 260//260
f 311//311 321//321 323//323
f 288//288 287//287 311//311
f 239//239 263//263 288//288
f 262//262 267//267 235//235
f 251//251 262//262 235//235
f 246//246 248//248 249//249
f 249//249 251//251 235//235
f 246//246 249//249 235//235
f 240//240 278//278 246//246
f 179//179 192//192 198//198
f 178//178 179//179 198//198
f 176//176 177//177 178//178
f 254//254 197//197 176//176
f 271//271 279//279 285//285
f 254//254 176//176 178//178
f 266//266 271//271 285//285
f 254//254 178//178 198//198
f 259//259 266//266 285//285
f 285//285 254//254 198//198
f 285//285 198//198 240//240
f 253//253 259//259 285//285
f 269//269 244//244 253//253
f 174//174 238//238 269//269
f 175//175 180//180 174//174
f 185//185 175//175 174//174
f 174//174 269//269 253//253
f 253//253 285//285 240//240
f 246//246 235//235 239//239
f 253//253 240//240 246//246
f 185//185 174//174 253//253
f 186//186 185//185 253//253
f 253//253 246//246 239//239
f 311//311 323//323 260//260
f 186//186 253//253 239//239
f 311//311 260//260 186//186
f 186//186 239//239 288//288
f 186//186 288//288 311//311
f 94//94 92//92 85//85
f 57//57 51//51 59//59
f 59//59 64//64 58//58
f 59//59 58//58 57//57
f 88//88 81//81 77//77
f 77//77 74//74 76//76
f 76//76 83//83 88//88
f 77//77 76//76 88//88
f 435//435 437//437 8//8
f 8//8 6//6 435//435
f 281//281 273//273 336//336
f 336//336 320//320 282//282
f 336//336 282//282 281//281
f 248//248 246//246 289//289
f 289//289 265//265 252//252
f 251//251 249//249 248//248
f 289//289 252//252 251//251
f 248//248 289//289 251//251
f 82//82 40//40 47//47
f 73//73 78//78 82//82
f 47//47 73//73 82//82
f 206//206 199//199 202//202
f 202//202 207//207 205//205
f 205//205 206//206 202//202
f 118//118 110//110 115//115
f 115//115 120//120 118//118
f 182//182 184//184 189//189
f 189//189 195//195 187//187
f 189//189 187//187 182//182
f 278//278 301//301 289//289
f 289//289 246//246 278//278
f 148//148 101//101 168//168
f 168//168 167//167 148//148
f 277//277 268//268 280//280
f 353//353 358//358 402//402
f 402//402 403//403 361//361
f 402//402 361//361 353//353
f 55//55 57//57 58//58
f 58//58 65//65 63//63
f 55//55 58//58 63//63
f 426//426 421//421 286//286
f 286//286 322//322 426//426
f 18//18 22//22 24//24
f 24//24 23//23 43//43
f 24//24 43//43 21//21
f 20//20 19//19 18//18
f 18//18 24//24 21//21
f 18//18 21//21 20//20
f 35//35 45//45 70//70
f 70//70 61//61 35//35
f 54//54 44//44 69//69
f 69//69 79//79 54//54
f 154//154 133//133 150//150
f 150//150 153//153 154//154
f 260//260 174//174 180//180
f 180//180 175//175 185//185
f 185//185 186//186 260//260
f 260//260 180//180 185//185
f 365//365 364//364 43//43
f 43//43 23//23 46//46
f 43//43 46//46 50//50
f 360//360 365//365 43//43
f 74//74 77//77 360//360
f 74//74 360//360 43//43
f 135//135 151//151 165//165
f 165//165 169//169 166//166
f 165//165 166//166 94//94
f 135//135 165//165 94//94
f 85//85 74//74 43//43
f 135//135 94//94 85//85
f 85//85 43//43 50//50
f 50//50 135//135 85//85
f 109//109 108//108 110//110
f 110//110 113//113 109//109
f 118//118 116//116 111//111
f 111//111 113//113 118//118
f 183//183 160//160 163//163
f 81//81 88//88 171//171
f 171//171 172//172 81//81
f 165//165 164//164 170//170
f 170//170 169//169 165//165
f 373//373 340//340 341//341
f 341//341 346//346 355//355
f 355//355 350//350 337//337
f 337//337 351//351 363//363
f 363//363 364//364 365//365
f 363//363 365//365 366//366
f 355//355 337//337 363//363
f 373//373 341//341 355//355
f 368//368 374//374 373//373
f 363//363 366//366 367//367
f 367//367 368//368 373//373
f 373//373 355//355 363//363
f 363//363 367//367 373//373
f 102//102 119//119 122//122
f 102//102 122//122 115//115
f 107//107 112//112 108//108
f 103//103 104//104 105//105
f 105//105 107//107 108//108
f 102//102 115//115 110//110
f 111//111 116//116 114//114
f 102//102 110//110 111//111
f 105//105 108//108 102//102
f 106//106 103//103 105//105
f 114//114 109//109 106//106
f 106//106 105//105 102//102
f 111//111 114//114 106//106
f 102//102 111//111 106//106
f 44//44 34//34 60//60
f 60//60 69//69 44//44
f 432//432 1//1 2//2
f 2//2 433//433 432//432
f 244//244 269//269 258//258
f 257//257 247//247 244//244
f 244//244 258//258 257//257
f 84//84 90//90 149//149
f 217//217 306//306 384//384
f 384//384 385//385 217//217
f 416//416 415//415 315//315
f 315//315 314//314 317//317
f 315//315 317//317 416//416
f 209//209 214//214 215//215
f 280//280 268//268 294//294
f 276//276 275//275 280//280
f 294//294 276//276 280//280
f 56//56 39//39 36//36
f 36//36 38//38 51//51
f 51//51 57//57 55//55
f 55//55 56//56 36//36
f 36//36 51//51 55//55
f 262//262 250//250 267//267
f 408//408 313//313 302//302
f 302//302 308//308 331//331
f 331//331 354//354 352//352
f 352//352 358//358 353//353
f 345//345 361//361 403//403
f 352//352 353//353 345//345
f 302//302 331//331 352//352
f 345//345 403//403 408//408
f 302//302 352//352 345//345
f 302//302 345//345 408//408
f 29//29 26//26 28//28
f 28//28 30//30 29//29
f 201//201 241//241 240//240
f 240//240 198//198 201//201
f 98//98 147//147 96//96
f 96//96 72//72 98//98
f 3//3 434//434 435//435
f 435//435 6//6 3//3
f 416//416 317//317 310//310
f 310//310 417//417 416//416
f 125//125 119//119 102//102
f 102//102 124//124 129//129
f 129//129 134//134 140//140
f 142//142 143//143 152//152
f 102//102 129//129 140//140
f 140//140 142//142 152//152
f 152//152 130//130 132//132
f 256//256 255//255 80//80
f 80//80 78//78 73//73
f 73//73 47//47 49//49
f 49//49 100//100 127//127
f 126//126 125//125 102//102
f 49//49 127//127 126//126
f 80//80 73//73 49//49
f 274//274 256//256 80//80
f 152//152 132//132 274//274
f 102//102 140//140 152//152
f 49//49 126//126 102//102
f 274//274 80//80 49//49
f 102//102 152//152 274//274
f 102//102 274//274 49//49
f 352//352 359//359 358//358
f 354//354 359//359 352//352
f 357//357 414//414 419//419
f 419//419 289//289 301//301
f 301//301 296//296 325//325
f 325//325 357//357 419//419
f 419//419 301//301 325//325
f 227//227 236//236 237//237
f 237//237 231//231 227//227
f 345//345 353//353 361//361
f 316//316 428//428 431//431
f 126//126 128//128 125//125
f 102//102 108//108 109//109
f 109//109 113//113 117//117
f 117//117 123//123 126//126
f 117//117 126//126 125//125
f 124//124 102//102 109//109
f 109//109 117//117 125//125
f 125//125 124//124 109//109
f 329//329 325//325 296//296
f 290//290 210//210 232//232
f 329//329 296//296 290//290
f 410//410 411//411 329//329
f 313//313 408//408 410//410
f 290//290 232//232 313//313
f 410//410 329//329 290//290
f 290//290 313//313 410//410
f 284//284 238//238 393//393
f 393//393 392//392 284//284
f 184//184 181//181 189//189
f 167//167 168//168 170//170
f 170//170 164//164 167//167
f 338//338 369//369 374//374
f 414//414 357//357 412//412
f 425//425 239//239 235//235
f 425//425 235//235 250//250
f 324//324 424//424 425//425
f 251//251 252//252 324//324
f 425//425 250//250 262//262
f 262//262 251//251 324//324
f 262//262 324//324 425//425
f 78//78 80//80 97//97
f 97//97 99//99 89//89
f 89//89 82//82 78//78
f 97//97 89//89 78//78
f 239//239 425//425 427//427
f 427//427 263//263 239//239
f 431//431 439//439 438//438
f 438//438 430//430 431//431
f 68//68 56//56 55//55
f 55//55 63//63 68//68
f 431//431 429//429 316//316
f 340//340 373//373 349//349
f 234//234 223//223 211//211
f 212//212 214//214 209//209
f 197//197 234//234 211//211
f 211//211 212//212 209//209
f 209//209 208//208 204//204
f 204//204 201//201 198//198
f 204//204 198//198 192//192
f 211//211 209//209 204//204
f 176//176 197//197 211//211
f 195//195 194//194 176//176
f 204//204 192//192 193//193
f 195//195 176//176 211//211
f 204//204 193//193 195//195
f 211//211 204//204 195//195
f 218//218 205//205 207//207
f 221//221 229//229 222//222
f 218//218 207//207 221//221
f 222//222 224//224 218//218
f 221//221 222//222 218//218
f 362//362 383//383 355//355
f 355//355 346//346 343//343
f 343//343 347//347 356//356
f 356//356 380//380 382//382
f 362//362 355//355 343//343
f 343//343 356//356 382//382
f 343//343 382//382 362//362
f 10//10 11//11 16//16
f 9//9 14//14 13//13
f 10//10 16//16 9//9
f 18//18 12//12 10//10
f 31//31 22//22 18//18
f 40//40 38//38 36//36
f 36//36 31//31 18//18
f 18//18 10//10 9//9
f 9//9 13//13 32//32
f 32//32 71//71 72//72
f 72//72 96//96 48//48
f 37//37 49//49 47//47
f 72//72 48//48 37//37
f 9//9 32//32 72//72
f 36//36 18//18 9//9
f 37//37 47//47 40//40
f 40//40 36//36 9//9
f 9//9 72//72 37//37
f 9//9 37//37 40//40
f 397//397 332//332 333//333
f 416//416 417//417 421//421
f 415//415 416//416 421//421
f 342//342 429//429 431//431
f 430//430 363//363 351//351
f 351//351 337//337 350//350
f 430//430 351//351 350//350
f 342//342 431//431 430//430
f 426//426 342//342 430//430
f 430//430 350//350 387//387
f 430//430 387//387 355//355
f 421//421 426//426 430//430
f 415//415 421//421 430//430
f 430//430 355//355 383//383
f 430//430 383//383 382//382
f 415//415 430//430 382//382
f 380//380 374//374 369//369
f 415//415 382//382 380//380
f 380//380 369//369 370//370
f 370//370 371//371 372//372
f 372//372 375//375 376//376
f 370//370 372//372 376//376
f 310//310 317//317 314//314
f 318//318 305//305 310//310
f 397//397 333//333 318//318
f 339//339 397//397 318//318
f 318//318 310//310 314//314
f 318//318 314//314 315//315
f 339//339 318//318 315//315
f 380//380 370//370 376//376
f 380//380 376//376 377//377
f 339//339 315//315 415//415
f 393//393 394//394 413//413
f 396//396 392//392 393//393
f 389//389 390//390 395//395
f 396//396 393//393 413//413
f 344//344 389//389 395//395
f 396//396 413//413 339//339
f 388//388 344//344 395//395
f 395//395 396//396 339//339
f 339//339 415//415 380//380
f 380//380 377//377 378//378
f 378//378 379//379 381//381
f 385//385 384//384 386//386
f 380//380 378//378 381//381
f 385//385 386//386 388//388
f 380//380 381//381 385//385
f 395//395 339//339 380//380
f 385//385 388//388 395//395
f 380//380 385//385 395//395
f 107//107 109//109 114//114
f 114//114 112//112 107//107
f 112//112 114//114 116//116
f 116//116 115//115 110//110
f 110//110 108//108 112//112
f 112//112 116//116 110//110
f 241//241 201//201 204//204
f 204//204 210//210 290//290
f 204//204 290//290 241//241
f 267//267 250//250 235//235
f 413//413 305//305 318//318
f 318//318 333//333 332//332
f 332//332 339//339 413//413
f 318//318 332//332 413//413
f 297//297 256//256 274//274
f 274//274 275//275 276//276
f 276//276 294//294 291//291
f 292//292 297//297 274//274
f 276//276 291//291 292//292
f 274//274 276//276 292//292
f 306//306 303//303 307//307
f 307//307 386//386 384//384
f 307//307 384//384 306//306
f 368//368 338//338 374//374
f 92//92 162//162 83//83
f 83//83 76//76 75//75
f 87//87 85//85 92//92
f 83//83 75//75 87//87
f 92//92 83//83 87//87
f 380//380 356//356 374//374
f 382//382 383//383 362//362
