v -0.0059930398 -0.0195 -0.00028882301
v -0.0059930398 0.0195 -0.00028882301
v -0.0057303999 -0.0195 0.00177834
v -0.0057303999 0.0195 0.00177834
v -0.0055328398 -0.0195 -0.0023211499
v -0.0055328398 0.0195 -0.0023211499
v -0.00477659 -0.0195 0.0036309999
v -0.00477659 0.0195 0.0036309999
v -0.0044052899 -0.0195 -0.0040735099
v -0.0044052899 0.0195 -0.0040735099
v -0.0027463899 -0.0195 -0.0053345398
v -0.0027463899 0.0195 -0.0053345398
v -0.00075624598 -0.0195 -0.0059521501
v -0.00075624598 0.0195 -0.0059521501
v -0.00040269099 -0.0195 0.0093848696
v -0.00040269099 0.0195 0.0093848696
v 0.00132512 -0.0195 -0.0058518401
v 0.00132512 0.0195 -0.0058518401
v 0.0032466501 -0.0195 -0.0050457199
v 0.0032466501 0.0195 -0.0050457199
v 0.00477659 -0.0195 -0.0036309999
v 0.00477659 0.0195 -0.0036309999
v 0.0091504902 -0.0195 0.0021228699
v 0.0091504902 0.0195 0.0021228699
v 0.0099499999 -0.0193223 0.00317462
v 0.0099499999 0.0193223 0.00317462
v 0.0106927 -0.018801801 0.0041516102
v 0.0106927 0.018801801 0.0041516102
v 0.0162833 -0.017000001 0.031335399
v 0.0162833 0.017000001 0.031335399
v 0.017433601 -0.0166246 0.0328486
v 0.017433601 0.0166246 0.0328486
v 0.020852201 -0.012 0.037345801
v 0.020852201 0.012 0.037345801
v 0.023993799 -0.0085450802 0.021649299
v 0.023993799 0.0085450802 0.021649299
v 0.025836499 -0.017000001 0.024073301
v 0.025836499 0.017000001 0.024073301
v 0.0269868 -0.0166246 0.025586599
v 0.0269868 0.0166246 0.025586599
v 0.0298087 -0.012 0.049128
v 0.0298087 0.012 0.049128
v 0.031338699 -0.012 0.050542701
v 0.031338699 0.012 0.050542701
v 0.0332602 -0.012 0.051348899
v 0.0332602 0.012 0.051348899
v 0.033618201 -0.0135 0.0478024
v 0.033618201 0.0135 0.0478024
v 0.034900401 -0.0135 0.047977101
v 0.034900401 0.0135 0.047977101
v 0.035341602 -0.012 0.051449198
v 0.035341602 0.012 0.051449198
v 0.036098201 -0.0135 0.0474873
v 0.036098201 0.0135 0.0474873
v 0.0368907 -0.0135 0.046464201
v 0.0368907 0.0135 0.046464201
v 0.037065402 -0.0135 0.0451819
v 0.037065402 0.0135 0.0451819
v 0.0373317 -0.012 0.050831601
v 0.0373317 0.012 0.050831601
v 0.038990598 -0.012 0.049570501
v 0.038990598 0.012 0.049570501
v 0.039361902 -0.012 0.041866001
v 0.039361902 0.012 0.041866001
v 0.040118098 -0.012 0.047818199
v 0.040118098 0.012 0.047818199
v 0.040315699 -0.012 0.043718699
v 0.040315699 0.012 0.043718699
v 0.040578399 -0.012 0.0457858
v 0.040578399 0.012 0.0457858
vn -0.98703682 -0.15328267 -0.047566663
vn -0.98029953 0.19178368 -0.047241982
vn -0.95443773 -0.036307205 0.29619336
vn -0.89809495 0.3402161 0.27870837
vn -0.93169183 -0.15606904 -0.32801333
vn -0.86887884 0.25199017 -0.4260875
vn -0.79913616 -0.00093338796 0.60114938
vn -0.80366319 0.060960211 0.59195381
vn -0.72556895 -0.15299666 -0.67092597
vn -0.69013447 0.34127164 -0.63816005
vn -0.43025115 -0.34127161 -0.8357138
vn -0.45234218 0.15299635 -0.87862313
vn -0.12369566 -0.19199224 -0.97356999
vn -0.12263163 0.23099624 -0.96519548
vn -0.18713917 -0.96151662 0.20115866
vn -0.26424417 0.92168128 0.28403997
vn 0.20570058 -0.36400983 -0.90839648
vn 0.22019082 0.077326044 -0.97238714
vn 0.53246665 -0.1780099 -0.82752144
vn 0.53968602 0.072471038 -0.83874124
vn 0.79035562 -0.058297034 -0.60986841
vn 0.7844854 0.0017555736 -0.62014484
vn 0.051411498 -0.99679506 0.061291158
vn 0.040724657 0.99799019 0.048550643
vn 0.79609978 -4.2059033e-05 -0.60516536
vn 0.79609978 4.2059033e-05 -0.60516536
vn 0.79609776 4.7688777e-06 -0.60516787
vn 0.79609782 -4.7828371e-06 -0.60516793
vn -0.089020841 -0.97538048 0.20176256
vn -0.089020848 0.97538048 0.20176259
vn -0.21249422 -0.89208502 0.39878634
vn -0.21249425 0.89208508 0.39878634
vn -0.79609799 -3.0777323e-07 0.60516769
vn -0.79609883 1.6463231e-07 0.60516673
vn 0.79609811 2.0401399e-06 -0.60516769
vn 0.79609817 -8.809269e-07 -0.60516745
vn 0.19043009 -0.98169971 0.0014099185
vn 0.19043009 0.98169971 0.0014099192
vn 0.44109967 -0.89208519 -0.098055676
vn 0.44109967 0.89208531 -0.098055713
vn -0.78301245 -0.01512822 0.62182218
vn -0.78299272 0.0082809897 0.62197572
vn -0.49192908 -0.35657051 0.79426903
vn -0.43492004 0.53952509 0.72094184
vn -0.21595186 -0.17454873 0.96067554
vn -0.21913449 0.091742851 0.97137195
vn -0.13526312 -0.9281143 0.34685406
vn -0.13526313 0.9281143 0.34685406
vn 0.03214924 -0.9669233 0.25303301
vn 0.032149244 0.9669233 0.25303301
vn 0.069653325 -0.092782937 0.99324709
vn 0.18094163 0.092784241 0.97910738
vn 0.092488043 -0.9882524 0.12166791
vn 0.092488043 0.9882524 0.12166791
vn 0.23520413 -0.96692395 0.098676428
vn 0.23520418 0.96692395 0.098676458
vn 0.37039679 -0.92811501 -0.037532926
vn 0.37039682 0.92811495 -0.037532926
vn 0.45508581 -0.091743752 0.88570869
vn 0.44932935 0.17455038 0.87614799
vn 0.72400886 -0.17454948 0.66734076
vn 0.73168141 0.09174332 0.67544454
vn 0.80018163 -0.0048529226 -0.59973818
vn 0.80607921 0.0064901761 -0.5917722
vn 0.89500308 -0.092782177 0.43630376
vn 0.93839836 0.092779733 0.33286715
vn 0.85515338 -0.43154195 -0.2872006
vn 0.87767386 0.43086854 -0.209859
vn 0.99458796 -0.091743998 0.048762463
vn 0.98342979 0.17455073 0.048966717
s 1
f 58//58 56//56 70//70
f 66//66 70//70 56//56
f 27//27 63//63 37//37
f 38//38 56//56 58//58
f 35//35 27//27 21//21
f 27//27 35//35 63//63
f 25//25 23//23 21//21
f 27//27 25//25 21//21
f 25//25 37//37 23//23
f 25//25 27//27 37//37
f 51//51 49//49 59//59
f 51//51 45//45 49//49
f 49//49 45//45 47//47
f 62//62 66//66 56//56
f 28//28 38//38 64//64
f 68//68 58//58 70//70
f 36//36 28//28 64//64
f 28//28 36//36 22//22
f 53//53 61//61 59//59
f 53//53 59//59 49//49
f 52//52 60//60 50//50
f 43//43 47//47 45//45
f 34//34 30//30 16//16
f 34//34 16//16 8//8
f 60//60 62//62 54//54
f 54//54 62//62 56//56
f 54//54 50//50 60//60
f 30//30 50//50 54//54
f 38//38 54//54 56//56
f 54//54 38//38 30//30
f 30//30 24//24 16//16
f 38//38 24//24 30//30
f 40//40 68//68 64//64
f 64//64 38//38 40//40
f 40//40 38//38 58//58
f 40//40 58//58 68//68
f 39//39 57//57 37//37
f 39//39 67//67 57//57
f 63//63 67//67 39//39
f 39//39 37//37 63//63
f 49//49 47//47 29//29
f 33//33 29//29 41//41
f 23//23 37//37 29//29
f 29//29 53//53 49//49
f 29//29 37//37 53//53
f 26//26 38//38 28//28
f 26//26 24//24 38//38
f 22//22 24//24 26//26
f 26//26 28//28 22//22
f 69//69 57//57 67//67
f 37//37 57//57 55//55
f 55//55 53//53 37//37
f 55//55 69//69 65//65
f 69//69 55//55 57//57
f 55//55 65//65 61//61
f 61//61 53//53 55//55
f 46//46 52//52 50//50
f 30//30 34//34 42//42
f 47//47 43//43 31//31
f 31//31 29//29 47//47
f 31//31 43//43 41//41
f 29//29 31//31 41//41
f 23//23 29//29 15//15
f 15//15 33//33 7//7
f 15//15 29//29 33//33
f 48//48 50//50 30//30
f 48//48 46//46 50//50
f 44//44 46//46 48//48
f 32//32 42//42 44//44
f 42//42 32//32 30//30
f 32//32 48//48 30//30
f 44//44 48//48 32//32
f 22//22 21//21 19//19
f 22//22 19//19 20//20
f 2//2 5//5 1//1
f 6//6 5//5 2//2
f 18//18 19//19 17//17
f 18//18 20//20 19//19
f 3//3 4//4 2//2
f 3//3 2//2 1//1
f 3//3 8//8 4//4
f 7//7 8//8 3//3
f 13//13 14//14 18//18
f 13//13 18//18 17//17
f 62//62 60//60 59//59
f 59//59 61//61 62//62
f 36//36 64//64 63//63
f 35//35 36//36 63//63
f 22//22 36//36 21//21
f 36//36 35//35 21//21
f 67//67 63//63 64//64
f 64//64 68//68 67//67
f 52//52 59//59 60//60
f 52//52 51//51 59//59
f 34//34 8//8 7//7
f 33//33 34//34 7//7
f 12//12 13//13 11//11
f 14//14 13//13 12//12
f 9//9 5//5 6//6
f 9//9 6//6 10//10
f 9//9 10//10 12//12
f 9//9 12//12 11//11
f 24//24 12//12 10//10
f 4//4 8//8 24//24
f 24//24 18//18 14//14
f 24//24 2//2 4//4
f 24//24 22//22 20//20
f 6//6 2//2 24//24
f 24//24 20//20 18//18
f 24//24 8//8 16//16
f 24//24 10//10 6//6
f 14//14 12//12 24//24
f 65//65 62//62 61//61
f 66//66 62//62 65//65
f 69//69 67//67 68//68
f 69//69 68//68 70//70
f 66//66 65//65 69//69
f 70//70 66//66 69//69
f 46//46 51//51 52//52
f 45//45 51//51 46//46
f 46//46 44//44 43//43
f 46//46 43//43 45//45
f 43//43 44//44 42//42
f 42//42 41//41 43//43
f 42//42 34//34 33//33
f 42//42 33//33 41//41
f 15//15 9//9 11//11
f 15//15 19//19 21//21
f 15//15 21//21 23//23
f 1//1 5//5 15//15
f 17//17 19//19 15//15
f 11//11 13//13 15//15
f 7//7 3//3 15//15
f 15//15 3//3 1//1
f 15//15 13//13 17//17
f 5//5 9//9 15//15
