<?xml version="1.0" encoding="utf-8" ?>
<COLLADA xmlns="http://www.collada.org/2005/11/COLLADASchema" version="1.4.1">
    <asset>
        <contributor>
            <authoring_tool>ctmconv</authoring_tool>
            <comments></comments>
        </contributor>
        <created>2017-03-06T10:26:13</created>
        <modified>2017-03-06T10:26:13</modified>
    </asset>
    <library_geometries>
        <geometry id="Mesh-1" name="Mesh-1">
            <mesh>
                <source id="Mesh-1-positions" name="position">
                    <float_array id="Mesh-1-positions-array" count="360">0.0179014 0.0075 -0.0115147 -0.0078003 0.011 0.00699966 -0.0010003 0.011 0.00699996 -0.00100177 -0.0106985 0.0407101 0.0235395 -0.007 -0.00446234 0.00399835 -0.007 0.0380002 -0.00780173 -0.010924 0.0398679 -0.00780177 -0.0106985 0.0407098 -0.00100173 -0.010924 0.0398682 -0.00780184 -0.00983022 0.0422136 -0.0078017 -0.011 0.0389997 -0.0078018 -0.0103301 0.0414997 -0.00780186 -0.00921394 0.0428299 -0.00780188 -0.0085 0.0433298 -0.00780184 0.00983022 0.0422136 -0.0078003 -0.011 0.00699966 -0.0078017 0.011 0.0389997 -0.00780173 0.010924 0.0398679 -0.00780186 0.00921394 0.0428299 -0.00780188 0.0085 0.0433298 -0.0078018 0.0103301 0.0414997 -0.00780191 0.00686824 0.0439237 -0.0078019 0.0077101 0.0436981 -0.00780191 -0.006 0.0439997 -0.00780191 0.006 0.0439997 -0.00780191 -0.00686824 0.0439237 -0.0078019 -0.0077101 0.0436981 -0.00780177 0.0106985 0.0407098 0.0179014 -0.0075 -0.0115147 -0.0010003 -0.011 0.00699996 0.0238102 -0.007 -0.00547256 0.0228255 -0.0075 -0.00564647 0.0239014 -0.007 -0.00651444 -0.0010017 -0.011 0.039 0.0225999 -0.0075 -0.00480461 0.00399835 0.007 0.0380002 0.0235395 0.007 -0.00446234 -0.00100177 0.0106985 0.0407101 -0.00100173 0.010924 0.0398682 0.0225999 0.0075 -0.00480461 -0.0010017 0.011 0.039 0.0238102 0.007 -0.00547256 -0.00100191 -0.006 0.044 -0.00100191 -0.00686824 0.043924 -0.0010018 -0.0103301 0.0415 0.0229014 0.0075 -0.00651471 -0.00100186 -0.00921394 0.0428302 -0.00100184 -0.00983022 0.0422139 -0.0010019 -0.0077101 0.0436984 0.0204014 0.0075 -0.0108448 0.0196115 0.0075 -0.0112132 0.0211154 0.0075 -0.0103449 0.0238103 0.007 -0.00755634 0.0239014 0.007 -0.00651444 0.0229014 -0.0075 -0.00651471 0.0228255 -0.0075 -0.00738295 -0.0010019 0.0077101 0.0436984 -0.00100188 0.0085 0.0433301 -0.00100184 0.00983022 0.0422139 -0.00100186 0.00921394 0.0428302 0.0228255 0.0075 -0.00564647 0.0225999 0.0075 -0.00822481 0.0222316 0.0075 -0.00901471 0.0230977 0.007 -0.00951448 -0.00100188 -0.0085 0.0433301 0.0187697 0.0075 -0.0114387 0.0217316 0.0075 -0.00972865 0.0225999 -0.0075 -0.00822481 0.0222316 -0.0075 -0.00901471 0.0235397 -0.007 -0.00856658 -0.0025 -0.0075 -0.00433012 -0.00171011 -0.0075 -0.00469846 -0.00100191 0.00686824 0.043924 -0.00100191 0.006 0.044 -0.0010018 0.0103301 0.0415 0.0228255 0.0075 -0.00738295 0.0238103 -0.007 -0.00755634 0.0235397 0.007 -0.00856658 -0.0025 0.0075 -0.00433012 -0.00171011 0.0075 -0.00469846 -0.0059088 -0.007 -0.00104215 -0.00563807 -0.007 -0.00205237 0.0158495 -0.007 -0.012153 0.0161913 -0.0075 -0.0112132 -0.00205188 -0.007 -0.00563825 0.0199538 0.007 -0.0121528 0.0217584 -0.007 -0.0111108 0.0211154 -0.0075 -0.0103449 0.0209017 -0.007 -0.0117107 0.0217316 -0.0075 -0.00972865 0.0224979 -0.007 -0.0103712 0.0196115 -0.0075 -0.0112132 0.0204014 -0.0075 -0.0108448 -0.00563807 0.007 -0.00205237 -0.0059088 0.007 -0.00104215 -0.0045961 -0.007 -0.00385693 -0.00385652 -0.007 -0.00459643 0.0161913 0.0075 -0.0112132 0.0158495 0.007 -0.012153 -0.00205188 0.007 -0.00563825 0.0170332 -0.0075 -0.0114387 -0.00299978 -0.007 -0.00519628 0.0230977 -0.007 -0.00951448 0.0189436 0.007 -0.0124235 0.0209017 0.007 -0.0117107 -0.0045961 0.007 -0.00385693 -0.00385652 0.007 -0.00459643 0.0170332 0.0075 -0.0114387 -0.00299978 0.007 -0.00519628 0.0179017 0.007 -0.0125147 0.0217584 0.007 -0.0111108 0.0187697 -0.0075 -0.0114387 0.0189436 -0.007 -0.0124235 0.0199538 -0.007 -0.0121528 0.0168598 -0.007 -0.0124236 -0.00519602 -0.007 -0.00300023 0.0168598 0.007 -0.0124236 0.0224979 0.007 -0.0103712 0.0179017 -0.007 -0.0125147 -0.00519602 0.007 -0.00300023 </float_array>
                    <technique_common>
                        <accessor count="120" offset="0" source="#Mesh-1-positions-array" stride="3">
                            <param name="X" type="float" />
                            <param name="Y" type="float" />
                            <param name="Z" type="float" />
                        </accessor>
                    </technique_common>
                </source>
                <source id="Mesh-1-normals" name="normal">
                    <float_array id="Mesh-1-normals-array" count="360">-0.0390774 0.89374 -0.44688 -0.973436 0 -0.22896 0 1 0 0.668728 -0.673835 0.314244 0.965915 0 0.258858 0.768194 0 0.640217 -3.81979e-06 -0.996195 0.0871562 -1.85207e-05 -0.906308 0.422618 -3.81973e-06 -0.996195 0.0871562 -2.5138e-05 -0.819153 0.573575 0 -1 0 -2.5138e-05 -0.819153 0.573575 -3.59001e-05 -0.573576 0.819152 -3.97173e-05 -0.42262 0.906307 -2.51386e-05 0.819153 0.573575 -0.973436 0 -0.22896 0 1 0 -3.81973e-06 0.996195 0.0871562 -3.59009e-05 0.573576 0.819152 -3.59009e-05 0.573576 0.819152 -1.85221e-05 0.906308 0.422618 -4.23336e-05 0.258817 0.965926 -4.23336e-05 0.258817 0.965926 -4.36606e-05 -0.0871571 0.996195 -4.36594e-05 0.0871571 0.996195 -4.23334e-05 -0.258817 0.965926 -4.23336e-05 -0.258817 0.965926 -1.85221e-05 0.906308 0.422618 0.0390952 -0.893748 -0.446863 0 -1 0 0.965915 0 0.258858 0.173022 -0.984802 0.0151369 0.996199 0 -0.0871118 0 -1 0 0.420087 -0.894427 0.153386 0.768194 0 0.640217 0.965915 0 0.258858 -1.85221e-05 0.906308 0.422618 -3.81973e-06 0.996195 0.0871562 0.433286 0.893747 0.116097 0 1 0 0.965915 0 0.258858 -4.36606e-05 -0.0871571 0.996195 -4.23334e-05 -0.258817 0.965926 -2.5138e-05 -0.819153 0.573575 0.446863 0.893748 -0.0390951 -3.59001e-05 -0.573576 0.819152 -2.51386e-05 -0.819153 0.573575 -4.23334e-05 -0.258817 0.965926 0.189598 0.89374 -0.406548 0.116122 0.89374 -0.433295 0.257314 0.89374 -0.367448 0.965936 0 -0.25878 0.996199 0 -0.0871118 0.446863 -0.893748 -0.0390951 0.446863 -0.893748 -0.0390951 -4.23334e-05 0.258817 0.965926 0.737751 0.285287 0.611829 -2.51386e-05 0.819153 0.573575 0.72257 0.396497 0.566289 0.446862 0.893748 0.0390941 0.433287 0.893747 -0.116098 0.367444 0.893748 -0.257292 0.819178 0 -0.573539 -3.97207e-05 -0.42262 0.906307 0.0391164 0.89374 -0.446876 0.367444 0.893748 -0.257292 0.406566 -0.893739 -0.189564 0.406545 -0.893746 -0.189574 0.906326 0 -0.422579 -0.22971 -0.894404 -0.383763 -0.189562 -0.89374 -0.406565 -4.23336e-05 0.258817 0.965926 -4.36594e-05 0.0871571 0.996195 -1.85221e-05 0.906308 0.422618 0.433287 0.893747 -0.116098 0.965936 0 -0.25878 0.906326 0 -0.422579 -0.189574 0.893748 -0.406542 -0.189562 0.89374 -0.406565 -0.965915 0 -0.258861 -0.906289 0 -0.422659 -0.258776 -0 -0.965937 -0.116099 -0.893748 -0.433285 -0.422578 0 -0.906326 0.258862 0 -0.965914 0.707138 0 -0.707076 0.257289 -0.893748 -0.367447 0.422657 0 -0.90629 0.317211 -0.89374 -0.317184 0.707138 0 -0.707076 0.189574 -0.893747 -0.406543 0.189598 -0.89374 -0.406548 -0.906289 0 -0.422659 -0.965915 0 -0.258861 -0.819127 0 -0.573613 -0.573542 0 -0.819176 -0.116099 0.893748 -0.433285 -0.258776 -0 -0.965937 -0.422578 0 -0.906326 -0.116083 -0.89374 -0.433306 -0.422578 0 -0.906326 0.819178 0 -0.573539 0.0871994 0 -0.996191 0.422657 0 -0.90629 -0.819127 0 -0.573613 -0.573542 0 -0.819176 -0.116083 0.89374 -0.433306 -0.422578 0 -0.906326 -0.0871124 0 -0.996198 0.707138 0 -0.707076 0.0391164 -0.89374 -0.446876 0.0871994 0 -0.996191 0.258862 0 -0.965914 -0.0871124 0 -0.996198 -0.819127 0 -0.573613 -0.0871124 0 -0.996198 0.707138 0 -0.707076 -0.0871124 0 -0.996198 -0.819127 0 -0.573613 </float_array>
                    <technique_common>
                        <accessor count="120" offset="0" source="#Mesh-1-normals-array" stride="3">
                            <param name="X" type="float" />
                            <param name="Y" type="float" />
                            <param name="Z" type="float" />
                        </accessor>
                    </technique_common>
                </source>
                <vertices id="Mesh-1-vertices">
                    <input semantic="POSITION" source="#Mesh-1-positions" />
                </vertices>
                <triangles count="236">
                    <input offset="0" semantic="VERTEX" source="#Mesh-1-vertices" />
                    <input offset="1" semantic="NORMAL" source="#Mesh-1-normals" />
                    <p>0 0 1 1 2 2 3 3 4 4 5 5 6 6 3 3 7 7 3 3 6 6 8 8 6 6 9 9 10 10 11 11 6 6 7 7 6 6 11 11 9 9 9 9 12 12 13 13 10 10 9 9 14 14 13 13 14 14 9 9 15 15 10 10 16 16 14 14 16 16 10 10 16 16 14 14 17 17 18 18 14 14 19 19 17 17 14 14 20 20 14 14 13 13 19 19 16 16 1 1 15 15 21 21 22 22 19 19 13 13 21 21 19 19 21 21 23 23 24 24 21 21 25 25 23 23 25 25 21 21 13 13 26 26 25 25 13 13 20 20 27 27 17 17 28 28 29 29 15 15 30 30 31 31 32 32 33 33 31 31 34 34 30 30 34 34 31 31 34 34 30 30 4 4 8 8 4 4 3 3 33 33 34 34 8 8 8 8 34 34 4 4 8 8 10 10 33 33 8 8 6 6 10 10 35 35 36 36 37 37 37 37 36 36 38 38 17 17 37 37 38 38 27 27 37 37 17 17 39 39 40 40 38 38 36 36 39 39 38 38 41 41 39 39 36 36 38 38 40 40 16 16 16 16 17 17 38 38 42 42 43 43 5 5 11 11 7 7 3 3 44 44 11 11 3 3 45 45 2 2 40 40 5 5 46 46 47 47 47 47 46 46 9 9 9 9 46 46 12 12 43 43 48 48 5 5 2 2 49 49 50 50 51 51 49 49 2 2 52 52 45 45 53 53 32 32 31 31 54 54 55 55 54 54 29 29 29 29 54 54 33 33 54 54 31 31 33 33 56 56 19 19 22 22 57 57 19 19 56 56 58 58 59 59 35 35 58 58 14 14 59 59 59 59 14 14 18 18 40 40 39 39 60 60 60 60 45 45 40 40 60 60 39 39 41 41 60 60 41 41 53 53 45 45 60 60 53 53 61 61 62 62 2 2 61 61 63 63 62 62 18 18 19 19 59 59 57 57 59 59 19 19 44 44 3 3 5 5 5 5 47 47 44 44 44 44 9 9 11 11 44 44 47 47 9 9 64 64 46 46 5 5 48 48 64 64 5 5 65 65 0 0 2 2 2 2 50 50 65 65 62 62 66 66 2 2 66 66 51 51 2 2 67 67 55 55 29 29 68 68 67 67 29 29 67 67 69 69 55 55 70 70 71 71 15 15 72 72 73 73 35 35 56 56 72 72 35 35 35 35 59 59 57 57 57 57 56 56 35 35 35 35 37 37 74 74 74 74 58 58 35 35 74 74 14 14 58 58 20 20 14 14 74 74 75 75 2 2 45 45 75 75 61 61 2 2 52 52 75 75 45 45 13 13 12 12 46 46 46 46 64 64 13 13 13 13 48 48 26 26 13 13 64 64 48 48 55 55 69 69 76 76 32 32 54 54 76 76 76 76 54 54 55 55 77 77 63 63 61 61 77 77 75 75 52 52 77 77 61 61 75 75 78 78 1 1 79 79 80 80 81 81 15 15 71 71 82 82 83 83 84 84 82 82 71 71 83 83 15 15 71 71 37 37 27 27 20 20 20 20 74 74 37 37 85 85 50 50 49 49 86 86 87 87 88 88 89 89 68 68 29 29 87 87 89 89 29 29 89 89 90 90 68 68 89 89 87 87 86 86 89 89 86 86 90 90 91 91 92 92 29 29 92 92 87 87 29 29 92 92 88 88 87 87 93 93 94 94 1 1 95 95 96 96 15 15 97 97 98 98 79 79 79 79 98 98 99 99 97 97 79 79 1 1 100 100 28 28 15 15 100 100 15 15 83 83 100 100 83 83 82 82 70 70 101 101 71 71 101 101 84 84 71 71 96 96 101 101 15 15 101 101 70 70 15 15 68 68 90 90 102 102 102 102 67 67 68 68 69 69 67 67 102 102 103 103 65 65 50 50 50 50 85 85 103 103 104 104 49 49 51 51 104 104 85 85 49 49 105 105 1 1 106 106 107 107 1 1 0 0 107 107 97 97 1 1 98 98 97 97 107 107 108 108 106 106 1 1 108 108 1 1 78 78 108 108 78 78 79 79 79 79 99 99 108 108 109 109 0 0 65 65 109 109 65 65 103 103 66 66 110 110 51 51 110 110 104 104 51 51 111 111 112 112 91 91 29 29 28 28 111 111 111 111 91 91 29 29 91 91 112 112 113 113 113 113 92 92 91 91 88 88 92 92 113 113 28 28 100 100 114 114 114 114 100 100 82 82 81 81 115 115 15 15 115 115 95 95 15 15 116 116 107 107 0 0 109 109 116 116 0 0 107 107 116 116 98 98 117 117 110 110 66 66 62 62 63 63 117 117 117 117 66 66 62 62 28 28 114 114 118 118 118 118 111 111 28 28 118 118 112 112 111 111 119 119 93 93 1 1 119 119 1 1 105 105 15 15 29 29 10 10 10 10 29 29 33 33 36 36 5 5 4 4 5 5 36 36 35 35 41 41 30 30 32 32 53 53 41 41 32 32 41 41 36 36 4 4 4 4 30 30 41 41 16 16 40 40 2 2 16 16 2 2 1 1 42 42 5 5 35 35 35 35 73 73 42 42 42 42 73 73 24 24 24 24 23 23 42 42 25 25 42 42 23 23 42 42 25 25 43 43 48 48 43 43 25 25 48 48 25 25 26 26 72 72 24 24 73 73 72 72 21 21 24 24 72 72 22 22 21 21 72 72 56 56 22 22 76 76 53 53 32 32 76 76 52 52 53 53 76 76 77 77 52 52 77 77 76 76 69 69 15 15 1 1 94 94 94 94 80 80 15 15 94 94 93 93 81 81 81 81 80 80 94 94 84 84 99 99 82 82 99 99 98 98 82 82 102 102 77 77 69 69 77 77 102 102 63 63 95 95 105 105 96 96 105 105 106 106 96 96 96 96 106 106 108 108 108 108 101 101 96 96 108 108 99 99 84 84 84 84 101 101 108 108 110 110 88 88 104 104 86 86 88 88 110 110 113 113 104 104 88 88 85 85 104 104 113 113 113 113 103 103 85 85 113 113 112 112 103 103 98 98 116 116 82 82 116 116 114 114 82 82 102 102 117 117 63 63 117 117 102 102 90 90 86 86 110 110 117 117 117 117 90 90 86 86 103 103 112 112 118 118 118 118 109 109 103 103 114 114 116 116 118 118 118 118 116 116 109 109 81 81 93 93 119 119 119 119 115 115 81 81 119 119 105 105 95 95 95 95 115 115 119 119 </p>
                </triangles>
            </mesh>
        </geometry>
    </library_geometries>
    <library_visual_scenes>
        <visual_scene id="Scene-1" name="Scene-1">
            <node id="Object-1" name="Object-1">
                <instance_geometry url="#Mesh-1" />
            </node>
        </visual_scene>
    </library_visual_scenes>
    <scene>
        <instance_visual_scene url="#Scene-1" />
    </scene>
</COLLADA>
