<?xml version="1.0" encoding="utf-8" ?>
<COLLADA xmlns="http://www.collada.org/2005/11/COLLADASchema" version="1.4.1">
    <asset>
        <contributor>
            <authoring_tool>ctmconv</authoring_tool>
            <comments></comments>
        </contributor>
        <created>2017-03-06T10:26:13</created>
        <modified>2017-03-06T10:26:13</modified>
    </asset>
    <library_geometries>
        <geometry id="Mesh-1" name="Mesh-1">
            <mesh>
                <source id="Mesh-1-positions" name="position">
                    <float_array id="Mesh-1-positions-array" count="1872">0.0263113 0.012 0.00841294 0.0263037 0.012 0.00832227 0.0223197 0.012 0.0083987 0.0263104 0.012 0.00867083 0.0262366 0.012 0.00798017 0.0261111 0.012 0.00765492 0.025931 0.012 0.0073564 0.0257019 0.012 0.00709369 0.0254305 0.012 0.00687476 0.0251253 0.012 0.00670627 0.0223263 0.012 0.00874726 0.0223736 0.012 0.00805428 0.0224865 0.012 0.00772445 0.0247955 0.012 0.00659334 0.0244511 0.012 0.0065394 0.0241025 0.012 0.00654609 0.0237604 0.012 0.0066132 0.0234352 0.012 0.00673869 0.022655 0.012 0.00741925 0.0231367 0.012 0.00691876 0.0228739 0.012 0.00714794 0.0223935 0.012 0.00908936 0.022519 0.012 0.00941461 0.022699 0.012 0.00971313 0.0229282 0.012 0.00997584 0.0231995 0.012 0.0101948 0.0262564 0.012 0.00901526 0.0261435 0.012 0.00934508 0.0235047 0.012 0.0103633 0.0238345 0.012 0.0104762 0.024179 0.012 0.0105301 0.025975 0.012 0.00965029 0.0245275 0.012 0.0105234 0.0248696 0.012 0.0104563 0.0251949 0.012 0.0103308 0.0254934 0.012 0.0101508 0.0257561 0.012 0.0099216 0.0311598 0.005 -0.00690566 0.0303046 0.005 -0.00673788 0.0268871 0.005 -0.000547476 0.0320312 0.005 -0.00692238 0.0294914 0.005 -0.00642414 0.0287451 0.005 -0.00597396 0.036495 0.005 -0.00332045 0.0361812 0.005 -0.00413358 0.035731 0.005 -0.00487987 0.0272009 0.005 0.000265652 0.0267193 0.005 -0.00140273 0.0351581 0.005 -0.00553666 0.0344798 0.005 -0.00608397 0.0337168 0.005 -0.0065052 0.0328923 0.005 -0.00678752 0.027651 0.005 0.00101195 0.028224 0.005 0.00166873 0.0289022 0.005 0.00221605 0.0296653 0.005 0.00263727 0.0366627 0.005 -0.00246519 0.0366795 0.005 -0.0015938 0.0365446 0.005 -0.000732736 0.0362623 0.005 9.18264e-05 0.0304898 0.005 0.0029196 0.0313509 0.005 0.00305445 0.0322223 0.005 0.00303774 0.0330775 0.005 0.00286996 0.0338907 0.005 0.00255621 0.0358411 0.005 0.000854837 0.034637 0.005 0.00210604 0.0352937 0.005 0.00153311 0.0267026 0.005 -0.00227413 0.0271198 0.005 -0.00395975 0.027541 0.005 -0.00472276 0.0280883 0.005 -0.00540104 0.0268375 0.005 -0.00313519 0.0262334 0.0116258 0.00713593 0.0262199 0.0115 0.00691573 0.0260486 0.0115 0.00673342 0.0263495 0.0119042 0.00903828 0.0263744 0.0117474 0.00944742 0.0263271 0.0119832 0.00867197 0.0264027 0.0115 0.00991016 0.0263058 0.0119979 0.00832205 0.0262841 0.0119506 0.00796647 0.0262606 0.0118335 0.00758169 0.0243275 0.0115 0.00604358 0.0240494 0.0115 0.00604891 0.0244851 0.0115 0.00604056 0.0239003 0.0115 0.00607817 0.0236218 0.0115 0.00613281 0.0234852 0.0115 0.00618549 0.0232152 0.0115 0.00628968 0.0230947 0.0115 0.00636237 0.0228421 0.0115 0.00651476 0.0227403 0.0115 0.00660358 0.0225137 0.0115 0.00680123 0.0224324 0.0115 0.006902 0.02224 0.0115 0.00714036 0.0221802 0.0115 0.0072488 0.0220294 0.0115 0.00752187 0.0219911 0.0115 0.00763374 0.0218882 0.0115 0.00793415 0.0218708 0.0115 0.00804541 0.0218208 0.0115 0.00836468 0.0218229 0.0115 0.00847166 0.0218292 0.0115 0.00880038 0.0218487 0.0115 0.00889986 0.0219131 0.0115 0.00922801 0.0219475 0.0115 0.00931734 0.0220699 0.0115 0.00963457 0.0221165 0.0115 0.00971175 0.022295 0.0115 0.0100077 0.0223506 0.0115 0.0100714 0.0225815 0.0115 0.0103361 0.0226429 0.0115 0.0103857 0.0229206 0.0115 0.0106098 0.0229848 0.0115 0.0106452 0.0233021 0.0115 0.0108204 0.0233661 0.0115 0.0108423 0.0237144 0.0115 0.0109615 0.0237757 0.0115 0.0109711 0.0241449 0.0115 0.011029 0.0242014 0.0115 0.0110279 0.0245806 0.0115 0.0110206 0.0246305 0.0115 0.0110108 0.0250083 0.0115 0.0109367 0.0250504 0.0115 0.0109205 0.0254148 0.0115 0.0107799 0.0254487 0.0115 0.0107594 0.025788 0.0115 0.0105548 0.0258136 0.0115 0.0105324 0.0261164 0.0115 0.0102683 0.0261342 0.0115 0.0102462 0.02639 0.0115 0.00992917 0.0259084 0.0115 0.00662031 0.0257094 0.0115 0.00645976 0.0255567 0.0115 0.00637543 0.0253279 0.0115 0.00624915 0.0251682 0.0115 0.00619445 0.0249156 0.0115 0.00610798 0.0247544 0.0115 0.00608273 0.0366795 0.0045 -0.0015938 0.0365446 0.0045 -0.000732736 0.0366627 0.0045 -0.00246519 0.036495 0.0045 -0.00332045 0.0361812 0.0045 -0.00413358 0.035731 0.0045 -0.00487987 0.0351581 0.0045 -0.00553666 0.0344798 0.0045 -0.00608397 0.0337168 0.0045 -0.0065052 0.0328923 0.0045 -0.00678752 0.0320312 0.0045 -0.00692238 0.0311598 0.0045 -0.00690566 0.0303046 0.0045 -0.00673788 0.0294914 0.0045 -0.00642414 0.0287451 0.0045 -0.00597396 0.0280883 0.0045 -0.00540104 0.027541 0.0045 -0.00472276 0.0271198 0.0045 -0.00395975 0.0268375 0.0045 -0.00313519 0.0267026 0.0045 -0.00227413 0.0267193 0.0045 -0.00140273 0.0268871 0.0045 -0.000547476 0.0272009 0.0045 0.000265652 0.027651 0.0045 0.00101195 0.028224 0.0045 0.00166873 0.0289022 0.0045 0.00221605 0.0296653 0.0045 0.00263727 0.0304898 0.0045 0.0029196 0.0313509 0.0045 0.00305445 0.0322223 0.0045 0.00303774 0.0330775 0.0045 0.00286996 0.0338907 0.0045 0.00255621 0.034637 0.0045 0.00210604 0.0352937 0.0045 0.00153311 0.0358411 0.0045 0.000854837 0.0362623 0.0045 9.18264e-05 0.0262199 0.0045 0.00691573 0.0264027 0.0045 0.00991016 0.026136 0.0045 0.0102477 0.0258154 0.0045 0.0105345 0.0254504 0.0045 0.0107621 0.0250517 0.0045 0.0109238 0.0246313 0.0045 0.0110147 0.0242014 0.0045 0.0110322 0.023775 0.0045 0.0109757 0.0233645 0.0045 0.010847 0.0229822 0.0045 0.0106499 0.0226393 0.0045 0.0103901 0.0223461 0.0045 0.0100753 0.0221111 0.0045 0.00971498 0.0219414 0.0045 0.00931969 0.021842 0.0045 0.00890117 0.0218158 0.0045 0.00847179 0.0218636 0.0045 0.00804428 0.021984 0.0045 0.0076313 0.0221734 0.0045 0.00724506 0.0224262 0.0045 0.00689701 0.0227349 0.0045 0.00659744 0.0230904 0.0045 0.00635524 0.0234822 0.0045 0.00617757 0.0238986 0.0045 0.00606969 0.0243274 0.0045 0.0060348 0.0247557 0.0045 0.00607392 0.0251711 0.0045 0.00618591 0.0255611 0.0045 0.00636743 0.0259142 0.0045 0.00661313 0.0263037 -0.012 0.00832227 0.0263113 -0.012 0.00841294 0.0223197 -0.012 0.0083987 0.0223736 -0.012 0.00805428 0.0224865 -0.012 0.00772445 0.0262366 -0.012 0.00798017 0.0263104 -0.012 0.00867083 0.0262564 -0.012 0.00901526 0.0261435 -0.012 0.00934508 0.0223263 -0.012 0.00874726 0.025975 -0.012 0.00965029 0.0257561 -0.012 0.0099216 0.0254934 -0.012 0.0101508 0.0251949 -0.012 0.0103308 0.0223935 -0.012 0.00908936 0.022519 -0.012 0.00941461 0.022699 -0.012 0.00971313 0.0229282 -0.012 0.00997584 0.0231995 -0.012 0.0101948 0.0235047 -0.012 0.0103633 0.0238345 -0.012 0.0104762 0.0248696 -0.012 0.0104563 0.0245275 -0.012 0.0105234 0.024179 -0.012 0.0105301 0.0261111 -0.012 0.00765492 0.022655 -0.012 0.00741925 0.0228739 -0.012 0.00714794 0.0231367 -0.012 0.00691876 0.0234352 -0.012 0.00673869 0.0237604 -0.012 0.0066132 0.025931 -0.012 0.0073564 0.0254305 -0.012 0.00687476 0.0257019 -0.012 0.00709369 0.0241025 -0.012 0.00654609 0.0244511 -0.012 0.0065394 0.0251253 -0.012 0.00670627 0.0247955 -0.012 0.00659334 0.00654328 -0.0055 -0.00366544 0.00705735 -0.0055 -0.00253846 -0.00705735 -0.0055 0.00253846 0.00585073 -0.0055 -0.00469244 0.00499858 -0.0055 -0.00559144 0.00401009 -0.0055 -0.00633792 0.00291221 -0.0055 -0.00691152 0.00173489 -0.0055 -0.00729659 0.000510248 -0.0055 -0.00748262 -0.00072831 -0.0055 -0.00746455 -0.00654328 -0.0055 0.00366544 -0.00737892 -0.0055 0.00134224 -0.00585073 -0.0055 0.00469244 -0.00499858 -0.0055 0.00559144 -0.00401009 -0.0055 0.00633792 -0.0029122 -0.0055 0.00691152 0.00737892 -0.0055 -0.00134224 0.0074992 -0.0055 -0.000109403 0.00741493 -0.0055 0.00112642 0.0071284 -0.0055 0.00233151 -0.00173489 -0.0055 0.00729659 -0.000510249 -0.0055 0.00748262 0.00072831 -0.0055 0.00746455 0.001947 -0.0055 0.00724287 0.00311259 -0.0055 0.00682362 0.00419327 -0.0055 0.00621824 0.00515956 -0.0055 0.00544324 0.00664742 -0.0055 0.00347301 0.00598512 -0.0055 0.00451977 -0.0074992 -0.0055 0.000109404 -0.00741493 -0.0055 -0.00112641 -0.0071284 -0.0055 -0.00233151 -0.00664742 -0.0055 -0.00347301 -0.00598512 -0.0055 -0.00451977 -0.00515956 -0.0055 -0.00544324 -0.001947 -0.0055 -0.00724287 -0.00419326 -0.0055 -0.00621824 -0.00311258 -0.0055 -0.00682362 0.00654328 0.0055 -0.00366544 0.00585073 0.0055 -0.00469244 -0.00585073 0.0055 0.00469244 0.00705735 0.0055 -0.00253846 0.00499858 0.0055 -0.00559144 0.00401009 0.0055 -0.00633792 0.00291221 0.0055 -0.00691152 0.00173489 0.0055 -0.00729659 0.000510248 0.0055 -0.00748262 -0.00072831 0.0055 -0.00746455 -0.001947 0.0055 -0.00724287 -0.00311258 0.0055 -0.00682362 -0.00419326 0.0055 -0.00621824 -0.00515956 0.0055 -0.00544324 -0.00598512 0.0055 -0.00451977 -0.00664742 0.0055 -0.00347301 -0.0071284 0.0055 -0.00233151 -0.00705735 0.0055 0.00253846 -0.00654328 0.0055 0.00366544 -0.00499858 0.0055 0.00559144 -0.00401009 0.0055 0.00633792 -0.0029122 0.0055 0.00691152 -0.00173489 0.0055 0.00729659 -0.000510249 0.0055 0.00748262 0.00072831 0.0055 0.00746455 0.001947 0.0055 0.00724287 0.00737892 0.0055 -0.00134224 0.00311259 0.0055 0.00682362 0.0071284 0.0055 0.00233151 0.00741493 0.0055 0.00112642 0.0074992 0.0055 -0.000109403 0.00419327 0.0055 0.00621824 0.00515956 0.0055 0.00544324 0.00598512 0.0055 0.00451977 0.00664742 0.0055 0.00347301 -0.00741493 0.0055 -0.00112641 -0.0074992 0.0055 0.000109404 -0.00737892 0.0055 0.00134224 0.0367839 0.0045 -0.00510622 0.0361922 0.0045 -0.00590134 0.0354776 0.0045 -0.0065882 0.0372366 0.0045 -0.00422454 0.037538 0.0045 -0.00328036 0.0376799 0.0045 -0.00229944 0.038289 0.0045 0.00768199 0.0382615 0.0045 0.0087275 0.0380528 0.0045 0.00975235 0.0376694 0.0045 0.0107254 0.0371228 0.0045 0.0116171 0.0364297 0.0045 0.0124003 0.0346919 0.0045 0.0135502 0.0356111 0.0045 0.0130512 0.0326656 0.0045 0.0140363 0.0337 0.0045 0.0138819 0.0246805 0.0045 0.0145236 0.0236806 0.0045 0.0145011 0.0226984 0.0045 0.0143129 0.0217611 0.0045 0.0139641 0.0208947 0.0045 0.0134644 0.0201234 0.0045 0.0128278 0.0194685 0.0045 0.0120719 0.0189483 0.0045 0.0112177 0.0185772 0.0045 0.010289 0.0183655 0.0045 0.00931156 0.0181415 0.0045 0.00827709 0.0177487 0.0045 0.00729419 0.0171982 0.0045 0.00639019 0.0156888 0.0045 0.00491645 0.0165051 0.0045 0.00559021 0.0147719 0.0045 0.00438765 0.0137799 0.0045 0.00401851 0.0127404 0.0045 0.00381926 0.0116822 0.0045 0.00379546 0.00737892 0.0045 -0.00134224 0.0074992 0.0045 -0.000109403 0.00741493 0.0045 0.00112642 0.0071284 0.0045 0.00233151 0.00768998 0.0045 0.00403909 0.00664742 0.0045 0.00347301 0.00720389 0.0045 0.00410645 0.00598512 0.0045 0.00451977 0.0062908 0.0045 0.00445846 0.00673381 0.0045 0.00424735 0.0055268 0.0045 0.00506996 0.00588529 0.0045 0.00473483 0.00705735 0.0045 -0.00253846 0.00654328 0.0045 -0.00366544 0.00714177 0.0045 -0.0049442 0.00665109 0.0045 -0.00495196 0.00585073 0.0045 -0.00469244 0.0263914 0.0045 -0.00611892 0.0268502 0.0045 -0.00618046 0.0272953 0.0045 -0.00630753 0.0281076 0.0045 -0.00674637 0.0277174 0.0045 -0.0064975 0.0289488 0.0045 -0.00727062 0.0298647 0.0045 -0.00764925 0.0308305 0.0045 -0.00787193 0.0318198 0.0045 -0.00793258 0.0328055 0.0045 -0.00782955 0.0337609 0.0045 -0.00756564 0.0346598 0.0045 -0.00714806 0.00616737 0.0045 -0.00503465 0.00570198 0.0045 -0.00519033 0.00526587 0.0045 -0.00541534 0.00499858 0.0045 -0.00559144 0.00486929 0.0045 -0.00570439 0.0287451 -0.005 -0.00597396 0.0366795 -0.005 -0.0015938 0.0365446 -0.005 -0.000732736 0.0362623 -0.005 9.18264e-05 0.0358411 -0.005 0.000854837 0.0352937 -0.005 0.00153311 0.034637 -0.005 0.00210604 0.0338907 -0.005 0.00255621 0.0330775 -0.005 0.00286996 0.0322223 -0.005 0.00303774 0.0313509 -0.005 0.00305445 0.0304898 -0.005 0.0029196 0.0294914 -0.005 -0.00642414 0.0296653 -0.005 0.00263727 0.0289022 -0.005 0.00221605 0.028224 -0.005 0.00166873 0.0268871 -0.005 -0.000547476 0.0267193 -0.005 -0.00140273 0.0267026 -0.005 -0.00227413 0.0268375 -0.005 -0.00313519 0.0271198 -0.005 -0.00395975 0.027541 -0.005 -0.00472276 0.0280883 -0.005 -0.00540104 0.027651 -0.005 0.00101195 0.0272009 -0.005 0.000265652 0.0303046 -0.005 -0.00673788 0.0311598 -0.005 -0.00690566 0.0320312 -0.005 -0.00692238 0.0328923 -0.005 -0.00678752 0.0337168 -0.005 -0.0065052 0.0366627 -0.005 -0.00246519 0.0344798 -0.005 -0.00608397 0.036495 -0.005 -0.00332045 0.0351581 -0.005 -0.00553666 0.035731 -0.005 -0.00487987 0.0361812 -0.005 -0.00413358 0.0263271 -0.0119832 0.00867197 0.0263495 -0.0119042 0.00903828 0.0263744 -0.0117474 0.00944742 0.0260486 -0.0115 0.00673342 0.0262199 -0.0115 0.00691573 0.0262334 -0.0116258 0.00713593 0.0262606 -0.0118335 0.00758169 0.0262841 -0.0119506 0.00796647 0.0263058 -0.0119979 0.00832205 0.0241449 -0.0115 0.011029 0.0237757 -0.0115 0.0109711 0.0237144 -0.0115 0.0109615 0.0233661 -0.0115 0.0108423 0.0233021 -0.0115 0.0108204 0.0229848 -0.0115 0.0106452 0.0229206 -0.0115 0.0106098 0.0226429 -0.0115 0.0103857 0.0225815 -0.0115 0.0103361 0.0223506 -0.0115 0.0100714 0.022295 -0.0115 0.0100077 0.0221165 -0.0115 0.00971175 0.0220699 -0.0115 0.00963457 0.0219475 -0.0115 0.00931734 0.0219131 -0.0115 0.00922801 0.0218487 -0.0115 0.00889986 0.0218292 -0.0115 0.00880038 0.0218229 -0.0115 0.00847166 0.0218208 -0.0115 0.00836468 0.0218708 -0.0115 0.00804541 0.0218882 -0.0115 0.00793415 0.0219911 -0.0115 0.00763374 0.0220294 -0.0115 0.00752187 0.0221802 -0.0115 0.0072488 0.02224 -0.0115 0.00714036 0.0224324 -0.0115 0.006902 0.0225137 -0.0115 0.00680123 0.0227403 -0.0115 0.00660358 0.0228421 -0.0115 0.00651476 0.0230947 -0.0115 0.00636237 0.0232152 -0.0115 0.00628968 0.0234852 -0.0115 0.00618549 0.0236218 -0.0115 0.00613281 0.0239003 -0.0115 0.00607817 0.0240494 -0.0115 0.00604891 0.0243275 -0.0115 0.00604358 0.0244851 -0.0115 0.00604056 0.0247544 -0.0115 0.00608273 0.0249156 -0.0115 0.00610798 0.0251682 -0.0115 0.00619445 0.0253279 -0.0115 0.00624915 0.0255567 -0.0115 0.00637543 0.0257094 -0.0115 0.00645976 0.0259084 -0.0115 0.00662031 0.0264027 -0.0115 0.00991016 0.02639 -0.0115 0.00992917 0.0261342 -0.0115 0.0102462 0.0261164 -0.0115 0.0102683 0.0258136 -0.0115 0.0105324 0.025788 -0.0115 0.0105548 0.0254487 -0.0115 0.0107594 0.0254148 -0.0115 0.0107799 0.0250504 -0.0115 0.0109205 0.0250083 -0.0115 0.0109367 0.0246305 -0.0115 0.0110108 0.0245806 -0.0115 0.0110206 0.0242014 -0.0115 0.0110279 0.0116822 -0.0045 0.00379546 0.00768998 -0.0045 0.00403909 0.0183655 -0.0045 0.00931156 0.0181415 -0.0045 0.00827709 0.0185772 -0.0045 0.010289 0.0177487 -0.0045 0.00729419 0.0171982 -0.0045 0.00639019 0.0165051 -0.0045 0.00559021 0.0156888 -0.0045 0.00491645 0.0147719 -0.0045 0.00438765 0.0137799 -0.0045 0.00401851 0.0127404 -0.0045 0.00381926 0.0246805 -0.0045 0.0145236 0.0236806 -0.0045 0.0145011 0.0226984 -0.0045 0.0143129 0.0217611 -0.0045 0.0139641 0.0208947 -0.0045 0.0134644 0.0201234 -0.0045 0.0128278 0.0194685 -0.0045 0.0120719 0.0189483 -0.0045 0.0112177 0.0326656 -0.0045 0.0140363 0.038289 -0.0045 0.00768199 0.0382615 -0.0045 0.0087275 0.0380528 -0.0045 0.00975235 0.0376694 -0.0045 0.0107254 0.0371228 -0.0045 0.0116171 0.0364297 -0.0045 0.0124003 0.0356111 -0.0045 0.0130512 0.0346919 -0.0045 0.0135502 0.0337 -0.0045 0.0138819 0.0376799 -0.0045 -0.00229944 0.0281076 -0.0045 -0.00674637 0.0289488 -0.0045 -0.00727062 0.0298647 -0.0045 -0.00764925 0.0308305 -0.0045 -0.00787193 0.0318198 -0.0045 -0.00793258 0.0328055 -0.0045 -0.00782955 0.0337609 -0.0045 -0.00756564 0.0346598 -0.0045 -0.00714806 0.0354776 -0.0045 -0.0065882 0.0361922 -0.0045 -0.00590134 0.0367839 -0.0045 -0.00510622 0.0372366 -0.0045 -0.00422454 0.037538 -0.0045 -0.00328036 0.0263914 -0.0045 -0.00611892 0.0268502 -0.0045 -0.00618046 0.0272953 -0.0045 -0.00630753 0.0277174 -0.0045 -0.0064975 0.00714177 -0.0045 -0.0049442 0.00486929 -0.0045 -0.00570439 0.00526587 -0.0045 -0.00541534 0.00570198 -0.0045 -0.00519033 0.00616737 -0.0045 -0.00503465 0.00665109 -0.0045 -0.00495196 0.00598512 -0.0045 0.00451977 0.0055268 -0.0045 0.00506996 0.00499858 -0.0045 -0.00559144 0.00585073 -0.0045 -0.00469244 0.00654328 -0.0045 -0.00366544 0.00705735 -0.0045 -0.00253846 0.00737892 -0.0045 -0.00134224 0.0074992 -0.0045 -0.000109403 0.00741493 -0.0045 0.00112642 0.0071284 -0.0045 0.00233151 0.00664742 -0.0045 0.00347301 0.00720389 -0.0045 0.00410645 0.00673381 -0.0045 0.00424735 0.0062908 -0.0045 0.00445846 0.00588529 -0.0045 0.00473483 0.0267026 -0.0045 -0.00227413 0.0267193 -0.0045 -0.00140273 0.0268375 -0.0045 -0.00313519 0.0271198 -0.0045 -0.00395975 0.027541 -0.0045 -0.00472276 0.0280883 -0.0045 -0.00540104 0.0287451 -0.0045 -0.00597396 0.0294914 -0.0045 -0.00642414 0.0303046 -0.0045 -0.00673788 0.0311598 -0.0045 -0.00690566 0.0320312 -0.0045 -0.00692238 0.0328923 -0.0045 -0.00678752 0.0337168 -0.0045 -0.0065052 0.0344798 -0.0045 -0.00608397 0.0351581 -0.0045 -0.00553666 0.035731 -0.0045 -0.00487987 0.0361812 -0.0045 -0.00413358 0.036495 -0.0045 -0.00332045 0.0366627 -0.0045 -0.00246519 0.0366795 -0.0045 -0.0015938 0.0365446 -0.0045 -0.000732736 0.0362623 -0.0045 9.18264e-05 0.0358411 -0.0045 0.000854837 0.0352937 -0.0045 0.00153311 0.034637 -0.0045 0.00210604 0.0338907 -0.0045 0.00255621 0.0330775 -0.0045 0.00286996 0.0322223 -0.0045 0.00303774 0.0313509 -0.0045 0.00305445 0.0304898 -0.0045 0.0029196 0.0296653 -0.0045 0.00263727 0.0289022 -0.0045 0.00221605 0.028224 -0.0045 0.00166873 0.027651 -0.0045 0.00101195 0.0272009 -0.0045 0.000265652 0.0268871 -0.0045 -0.000547476 0.0264027 -0.0045 0.00991016 0.026136 -0.0045 0.0102477 0.0258154 -0.0045 0.0105345 0.0254504 -0.0045 0.0107621 0.0250517 -0.0045 0.0109238 0.0246313 -0.0045 0.0110147 0.0242014 -0.0045 0.0110322 0.023775 -0.0045 0.0109757 0.0233645 -0.0045 0.010847 0.0229822 -0.0045 0.0106499 0.0226393 -0.0045 0.0103901 0.0223461 -0.0045 0.0100753 0.0221111 -0.0045 0.00971498 0.0219414 -0.0045 0.00931969 0.021842 -0.0045 0.00890117 0.0218158 -0.0045 0.00847179 0.0218636 -0.0045 0.00804428 0.021984 -0.0045 0.0076313 0.0221734 -0.0045 0.00724506 0.0224262 -0.0045 0.00689701 0.0227349 -0.0045 0.00659744 0.0230904 -0.0045 0.00635524 0.0234822 -0.0045 0.00617757 0.0238986 -0.0045 0.00606969 0.0243274 -0.0045 0.0060348 0.0247557 -0.0045 0.00607392 0.0251711 -0.0045 0.00618591 0.0255611 -0.0045 0.00636743 0.0259142 -0.0045 0.00661313 0.0262199 -0.0045 0.00691573 </float_array>
                    <technique_common>
                        <accessor count="624" offset="0" source="#Mesh-1-positions-array" stride="3">
                            <param name="X" type="float" />
                            <param name="Y" type="float" />
                            <param name="Z" type="float" />
                        </accessor>
                    </technique_common>
                </source>
                <source id="Mesh-1-normals" name="normal">
                    <float_array id="Mesh-1-normals-array" count="1872">0.998144 3.38382e-06 -0.0608966 0.695179 0.705782 -0.136379 -0.708323 0.705758 0.0135912 0.707903 0.706305 0.00251554 0.660954 0.705763 -0.255027 0.606635 0.705757 -0.365926 0.533874 0.705757 -0.46571 0.444893 0.705757 -0.551341 0.34239 0.705758 -0.620221 0.22949 0.705758 -0.670254 -0.695204 0.705756 0.13638 -0.699922 0.705757 -0.109619 -0.670252 0.705757 -0.229499 0.109618 0.705758 -0.699921 0.109619 0.705758 -0.699921 -0.136389 0.705759 -0.6952 -0.255024 0.705757 -0.660961 -0.365931 0.705756 -0.606632 -0.620218 0.705758 -0.342397 -0.465713 0.705758 -0.533869 -0.551341 0.705758 -0.444891 -0.660958 0.705757 0.255032 -0.606628 0.705758 0.365934 -0.533872 0.705758 0.46571 -0.444894 0.705758 0.55134 -0.342391 0.705756 0.620223 0.699984 0.705694 0.109632 0.621653 0.705898 0.339494 -0.229498 0.705758 0.670251 -0.109618 0.705758 0.699921 0.0135889 0.705758 0.708323 0.588679 0.707103 0.391742 0.136381 0.705759 0.695201 0.25503 0.705758 0.660958 0.365931 0.705758 0.60663 0.465712 0.705756 0.533874 0.551345 0.705756 0.444889 -0.192502 -0 -0.981296 -0.359982 -0 -0.932959 -0.93296 0 0.359979 -0.0191808 -0 -0.999816 -0.516518 -0 -0.856276 -0.65736 -0 -0.753577 0.93296 0 -0.359981 0.856277 0 -0.516517 0.753577 0 -0.65736 -0.856277 0 0.516517 -0.981296 0 0.192505 0.627976 0 -0.778233 0.483298 0 -0.875456 0.323933 0 -0.94608 0.15473 0 -0.987957 -0.753575 0 0.657362 -0.627977 0 0.778232 -0.483296 0 0.875457 -0.323936 0 0.946079 0.981295 0 -0.19251 0.999816 0 -0.0191745 0.946078 0 0.32394 0.946078 0 0.32394 -0.154725 0 0.987958 0.0191763 0 0.999816 0.192508 0 0.981295 0.359977 0 0.932961 0.516517 0 0.856277 0.875458 0 0.483295 0.657365 0 0.753572 0.778231 0 0.627979 -0.999816 0 0.0191766 -0.946079 -0 -0.323936 -0.875457 -0 -0.483297 -0.778233 -0 -0.627975 -0.987957 -0 -0.154726 0.998143 -7.37348e-07 -0.0609144 0.728601 0 -0.684938 0.627977 0.00131791 -0.778231 0.998143 -5.13354e-07 -0.0609163 0.998143 2.7982e-07 -0.0609096 0.998143 -2.73298e-07 -0.0609148 0.832514 0 0.554004 0.998144 3.38382e-06 -0.0608966 0.998143 -7.27613e-07 -0.0609144 0.998143 -7.37348e-07 -0.0609144 -0.019169 0.00125512 -0.999815 -0.0191791 0.00125512 -0.999815 0.154723 0.00127357 -0.987957 -0.192516 0.00123504 -0.981293 -0.192504 0.00123504 -0.981295 -0.359977 0.00121288 -0.93296 -0.359977 0.00121288 -0.93296 -0.516534 0.00118924 -0.856266 -0.516511 0.00118924 -0.85628 -0.657361 0.00116328 -0.753575 -0.657361 0.00116328 -0.753575 -0.778232 0.00113579 -0.627976 -0.778232 0.00113579 -0.627976 -0.875453 0.00110634 -0.483302 -0.875459 0.00110634 -0.483292 -0.946076 0.00107552 -0.323943 -0.946076 0.00107552 -0.323943 -0.987962 0.0010423 -0.154695 -0.987955 0.0010423 -0.154735 -0.999816 0.00100761 0.0191769 -0.999816 0.00100761 0.0191769 -0.981288 0.000971325 0.192541 -0.981296 0.000971325 0.1925 -0.932961 0.000932825 0.359975 -0.932961 0.000932825 0.359975 -0.856271 0.000892497 0.516526 -0.856277 0.000892497 0.516517 -0.753574 0.000850357 0.657362 -0.753574 0.000850357 0.657362 -0.627981 0.00080683 0.778228 -0.627981 0.00080683 0.778228 -0.483271 0.000761039 0.87547 -0.483299 0.000761039 0.875455 -0.323943 0.000713368 0.946076 -0.323931 0.000713368 0.946081 -0.154752 0.000664346 0.987953 -0.154724 0.000664346 0.987957 0.0191612 0.000613316 0.999816 0.0191839 0.000613316 0.999816 0.192453 0.000560652 0.981306 0.192509 0.000560652 0.981295 0.359976 0.000505892 0.932961 0.359976 0.000505892 0.932961 0.516521 0.000449569 0.856274 0.516521 0.000449569 0.856274 0.657334 -0.00938494 0.753541 0.657361 0.000391423 0.753576 0.778187 -0.00958073 0.62796 0.778233 0.000331334 0.627975 0.627977 0.00131791 -0.778231 0.627978 0.00131791 -0.77823 0.483296 0.00130509 -0.875456 0.483296 0.00130509 -0.875456 0.32394 0.00129044 -0.946077 0.32394 0.00129044 -0.946077 0.154723 0.00127357 -0.987957 0 1 0 0 1 0 0 1 0 0 1 0 0 1 0 0 1 0 0 1 0 0 1 0 0 1 0 0 1 0 0 1 0 0 1 0 0 1 0 0 1 0 0 1 0 0 1 0 0 1 0 0 1 0 0 1 0 0 1 0 0 1 0 0 1 0 0 1 0 0 1 0 0 1 0 0 1 0 0 1 0 0 1 0 0 1 0 0 1 0 0 1 0 0 1 0 0 1 0 0 1 0 0 1 0 0 1 0 0 1 0 0 1 0 0 1 0 0 1 0 0 1 0 0 1 0 0 1 0 0 1 0 0 1 0 0 1 0 0 1 0 0 1 0 0 1 0 0 1 0 0 1 0 0 1 0 0 1 0 0 1 0 0 1 0 0 1 0 0 1 0 0 1 0 0 1 0 0 1 0 0 1 0 0 1 0 0 1 0 0 1 0 0 1 0 0 1 0 0.704766 -0.706972 -0.059116 0.998144 -3.38382e-06 -0.0608966 -0.699921 -0.705758 -0.109618 -0.670252 -0.70576 -0.229491 -0.62022 -0.705757 -0.342395 0.695216 -0.705743 -0.136386 0.699918 -0.70576 0.109622 0.67025 -0.70576 0.229494 0.620218 -0.70576 0.342393 -0.708322 -0.705759 0.0135888 0.551344 -0.705758 0.444888 0.465712 -0.705756 0.533873 0.365927 -0.705756 0.606635 0.255026 -0.705758 0.66096 -0.695203 -0.705757 0.13638 -0.660958 -0.705758 0.255029 -0.60663 -0.705759 0.36593 -0.533873 -0.705758 0.46571 -0.444895 -0.705758 0.551339 -0.34239 -0.705758 0.620221 -0.229494 -0.705757 0.670253 0.136381 -0.705758 0.695202 0.0135889 -0.705757 0.708324 0.0135748 -0.705757 0.708324 0.660937 -0.705781 -0.255021 -0.55134 -0.705758 -0.444893 -0.46571 -0.705758 -0.533872 -0.36593 -0.705759 -0.60663 -0.255027 -0.705758 -0.660959 -0.13638 -0.705757 -0.695203 0.606632 -0.705757 -0.36593 0.444891 -0.705758 -0.551341 0.444891 -0.705758 -0.551341 -0.0135896 -0.705759 -0.708322 0.10962 -0.705757 -0.699922 0.342391 -0.705758 -0.620221 0.229493 -0.705758 -0.670252 0.909817 0 -0.415011 0.965716 0 -0.259602 -0.965716 0 0.2596 0.829099 0 -0.559102 0.725767 0 -0.687941 0.593463 0 -0.804861 0.463068 0 -0.886323 0.310868 0 -0.950453 0.150188 0 -0.988657 -0.0145865 0 -0.999894 -0.909816 0 0.415012 -0.995274 0 0.0971078 -0.829098 0 0.559103 -0.725767 0 0.687941 -0.602636 0 0.798016 -0.463067 0 0.886323 0.995274 0 -0.0971072 0.997683 0 0.068033 0.972878 0 0.231318 0.921535 0 0.388295 -0.310868 0 0.950453 -0.150188 0 0.988658 0.0145861 0 0.999894 0.178965 0 0.983855 0.338462 0 0.94098 0.488726 0 0.872437 0.62566 0 0.780096 0.845056 0 0.534678 0.745525 0 0.666478 -0.997683 0 -0.068033 -0.972878 0 -0.231318 -0.921535 0 -0.388295 -0.845056 0 -0.534678 -0.745525 0 -0.666477 -0.62566 0 -0.780096 -0.178966 0 -0.983855 -0.488726 0 -0.872437 -0.338461 0 -0.94098 0.909817 0 -0.415011 0.829099 0 -0.559102 -0.829098 0 0.559103 0.965716 0 -0.259602 0.725767 0 -0.687941 0.593463 0 -0.804861 0.463068 0 -0.886323 0.310868 0 -0.950453 0.150188 0 -0.988657 -0.0145865 0 -0.999894 -0.178966 0 -0.983855 -0.338461 0 -0.94098 -0.488726 0 -0.872437 -0.62566 0 -0.780096 -0.745525 0 -0.666477 -0.845056 0 -0.534678 -0.921535 0 -0.388295 -0.965716 0 0.2596 -0.909816 0 0.415012 -0.725767 0 0.687941 -0.602636 0 0.798016 -0.463067 0 0.886323 -0.310868 0 0.950453 -0.150188 0 0.988658 0.0145861 0 0.999894 0.178965 0 0.983855 0.995274 0 -0.0971072 0.338462 0 0.94098 0.921535 0 0.388295 0.972878 0 0.231318 0.997683 0 0.068033 0.488726 0 0.872437 0.62566 0 0.780096 0.745292 0.0249914 0.66627 0.845056 0 0.534678 -0.972878 0 -0.231318 -0.997683 0 -0.068033 -0.995274 0 0.0971078 0.889569 0 -0.4568 0.802237 0 -0.597005 0.693006 0 -0.720932 0.952634 0 -0.304119 0.989702 0 -0.143144 0.989702 0 -0.143144 0.998143 0 -0.0609119 0.979897 0 0.199503 0.930368 0 0.366628 0.852571 0 0.522612 0.748864 0 0.662723 0.622409 0 0.782692 0.317174 0 0.948367 0.477039 0 0.878882 0.147674 0 0.989036 0.147674 0 0.989036 0.0609125 0 0.998143 -0.188241 0 0.982123 -0.348761 0 0.937212 -0.499592 0 0.866261 -0.636542 0 0.771242 -0.75581 0 0.654791 -0.854072 0 0.520155 -0.92861 0 0.371056 -0.92861 0 0.371056 -0.977343 0 0.211661 -0.928609 0 0.371059 -0.854074 0 0.520151 -0.755808 0 0.654794 -0.499593 0 0.86626 -0.636544 0 0.77124 -0.34876 0 0.937212 -0.188241 0 0.982123 -0.0224864 0 0.999747 -0.0224864 0 0.999747 0.995274 0 -0.0971072 0.997683 0 0.068033 0.972878 0 0.231318 0.921535 0 0.388295 0.137269 0 0.990534 0.845056 0 0.534678 0.287112 0 0.957897 0.768338 0 0.640045 0.563171 0 0.82634 0.430205 0 0.902731 0.682907 0 0.730506 0.682907 0 0.730506 0.965716 0 -0.259602 0.909817 0 -0.415011 0.0158039 0 -0.999875 0.0158039 0 -0.999875 0.829099 0 -0.559102 -0.0609123 -0 -0.998143 -0.274537 0 -0.961577 -0.410395 0 -0.911908 -0.537662 0 -0.84316 -0.537662 0 -0.84316 -0.382021 0 -0.924154 -0.224675 0 -0.974434 -0.0611905 0 -0.998126 0.103958 0 -0.994582 0.266269 0 -0.963899 0.421322 0 -0.906911 0.564866 0 -0.825183 0.168497 0 -0.985702 0.317243 0 -0.948344 0.458512 0 -0.888688 0.725767 0 -0.687941 0.593463 0 -0.804861 -0.516518 -0 -0.856276 0.987958 0 0.154725 0.946078 0 0.32394 0.875458 0 0.483295 0.778231 0 0.627979 0.657365 0 0.753572 0.516517 0 0.856277 0.359977 0 0.932961 0.192508 0 0.981295 0.0191763 0 0.999816 -0.154725 0 0.987958 -0.323936 0 0.946079 -0.359982 -0 -0.932959 -0.483296 0 0.875457 -0.627977 0 0.778232 -0.753575 0 0.657362 -0.981296 0 0.192505 -0.981296 5.57773e-17 0.192505 -0.987957 -0 -0.154726 -0.946079 -0 -0.323936 -0.875457 -0 -0.483297 -0.778233 -0 -0.627975 -0.65736 -0 -0.753577 -0.856277 0 0.516517 -0.93296 0 0.359979 -0.192502 -0 -0.981296 -0.0191808 -0 -0.999816 0.15473 0 -0.987957 0.323933 0 -0.94608 0.483298 0 -0.875456 0.999816 0 -0.0191745 0.627976 0 -0.778233 0.981295 0 -0.19251 0.753577 0 -0.65736 0.856277 0 -0.516517 0.93296 0 -0.359981 0.998143 5.13354e-07 -0.0609163 0.998143 -2.7982e-07 -0.0609096 0.998143 0 -0.0609139 0.728601 3.47166e-18 -0.684938 0.998144 0 -0.0609002 0.998143 -3.53235e-07 -0.0609116 0.998143 7.27613e-07 -0.0609144 0.998143 -9.88923e-07 -0.0609078 0.998144 -3.38382e-06 -0.0608966 -0.154724 -0.000664346 0.987957 -0.154752 -0.000664346 0.987953 -0.323931 -0.000713368 0.946081 -0.323943 -0.000713368 0.946076 -0.483299 -0.000761039 0.875455 -0.483271 -0.000761039 0.87547 -0.627981 -0.00080683 0.778228 -0.627981 -0.00080683 0.778228 -0.753574 -0.000850357 0.657362 -0.753574 -0.000850357 0.657362 -0.856277 -0.000892497 0.516517 -0.856271 -0.000892497 0.516526 -0.932961 -0.000932825 0.359975 -0.932961 -0.000932825 0.359975 -0.981296 -0.000971325 0.1925 -0.981288 -0.000971325 0.192541 -0.999816 -0.00100761 0.0191769 -0.999816 -0.00100761 0.0191769 -0.987955 -0.0010423 -0.154735 -0.987962 -0.0010423 -0.154695 -0.946076 -0.00107552 -0.323943 -0.946076 -0.00107552 -0.323943 -0.875459 -0.00110634 -0.483292 -0.875453 -0.00110634 -0.483302 -0.778232 -0.00113579 -0.627976 -0.778232 -0.00113579 -0.627976 -0.657361 -0.00116328 -0.753575 -0.657361 -0.00116328 -0.753575 -0.516511 -0.00118924 -0.85628 -0.516534 -0.00118924 -0.856266 -0.359977 -0.00121288 -0.93296 -0.359977 -0.00121288 -0.93296 -0.192504 -0.00123504 -0.981295 -0.192516 -0.00123504 -0.981293 -0.0191791 -0.00125512 -0.999815 -0.019169 -0.00125512 -0.999815 0.154723 -0.00127357 -0.987957 0.154723 -0.00127357 -0.987957 0.32394 -0.00129044 -0.946077 0.32394 -0.00129044 -0.946077 0.483296 -0.00130509 -0.875456 0.483296 -0.00130509 -0.875456 0.627978 -0.00131791 -0.77823 0.627978 -0.00131791 -0.77823 0.998143 0 -0.0609139 0.778233 -0.000331334 0.627975 0.778223 -0.000331334 0.627989 0.657361 -0.000391423 0.753576 0.657361 -0.000391423 0.753576 0.516521 -0.000449569 0.856274 0.516521 -0.000449569 0.856274 0.359976 -0.000505892 0.932961 0.359976 -0.000505892 0.932961 0.192509 -0.000560652 0.981295 0.192453 -0.000560652 0.981306 0.0191839 -0.000613316 0.999816 0.0191612 -0.000613316 0.999816 0 -1 0 0 -1 0 0 -1 0 0 -1 0 0 -1 0 0 -1 0 0 -1 0 0 -1 0 0 -1 0 0 -1 0 0 -1 0 0 -1 0 0 -1 0 0 -1 0 0 -1 0 0 -1 0 0 -1 0 0 -1 0 0 -1 0 0 -1 0 0 -1 0 0 -1 0 0 -1 0 0 -1 0 0 -1 0 0 -1 0 0 -1 0 0 -1 0 0 -1 0 0 -1 0 0 -1 0 0 -1 0 0 -1 0 0 -1 0 0 -1 0 0 -1 0 0 -1 0 0 -1 0 0 -1 0 0 -1 0 0 -1 0 0 -1 0 0 -1 0 0 -1 0 0 -1 0 0 -1 0 0 -1 0 0 -1 0 0 -1 0 0 -1 0 0 -1 0 0 -1 0 0 -1 0 0 -1 0 0 -1 0 0 -1 0 0 -1 0 0 -1 0 0 -1 0 0 -1 0 0 -1 0 0 -1 0 0 -1 0 0 -1 0 0 -1 0 0 -1 0 0 -1 0 0 -1 0 0 -1 0 0 -1 0 0 -1 0 0 -1 0 0 -1 0 0 -1 0 0 -1 0 0 -1 0 0 -1 0 0 -1 0 0 -1 0 0 -1 0 0 -1 0 0 -1 0 0 -1 0 0 -1 0 0 -1 0 0 -1 0 0 -1 0 0 -1 0 0 -1 0 0 -1 0 0 -1 0 0 -1 0 0 -1 0 0 -1 0 0 -1 0 0 -1 0 0 -1 0 0 -1 0 0 -1 0 0 -1 0 0 -1 0 0 -1 0 0 -1 0 0 -1 0 0 -1 0 0 -1 0 0 -1 0 0 -1 0 0 -1 0 0 -1 0 0 -1 0 0 -1 0 0 -1 0 0 -1 0 0 -1 0 0 -1 0 0 -1 0 0 -1 0 0 -1 0 0 -1 0 0 -1 0 0 -1 0 0 -1 0 0 -1 0 0 -1 0 0 -1 0 0 -1 0 0 -1 0 0 -1 0 0 -1 0 0 -1 0 0 -1 0 0 -1 0 0 -1 0 0 -1 0 </float_array>
                    <technique_common>
                        <accessor count="624" offset="0" source="#Mesh-1-normals-array" stride="3">
                            <param name="X" type="float" />
                            <param name="Y" type="float" />
                            <param name="Z" type="float" />
                        </accessor>
                    </technique_common>
                </source>
                <vertices id="Mesh-1-vertices">
                    <input semantic="POSITION" source="#Mesh-1-positions" />
                </vertices>
                <triangles count="1244">
                    <input offset="0" semantic="VERTEX" source="#Mesh-1-vertices" />
                    <input offset="1" semantic="NORMAL" source="#Mesh-1-normals" />
                    <p>0 0 1 1 2 2 0 0 2 2 3 3 2 2 1 1 4 4 4 4 5 5 2 2 2 2 5 5 6 6 2 2 6 6 7 7 7 7 8 8 2 2 2 2 8 8 9 9 3 3 2 2 10 10 2 2 9 9 11 11 11 11 9 9 12 12 9 9 13 13 12 12 12 12 13 13 14 14 12 12 14 14 15 15 15 15 16 16 12 12 12 12 16 16 17 17 12 12 17 17 18 18 17 17 19 19 20 20 18 18 17 17 20 20 3 3 10 10 21 21 21 21 22 22 3 3 3 3 22 22 23 23 23 23 24 24 3 3 3 3 24 24 25 25 3 3 25 25 26 26 26 26 25 25 27 27 27 27 25 25 28 28 29 29 30 30 27 27 27 27 28 28 29 29 30 30 31 31 27 27 32 32 33 33 30 30 30 30 33 33 34 34 30 30 34 34 35 35 35 35 36 36 30 30 30 30 36 36 31 31 37 37 38 38 39 39 39 39 40 40 37 37 38 38 41 41 39 39 39 39 41 41 42 42 43 43 44 44 39 39 39 39 44 44 45 45 39 39 46 46 43 43 39 39 42 42 47 47 45 45 48 48 39 39 39 39 48 48 49 49 39 39 49 49 50 50 50 50 51 51 39 39 39 39 51 51 40 40 43 43 46 46 52 52 43 43 52 52 53 53 53 53 54 54 43 43 43 43 54 54 55 55 43 43 55 55 56 56 57 57 55 55 58 58 58 58 55 55 59 59 56 56 55 55 57 57 55 55 60 60 59 59 59 59 60 60 61 61 59 59 61 61 62 62 62 62 63 63 59 59 59 59 63 63 64 64 59 59 64 64 65 65 65 65 64 64 66 66 65 65 66 66 67 67 42 42 68 68 47 47 69 69 42 42 70 70 70 70 42 42 71 71 69 69 72 72 42 42 42 42 72 72 68 68 73 73 74 74 75 75 27 27 76 76 26 26 27 27 77 77 76 76 26 26 76 76 78 78 26 26 78 78 3 3 3 3 78 78 0 0 31 31 79 79 27 27 27 27 79 79 77 77 0 0 80 80 1 1 1 1 80 80 81 81 1 1 81 81 4 4 4 4 81 81 82 82 4 4 82 82 5 5 5 5 82 82 73 73 5 5 73 73 6 6 6 6 73 73 7 7 73 73 75 75 7 7 15 15 14 14 83 83 83 83 84 84 15 15 14 14 85 85 83 83 15 15 84 84 86 86 15 15 86 86 16 16 86 86 87 87 16 16 16 16 87 87 88 88 16 16 88 88 17 17 88 88 89 89 17 17 17 17 89 89 90 90 17 17 90 90 19 19 90 90 91 91 19 19 19 19 91 91 92 92 19 19 92 92 20 20 92 92 93 93 20 20 20 20 93 93 94 94 20 20 94 94 18 18 94 94 95 95 18 18 18 18 95 95 96 96 18 18 96 96 12 12 96 96 97 97 12 12 12 12 97 97 98 98 12 12 98 98 11 11 98 98 99 99 11 11 11 11 99 99 100 100 11 11 100 100 2 2 100 100 101 101 2 2 2 2 101 101 102 102 2 2 102 102 10 10 102 102 103 103 10 10 10 10 103 103 104 104 10 10 104 104 21 21 104 104 105 105 21 21 21 21 105 105 106 106 21 21 106 106 22 22 106 106 107 107 22 22 22 22 107 107 108 108 22 22 108 108 23 23 108 108 109 109 23 23 23 23 109 109 110 110 23 23 110 110 24 24 110 110 111 111 24 24 24 24 111 111 112 112 24 24 112 112 25 25 112 112 113 113 25 25 25 25 113 113 114 114 25 25 114 114 28 28 114 114 115 115 28 28 28 28 115 115 116 116 28 28 116 116 29 29 116 116 117 117 29 29 29 29 117 117 118 118 29 29 118 118 30 30 118 118 119 119 30 30 30 30 119 119 120 120 30 30 120 120 32 32 120 120 121 121 32 32 32 32 121 121 122 122 32 32 122 122 33 33 122 122 123 123 33 33 33 33 123 123 124 124 33 33 124 124 34 34 124 124 125 125 34 34 34 34 125 125 126 126 34 34 126 126 35 35 126 126 127 127 35 35 35 35 127 127 128 128 35 35 128 128 36 36 128 128 129 129 36 36 36 36 129 129 130 130 36 36 130 130 31 31 31 31 130 130 131 131 31 31 131 131 79 79 7 7 75 75 132 132 7 7 132 132 8 8 132 132 133 133 8 8 8 8 133 133 134 134 8 8 134 134 9 9 134 134 135 135 9 9 9 9 135 135 136 136 9 9 136 136 13 13 136 136 137 137 13 13 13 13 137 137 138 138 13 13 138 138 14 14 14 14 138 138 85 85 58 58 139 139 57 57 58 58 140 140 139 139 57 57 139 139 141 141 57 57 141 141 56 56 56 56 141 141 142 142 56 56 142 142 43 43 43 43 142 142 143 143 43 43 143 143 44 44 44 44 143 143 144 144 44 44 144 144 45 45 45 45 144 144 145 145 45 45 145 145 48 48 48 48 145 145 146 146 48 48 146 146 49 49 49 49 146 146 147 147 49 49 147 147 50 50 50 50 147 147 148 148 50 50 148 148 51 51 51 51 148 148 149 149 51 51 149 149 40 40 40 40 149 149 150 150 40 40 150 150 37 37 37 37 150 150 151 151 37 37 151 151 38 38 38 38 151 151 152 152 38 38 152 152 41 41 41 41 152 152 153 153 41 41 153 153 42 42 42 42 153 153 154 154 42 42 154 154 71 71 71 71 154 154 155 155 71 71 155 155 70 70 70 70 155 155 156 156 70 70 156 156 69 69 69 69 156 156 157 157 69 69 157 157 72 72 72 72 157 157 158 158 72 72 158 158 68 68 68 68 158 158 159 159 68 68 159 159 47 47 47 47 159 159 160 160 47 47 160 160 39 39 39 39 160 160 161 161 39 39 161 161 46 46 46 46 161 161 162 162 46 46 162 162 52 52 52 52 162 162 163 163 52 52 163 163 53 53 53 53 163 163 164 164 53 53 164 164 54 54 54 54 164 164 165 165 54 54 165 165 55 55 55 55 165 165 166 166 55 55 166 166 60 60 60 60 166 166 167 167 60 60 167 167 61 61 61 61 167 167 168 168 61 61 168 168 62 62 62 62 168 168 169 169 62 62 169 169 63 63 63 63 169 169 170 170 63 63 170 170 64 64 64 64 170 170 171 171 64 64 171 171 66 66 66 66 171 171 172 172 66 66 172 172 67 67 67 67 172 172 173 173 67 67 173 173 65 65 65 65 173 173 174 174 65 65 174 174 59 59 59 59 174 174 140 140 59 59 140 140 58 58 175 175 74 74 176 176 176 176 74 74 73 73 176 176 73 73 82 82 176 176 0 0 78 78 82 82 81 81 176 176 176 176 81 81 80 80 78 78 76 76 176 176 176 176 76 76 77 77 176 176 77 77 79 79 176 176 80 80 0 0 176 176 79 79 131 131 176 176 131 131 177 177 177 177 131 131 130 130 177 177 130 130 178 178 130 130 129 129 178 178 178 178 129 129 128 128 178 178 128 128 179 179 179 179 128 128 127 127 127 127 126 126 179 179 179 179 126 126 125 125 179 179 125 125 180 180 125 125 124 124 180 180 180 180 124 124 123 123 180 180 123 123 181 181 123 123 122 122 181 181 181 181 122 122 121 121 181 181 121 121 182 182 121 121 120 120 182 182 182 182 120 120 119 119 182 182 119 119 183 183 119 119 118 118 183 183 183 183 118 118 117 117 183 183 117 117 184 184 117 117 116 116 184 184 184 184 116 116 115 115 184 184 115 115 185 185 115 115 114 114 185 185 185 185 114 114 113 113 185 185 113 113 186 186 113 113 112 112 186 186 186 186 112 112 111 111 186 186 111 111 187 187 111 111 110 110 187 187 187 187 110 110 109 109 187 187 109 109 188 188 109 109 108 108 188 188 188 188 108 108 107 107 188 188 107 107 189 189 107 107 106 106 189 189 189 189 106 106 105 105 189 189 105 105 190 190 105 105 104 104 190 190 190 190 104 104 103 103 190 190 103 103 191 191 103 103 102 102 191 191 191 191 102 102 101 101 191 191 101 101 192 192 101 101 100 100 192 192 192 192 100 100 99 99 192 192 99 99 193 193 99 99 98 98 193 193 193 193 98 98 97 97 193 193 97 97 194 194 97 97 96 96 194 194 194 194 96 96 95 95 194 194 95 95 195 195 95 95 94 94 195 195 195 195 94 94 93 93 195 195 93 93 196 196 93 93 92 92 196 196 196 196 92 92 91 91 196 196 91 91 197 197 91 91 90 90 197 197 197 197 90 90 89 89 197 197 89 89 198 198 89 89 88 88 198 198 198 198 88 88 87 87 198 198 87 87 199 199 87 87 86 86 199 199 199 199 86 86 84 84 199 199 84 84 200 200 84 84 83 83 200 200 200 200 83 83 85 85 200 200 85 85 201 201 85 85 138 138 201 201 201 201 138 138 137 137 201 201 137 137 202 202 137 137 136 136 202 202 202 202 136 136 135 135 202 202 135 135 203 203 135 135 134 134 203 203 203 203 134 134 133 133 203 203 133 133 204 204 74 74 175 175 75 75 75 75 175 175 204 204 75 75 204 204 132 132 132 132 204 204 133 133 205 205 206 206 207 207 207 207 208 208 205 205 205 205 208 208 209 209 205 205 209 209 210 210 207 207 206 206 211 211 211 211 212 212 207 207 207 207 212 212 213 213 207 207 213 213 214 214 214 214 213 213 215 215 214 214 215 215 216 216 216 216 217 217 214 214 214 214 217 217 218 218 214 214 218 218 219 219 218 218 220 220 219 219 218 218 221 221 220 220 222 222 221 221 218 218 218 218 223 223 222 222 224 224 223 223 218 218 224 224 218 218 225 225 225 225 218 218 226 226 227 227 228 228 225 225 225 225 226 226 227 227 210 210 209 209 229 229 209 209 230 230 229 229 229 229 230 230 231 231 229 229 231 231 232 232 232 232 233 233 229 229 229 229 233 233 234 234 229 229 234 234 235 235 234 234 236 236 237 237 234 234 238 238 236 236 235 235 234 234 237 237 236 236 238 238 239 239 236 236 239 239 240 240 240 240 239 239 241 241 242 242 243 243 244 244 244 244 245 245 242 242 244 244 246 246 245 245 247 247 246 246 244 244 244 244 248 248 247 247 244 244 249 249 248 248 250 250 249 249 244 244 250 250 244 244 251 251 243 243 252 252 244 244 251 251 244 244 253 253 243 243 254 254 252 252 255 255 254 254 243 243 256 256 255 255 243 243 256 256 243 243 257 257 257 257 243 243 258 258 257 257 258 258 259 259 259 259 260 260 257 257 257 257 260 260 261 261 257 257 261 261 262 262 262 262 261 261 263 263 261 261 264 264 263 263 261 261 265 265 264 264 266 266 265 265 261 261 261 261 267 267 266 266 261 261 268 268 267 267 269 269 270 270 261 261 261 261 270 270 268 268 251 251 253 253 271 271 271 271 272 272 251 251 251 251 272 272 273 273 251 251 273 273 274 274 274 274 275 275 251 251 251 251 275 275 276 276 251 251 276 276 277 277 276 276 278 278 279 279 277 277 276 276 279 279 280 280 281 281 282 282 280 280 282 282 283 283 282 282 281 281 284 284 282 282 284 284 285 285 285 285 286 286 282 282 282 282 286 286 287 287 282 282 287 287 288 288 288 288 289 289 282 282 282 282 289 289 290 290 282 282 290 290 291 291 291 291 292 292 282 282 282 282 292 292 293 293 282 282 293 293 294 294 294 294 295 295 282 282 296 296 297 297 295 295 295 295 297 297 298 298 295 295 298 298 282 282 283 283 282 282 299 299 283 283 299 299 300 300 300 300 301 301 283 283 283 283 301 301 302 302 283 283 302 302 303 303 303 303 304 304 283 283 283 283 304 304 305 305 283 283 305 305 306 306 307 307 308 308 305 305 305 305 308 308 309 309 305 305 309 309 310 310 306 306 305 305 310 310 307 307 311 311 308 308 311 311 312 312 308 308 308 308 312 312 313 313 308 308 313 313 314 314 296 296 315 315 297 297 297 297 315 315 316 316 297 297 316 316 317 317 145 145 144 144 318 318 318 318 319 319 145 145 145 145 319 319 320 320 145 145 320 320 146 146 318 318 144 144 321 321 321 321 144 144 143 143 321 321 143 143 322 322 322 322 143 143 142 142 322 322 142 142 323 323 142 142 141 141 323 323 323 323 141 141 139 139 323 323 139 139 324 324 324 324 139 139 140 140 174 174 173 173 324 324 324 324 140 140 174 174 173 173 172 172 324 324 324 324 172 172 171 171 324 324 171 171 325 325 325 325 171 171 170 170 325 325 170 170 326 326 326 326 170 170 327 327 327 327 170 170 328 328 328 328 170 170 169 169 328 328 169 169 329 329 168 168 330 330 169 169 169 169 330 330 331 331 169 169 331 331 329 329 168 168 167 167 332 332 332 332 333 333 168 168 168 168 333 333 330 330 332 332 167 167 176 176 166 166 204 204 167 167 167 167 204 204 175 175 167 167 175 175 176 176 178 178 334 334 332 332 178 178 332 332 177 177 177 177 332 332 176 176 179 179 334 334 178 178 179 179 180 180 334 334 334 334 180 180 181 181 334 334 181 181 335 335 335 335 181 181 182 182 335 335 182 182 336 336 336 336 182 182 183 183 336 336 183 183 337 337 337 337 183 183 184 184 337 337 184 184 338 338 338 338 184 184 185 185 338 338 185 185 339 339 339 339 185 185 186 186 339 339 186 186 340 340 340 340 186 186 187 187 340 340 187 187 341 341 341 341 187 187 188 188 341 341 188 188 342 342 342 342 188 188 189 189 342 342 189 189 343 343 343 343 189 189 190 190 343 343 190 190 344 344 344 344 190 190 191 191 344 344 191 191 192 192 344 344 192 192 193 193 193 193 194 194 344 344 344 344 194 194 195 195 345 345 344 344 162 162 162 162 344 344 196 196 344 344 195 195 196 196 345 345 162 162 346 346 346 346 162 162 161 161 162 162 196 196 163 163 163 163 196 196 197 197 163 163 197 197 164 164 165 165 197 197 166 166 166 166 197 197 198 198 164 164 197 197 165 165 166 166 198 198 199 199 199 199 200 200 166 166 166 166 200 200 201 201 166 166 201 201 202 202 202 202 203 203 166 166 166 166 203 203 204 204 160 160 347 347 161 161 161 161 347 347 348 348 161 161 348 348 346 346 160 160 349 349 347 347 350 350 349 349 160 160 160 160 351 351 350 350 159 159 352 352 160 160 160 160 352 352 351 351 158 158 353 353 159 159 353 353 354 354 159 159 159 159 354 354 355 355 159 159 355 355 352 352 352 352 355 355 356 356 352 352 356 356 357 357 357 357 356 356 358 358 357 357 358 358 359 359 360 360 361 361 358 358 358 358 361 361 362 362 358 358 362 362 359 359 363 363 364 364 360 360 360 360 364 364 361 361 158 158 365 365 353 353 366 366 365 365 158 158 367 367 366 366 158 158 367 367 158 158 157 157 368 368 369 369 366 366 368 368 366 366 367 367 156 156 370 370 367 367 156 156 367 367 157 157 155 155 370 370 156 156 155 155 371 371 370 370 155 155 154 154 372 372 372 372 371 371 155 155 153 153 373 373 154 154 154 154 373 373 374 374 154 154 374 374 372 372 152 152 375 375 153 153 153 153 375 375 373 373 151 151 376 376 152 152 152 152 376 376 375 375 150 150 377 377 151 151 151 151 377 377 376 376 149 149 378 378 150 150 150 150 378 378 377 377 148 148 379 379 149 149 149 149 379 379 378 378 147 147 380 380 148 148 148 148 380 380 379 379 146 146 381 381 147 147 147 147 381 381 380 380 146 146 320 320 381 381 382 382 369 369 368 368 382 382 383 383 369 369 369 369 383 383 384 384 369 369 384 384 385 385 385 385 384 384 386 386 387 387 388 388 389 389 389 389 390 390 387 387 387 387 390 390 391 391 387 387 391 391 392 392 392 392 393 393 387 387 387 387 393 393 394 394 387 387 394 394 395 395 395 395 396 396 387 387 387 387 396 396 397 397 387 387 397 397 398 398 387 387 399 399 388 388 398 398 400 400 387 387 387 387 400 400 401 401 387 387 401 401 402 402 403 403 404 404 387 387 387 387 404 404 405 405 387 387 405 405 406 406 406 406 407 407 387 387 387 387 407 407 408 408 387 387 408 408 409 409 402 402 410 410 387 387 387 387 410 410 411 411 387 387 411 411 403 403 388 388 399 399 412 412 388 388 412 412 413 413 413 413 414 414 388 388 388 388 414 414 415 415 388 388 415 415 416 416 416 416 417 417 388 388 418 418 419 419 416 416 416 416 419 419 417 417 418 418 420 420 419 419 419 419 420 420 421 421 419 419 421 421 422 422 206 206 423 423 211 211 211 211 423 423 424 424 211 211 424 424 212 212 212 212 424 424 425 425 212 212 425 425 213 213 213 213 425 425 215 215 426 426 427 427 237 237 237 237 427 427 428 428 237 237 428 428 235 235 235 235 428 428 429 429 235 235 429 429 229 229 229 229 429 429 430 430 229 229 430 430 210 210 210 210 430 430 431 431 210 210 431 431 205 205 205 205 431 431 206 206 225 225 228 228 432 432 432 432 433 433 225 225 225 225 433 433 434 434 225 225 434 434 224 224 434 434 435 435 224 224 224 224 435 435 436 436 224 224 436 436 223 223 436 436 437 437 223 223 223 223 437 437 438 438 223 223 438 438 222 222 438 438 439 439 222 222 222 222 439 439 440 440 222 222 440 440 221 221 440 440 441 441 221 221 221 221 441 441 442 442 221 221 442 442 220 220 442 442 443 443 220 220 220 220 443 443 444 444 220 220 444 444 219 219 444 444 445 445 219 219 219 219 445 445 446 446 219 219 446 446 214 214 446 446 447 447 214 214 214 214 447 447 448 448 214 214 448 448 207 207 448 448 449 449 207 207 207 207 449 449 450 450 207 207 450 450 208 208 450 450 451 451 208 208 208 208 451 451 452 452 208 208 452 452 209 209 452 452 453 453 209 209 209 209 453 453 454 454 209 209 454 454 230 230 454 454 455 455 230 230 230 230 455 455 456 456 230 230 456 456 231 231 456 456 457 457 231 231 231 231 457 457 458 458 231 231 458 458 232 232 458 458 459 459 232 232 232 232 459 459 460 460 232 232 460 460 233 233 460 460 461 461 233 233 233 233 461 461 462 462 233 233 462 462 234 234 462 462 463 463 234 234 234 234 463 463 464 464 234 234 464 464 238 238 464 464 465 465 238 238 238 238 465 465 466 466 238 238 466 466 239 239 466 466 467 467 239 239 239 239 467 467 468 468 239 239 468 468 241 241 468 468 469 469 241 241 241 241 469 469 470 470 241 241 470 470 240 240 470 470 471 471 240 240 240 240 471 471 472 472 240 240 472 472 236 236 472 472 473 473 236 236 236 236 473 473 474 474 236 236 474 474 237 237 237 237 474 474 475 475 237 237 475 475 426 426 425 425 476 476 215 215 215 215 476 476 477 477 215 215 477 477 216 216 477 477 478 478 216 216 216 216 478 478 479 479 216 216 479 479 217 217 479 479 480 480 217 217 217 217 480 480 481 481 217 217 481 481 218 218 481 481 482 482 218 218 218 218 482 482 483 483 218 218 483 483 226 226 483 483 484 484 226 226 226 226 484 484 485 485 226 226 485 485 227 227 485 485 486 486 227 227 227 227 486 486 487 487 227 227 487 487 228 228 228 228 487 487 488 488 228 228 488 488 432 432 489 489 352 352 490 490 490 490 352 352 357 357 491 491 343 343 344 344 491 491 344 344 492 492 493 493 343 343 491 491 493 493 342 342 343 343 492 492 344 344 345 345 492 492 345 345 494 494 494 494 345 345 346 346 494 494 346 346 495 495 495 495 346 346 348 348 495 495 348 348 496 496 496 496 348 348 347 347 496 496 347 347 497 497 497 497 347 347 349 349 497 497 349 349 498 498 498 498 349 349 350 350 498 498 350 350 499 499 499 499 350 350 351 351 499 499 351 351 500 500 500 500 351 351 352 352 500 500 352 352 489 489 501 501 334 334 335 335 501 501 335 335 502 502 502 502 335 335 336 336 502 502 336 336 503 503 503 503 336 336 337 337 503 503 337 337 504 504 504 504 337 337 338 338 504 504 338 338 505 505 505 505 338 338 339 339 505 505 339 339 506 506 506 506 339 339 340 340 506 506 340 340 507 507 507 507 340 340 341 341 507 507 341 341 508 508 508 508 341 341 342 342 508 508 342 342 493 493 509 509 332 332 501 501 501 501 332 332 334 334 510 510 324 324 325 325 510 510 325 325 511 511 511 511 325 325 326 326 511 511 326 326 512 512 512 512 326 326 327 327 512 512 327 327 513 513 513 513 327 327 328 328 513 513 328 328 514 514 514 514 328 328 329 329 514 514 329 329 515 515 515 515 329 329 331 331 515 515 331 331 516 516 516 516 331 331 330 330 516 516 330 330 517 517 517 517 330 330 333 333 517 517 333 333 518 518 518 518 333 333 332 332 518 518 332 332 509 509 519 519 323 323 510 510 510 510 323 323 324 324 520 520 373 373 375 375 520 520 375 375 521 521 521 521 375 375 376 376 521 521 376 376 522 522 522 522 376 376 377 377 522 522 377 377 523 523 523 523 377 377 378 378 523 523 378 378 524 524 524 524 378 378 379 379 524 524 379 379 525 525 525 525 379 379 380 380 525 525 380 380 526 526 526 526 380 380 381 381 526 526 381 381 527 527 527 527 381 381 320 320 527 527 320 320 528 528 528 528 320 320 319 319 528 528 319 319 529 529 529 529 319 319 318 318 529 529 318 318 530 530 530 530 318 318 321 321 530 530 321 321 531 531 531 531 321 321 322 322 531 531 322 322 532 532 532 532 322 322 323 323 532 532 323 323 519 519 533 533 370 370 371 371 533 533 371 371 534 534 534 534 371 371 372 372 534 534 372 372 535 535 535 535 372 372 374 374 535 535 374 374 536 536 536 536 374 374 373 373 536 536 373 373 520 520 370 370 533 533 367 367 367 367 533 533 537 537 538 538 386 386 384 384 538 538 384 384 539 539 539 539 384 384 383 383 539 539 383 383 540 540 540 540 383 383 382 382 540 540 382 382 541 541 541 541 382 382 368 368 541 541 368 368 542 542 542 542 368 368 367 367 542 542 367 367 537 537 385 385 386 386 285 285 246 246 247 247 538 538 285 285 284 284 385 385 385 385 284 284 281 281 385 385 281 281 369 369 369 369 281 281 280 280 369 369 280 280 366 366 366 366 280 280 283 283 366 366 283 283 365 365 365 365 283 283 306 306 365 365 306 306 353 353 353 353 306 306 310 310 353 353 310 310 354 354 354 354 310 310 309 309 354 354 309 309 355 355 355 355 309 309 308 308 355 355 308 308 356 356 356 356 308 308 314 314 356 356 314 314 358 358 358 358 314 314 313 313 358 358 313 313 360 360 543 543 544 544 268 268 360 360 313 313 363 363 363 363 313 313 312 312 363 363 312 312 544 544 544 544 312 312 268 268 538 538 545 545 246 246 246 246 545 545 546 546 246 246 546 546 245 245 245 245 546 546 547 547 245 245 547 547 242 242 242 242 547 547 548 548 242 242 548 548 243 243 243 243 548 548 549 549 243 243 549 549 258 258 258 258 549 549 550 550 258 258 550 550 259 259 259 259 550 550 551 551 259 259 551 551 260 260 260 260 551 551 552 552 260 260 552 552 261 261 261 261 552 552 553 553 261 261 553 553 269 269 269 269 553 553 543 543 269 269 543 543 270 270 270 270 543 543 268 268 268 268 312 312 311 311 268 268 311 311 267 267 267 267 311 311 307 307 267 267 307 307 266 266 266 266 307 307 305 305 266 266 305 305 265 265 265 265 305 305 304 304 265 265 304 304 264 264 264 264 304 304 303 303 264 264 303 303 263 263 263 263 303 303 302 302 263 263 302 302 262 262 262 262 302 302 301 301 262 262 301 301 257 257 257 257 301 301 300 300 257 257 300 300 256 256 256 256 300 300 299 299 256 256 299 299 255 255 255 255 299 299 282 282 255 255 282 282 254 254 254 254 282 282 298 298 254 254 298 298 252 252 252 252 298 298 297 297 252 252 297 297 244 244 244 244 297 297 317 317 244 244 317 317 253 253 253 253 317 317 316 316 253 253 316 316 271 271 271 271 316 316 315 315 271 271 315 315 272 272 272 272 315 315 296 296 272 272 296 296 273 273 273 273 296 296 295 295 273 273 295 295 274 274 274 274 295 295 294 294 274 274 294 294 275 275 275 275 294 294 293 293 275 275 293 293 276 276 276 276 293 293 292 292 276 276 292 292 278 278 278 278 292 292 291 291 278 278 291 291 279 279 279 279 291 291 290 290 279 279 290 290 277 277 277 277 290 290 289 289 277 277 289 289 251 251 251 251 289 289 288 288 251 251 288 288 250 250 250 250 288 288 287 287 250 250 287 287 249 249 249 249 287 287 286 286 249 249 286 286 248 248 248 248 286 286 285 285 248 248 285 285 247 247 247 247 285 285 386 386 247 247 386 386 538 538 490 490 357 357 359 359 490 490 359 359 554 554 554 554 359 359 362 362 554 554 362 362 555 555 555 555 362 362 361 361 555 555 361 361 556 556 556 556 361 361 364 364 556 556 364 364 557 557 557 557 364 364 363 363 557 557 363 363 544 544 404 404 558 558 405 405 404 404 559 559 558 558 405 405 558 558 560 560 405 405 560 560 406 406 406 406 560 560 561 561 406 406 561 561 407 407 407 407 561 561 562 562 407 407 562 562 408 408 408 408 562 562 563 563 408 408 563 563 409 409 409 409 563 563 564 564 409 409 564 564 387 387 387 387 564 564 565 565 387 387 565 565 399 399 399 399 565 565 566 566 399 399 566 566 412 412 412 412 566 566 567 567 412 412 567 567 413 413 413 413 567 567 568 568 413 413 568 568 414 414 414 414 568 568 569 569 414 414 569 569 415 415 415 415 569 569 570 570 415 415 570 570 416 416 416 416 570 570 571 571 416 416 571 571 418 418 418 418 571 571 572 572 418 418 572 572 420 420 420 420 572 572 573 573 420 420 573 573 421 421 421 421 573 573 574 574 421 421 574 574 422 422 422 422 574 574 575 575 422 422 575 575 419 419 419 419 575 575 576 576 419 419 576 576 417 417 417 417 576 576 577 577 417 417 577 577 388 388 388 388 577 577 578 578 388 388 578 578 389 389 389 389 578 578 579 579 389 389 579 579 390 390 390 390 579 579 580 580 390 390 580 580 391 391 391 391 580 580 581 581 391 391 581 581 392 392 392 392 581 581 582 582 392 392 582 582 393 393 393 393 582 582 583 583 393 393 583 583 394 394 394 394 583 583 584 584 394 394 584 584 395 395 395 395 584 584 585 585 395 395 585 585 396 396 396 396 585 585 586 586 396 396 586 586 397 397 397 397 586 586 587 587 397 397 587 587 398 398 398 398 587 587 588 588 398 398 588 588 400 400 400 400 588 588 589 589 400 400 589 589 401 401 401 401 589 589 590 590 401 401 590 590 402 402 402 402 590 590 591 591 402 402 591 591 410 410 410 410 591 591 592 592 410 410 592 592 411 411 411 411 592 592 593 593 411 411 593 593 403 403 403 403 593 593 559 559 403 403 559 559 404 404 476 476 594 594 477 477 477 477 594 594 595 595 477 477 595 595 478 478 478 478 595 595 479 479 479 479 595 595 596 596 479 479 596 596 480 480 480 480 596 596 481 481 481 481 596 596 597 597 481 481 597 597 482 482 482 482 597 597 483 483 483 483 597 597 598 598 483 483 598 598 484 484 484 484 598 598 485 485 485 485 598 598 599 599 485 485 599 599 486 486 486 486 599 599 487 487 487 487 599 599 600 600 487 487 600 600 488 488 488 488 600 600 432 432 432 432 600 600 601 601 432 432 601 601 433 433 433 433 601 601 434 434 434 434 601 601 602 602 434 434 602 602 435 435 435 435 602 602 436 436 436 436 602 602 603 603 436 436 603 603 437 437 437 437 603 603 438 438 438 438 603 603 604 604 438 438 604 604 439 439 439 439 604 604 440 440 440 440 604 604 605 605 440 440 605 605 441 441 441 441 605 605 442 442 442 442 605 605 606 606 442 442 606 606 443 443 443 443 606 606 444 444 444 444 606 606 607 607 444 444 607 607 445 445 445 445 607 607 446 446 446 446 607 607 608 608 446 446 608 608 447 447 447 447 608 608 448 448 448 448 608 608 609 609 448 448 609 609 449 449 449 449 609 609 450 450 450 450 609 609 610 610 450 450 610 610 451 451 451 451 610 610 452 452 452 452 610 610 611 611 452 452 611 611 453 453 453 453 611 611 454 454 454 454 611 611 612 612 454 454 612 612 455 455 455 455 612 612 456 456 456 456 612 612 613 613 456 456 613 613 457 457 457 457 613 613 458 458 458 458 613 613 614 614 458 458 614 614 459 459 459 459 614 614 460 460 460 460 614 614 615 615 460 460 615 615 461 461 461 461 615 615 462 462 462 462 615 615 616 616 462 462 616 616 463 463 463 463 616 616 464 464 464 464 616 616 617 617 464 464 617 617 465 465 465 465 617 617 466 466 466 466 617 617 618 618 466 466 618 618 467 467 467 467 618 618 468 468 468 468 618 618 619 619 468 468 619 619 469 469 469 469 619 619 470 470 470 470 619 619 620 620 470 470 620 620 471 471 471 471 620 620 472 472 472 472 620 620 621 621 472 472 621 621 473 473 473 473 621 621 474 474 474 474 621 621 622 622 474 474 622 622 475 475 475 475 622 622 426 426 426 426 622 622 623 623 426 426 623 623 427 427 427 427 623 623 428 428 428 428 623 623 594 594 594 594 429 429 428 428 594 594 430 430 429 429 431 431 430 430 594 594 594 594 476 476 425 425 425 425 424 424 594 594 594 594 424 424 423 423 594 594 423 423 206 206 594 594 206 206 431 431 614 614 613 613 537 537 537 537 615 615 614 614 548 548 537 537 613 613 548 548 613 613 549 549 549 549 613 613 612 612 547 547 537 537 548 548 533 533 616 616 537 537 537 537 616 616 615 615 547 547 542 542 537 537 546 546 541 541 547 547 547 547 541 541 542 542 545 545 539 539 546 546 539 539 540 540 546 546 546 546 540 540 541 541 538 538 539 539 545 545 533 533 617 617 616 616 618 618 617 617 533 533 593 593 592 592 618 618 533 533 558 558 618 618 618 618 558 558 559 559 618 618 559 559 593 593 592 592 591 591 618 618 618 618 591 591 590 590 618 618 590 590 619 619 533 533 560 560 558 558 561 561 560 560 533 533 561 561 533 533 562 562 562 562 533 533 534 534 562 562 534 534 563 563 534 534 535 535 563 563 563 563 535 535 536 536 563 563 536 536 564 564 564 564 536 536 520 520 564 564 520 520 565 565 565 565 520 520 521 521 565 565 521 521 566 566 566 566 521 521 522 522 566 566 522 522 567 567 567 567 522 522 523 523 567 567 523 523 568 568 568 568 523 523 524 524 568 568 524 524 569 569 569 569 524 524 525 525 569 569 525 525 570 570 570 570 525 525 526 526 570 570 526 526 571 571 527 527 571 571 526 526 528 528 572 572 571 571 528 528 571 571 527 527 529 529 572 572 528 528 529 529 573 573 572 572 530 530 573 573 529 529 530 530 574 574 573 573 531 531 574 574 530 530 531 531 575 575 574 574 532 532 575 575 531 531 532 532 576 576 575 575 519 519 576 576 532 532 519 519 577 577 576 576 510 510 578 578 519 519 578 578 577 577 519 519 510 510 579 579 578 578 580 580 579 579 510 510 583 583 582 582 510 510 510 510 582 582 581 581 510 510 581 581 580 580 510 510 511 511 583 583 623 623 584 584 583 583 583 583 511 511 512 512 583 583 512 512 623 623 623 623 585 585 584 584 586 586 585 585 623 623 623 623 587 587 586 586 588 588 587 587 623 623 588 588 623 623 589 589 589 589 623 623 622 622 589 589 622 622 590 590 590 590 622 622 621 621 619 619 590 590 620 620 590 590 621 621 620 620 623 623 512 512 513 513 515 515 594 594 623 623 515 515 623 623 514 514 514 514 623 623 513 513 516 516 594 594 515 515 518 518 595 595 594 594 518 518 594 594 517 517 517 517 594 594 516 516 509 509 595 595 518 518 509 509 596 596 595 595 501 501 597 597 509 509 597 597 596 596 509 509 599 599 598 598 501 501 501 501 598 598 597 597 599 599 501 501 600 600 600 600 501 501 502 502 600 600 502 502 601 601 601 601 502 502 503 503 601 601 503 503 602 602 602 602 503 503 504 504 602 602 504 504 603 603 603 603 504 504 505 505 603 603 505 505 604 604 604 604 505 505 506 506 604 604 506 506 605 605 605 605 506 506 507 507 605 605 507 507 606 606 606 606 507 507 508 508 606 606 508 508 607 607 607 607 508 508 493 493 607 607 493 493 608 608 608 608 493 493 491 491 608 608 491 491 609 609 609 609 491 491 492 492 609 609 492 492 610 610 610 610 492 492 494 494 610 610 494 494 611 611 611 611 494 494 495 495 612 612 611 611 496 496 611 611 495 495 496 496 496 496 497 497 612 612 612 612 497 497 498 498 612 612 498 498 549 549 549 549 498 498 499 499 549 549 499 499 500 500 500 500 550 550 549 549 489 489 551 551 500 500 500 500 551 551 550 550 490 490 553 553 489 489 553 553 552 552 489 489 489 489 552 552 551 551 553 553 490 490 554 554 554 554 555 555 553 553 553 553 555 555 556 556 553 553 556 556 543 543 543 543 556 556 557 557 543 543 557 557 544 544 </p>
                </triangles>
            </mesh>
        </geometry>
    </library_geometries>
    <library_visual_scenes>
        <visual_scene id="Scene-1" name="Scene-1">
            <node id="Object-1" name="Object-1">
                <instance_geometry url="#Mesh-1" />
            </node>
        </visual_scene>
    </library_visual_scenes>
    <scene>
        <instance_visual_scene url="#Scene-1" />
    </scene>
</COLLADA>
