v -0.042443302 -0.0046999999 0.062953003
v -0.042443 0.0046999999 0.0628815
v -0.042440802 0.0046999999 0.063220203
v -0.042438801 -0.0046999999 0.062640101
v -0.042381302 0.0051505398 0.062151801
v -0.042380001 -0.00506311 0.063960597
v -0.042374399 -0.00515447 0.062064499
v -0.042371601 0.0050576902 0.064064696
v -0.042300399 -0.0046999999 0.064824902
v -0.0422584 0.0046999999 0.065078102
v -0.042247798 0.0061512399 0.063296802
v -0.0422475 -0.0061502699 0.063318796
v -0.0421401 -0.00622368 0.061523501
v -0.042138901 0.0062239999 0.061514899
v -0.0420876 0.0060666902 0.065087602
v -0.0420863 -0.00606628 0.0650957
v -0.042068101 0.0049536498 0.065912001
v -0.042061001 -0.0049518999 0.065940998
v -0.041871801 -0.0046999999 0.066645399
v -0.041863099 0.0072681201 0.0632874
v -0.041862901 -0.0072673298 0.063308597
v -0.041788999 0.0046999999 0.066895999
v -0.041776199 -0.0046999999 0.066932902
v -0.0417495 -0.0073269098 0.061572801
v -0.0417483 0.0073271799 0.061564501
v -0.041719198 0.00719934 0.065022103
v -0.041717999 -0.0071990001 0.065029897
v -0.041664701 0.0059724599 0.066820897
v -0.041658301 -0.00597132 0.066840403
v -0.041497901 -0.0048408499 0.067649603
v -0.041419499 0.0048278701 0.067833997
v -0.041418102 0.0046999999 0.067846
v -0.041321799 0.0071224901 0.0667051
v -0.041315801 -0.0071215602 0.066724099
v -0.041298099 0.0046999999 0.0680703
v -0.041288801 0.0048090401 0.068079703
v -0.041251801 0.0083317403 0.063272402
v -0.0412517 -0.0083311601 0.063292503
v -0.041122399 0.0082808398 0.064915903
v -0.0411212 -0.0082805902 0.064923301
v -0.041053802 0.0047751502 0.068521701
v -0.0410266 -0.0046999999 0.0686545
v -0.0409819 0.00586819 0.068485104
v -0.040978599 -0.0058676498 0.0684935
v -0.040753301 0.0082238698 0.066513002
v -0.040747698 -0.0082231797 0.066531003
v -0.040672801 0.0070372201 0.068325602
v -0.040669601 -0.00703678 0.068333797
v -0.040661901 -0.0047170301 0.069294102
v -0.0405325 -0.0046999999 0.069501899
v -0.040532399 0.0046999999 0.069501802
v -0.0404297 0.0092747696 0.063252203
v -0.0404296 -0.0092743896 0.0632708
v -0.040312 0.0092414599 0.064771801
v -0.040310901 -0.0092412904 0.064778604
v -0.040146001 0.0081605501 0.068053797
v -0.040143002 -0.0081602298 0.068061501
v -0.0401337 -0.0046999999 0.070087597
v -0.0401337 0.0046999999 0.070087597
v -0.039973099 0.0092041502 0.0662494
v -0.039967898 -0.0092037003 0.066266
v -0.039963901 -0.0057330402 0.069964603
v -0.039765399 -0.0069399602 0.069820903
v -0.039765399 0.0069399602 0.069820903
v -0.039742399 -0.0070800399 0.069804199
v -0.039742399 0.0070800399 0.069804199
v -0.039413799 0.00916267 0.067675903
v -0.039411101 -0.0091624502 0.067683198
v -0.039021801 0.0099996198 0.065927997
v -0.0390171 -0.0099993702 0.065943003
v -0.038627598 -0.0091401301 0.068996802
v -0.038627598 0.0091401301 0.068996802
v -0.038515501 0.00997678 0.067212403
v -0.038513001 -0.0099766599 0.067218803
v -0.037229002 -0.0044999998 1.05779e-13
v -0.037229002 0.0044999998 1.05781e-13
v -0.037014399 -0.00601542 1.05169e-13
v -0.037014399 0.00601542 1.05172e-13
v -0.0355701 -0.0118751 1.01064e-13
v -0.0355701 0.0118751 1.01069e-13
v -0.035380099 0.0123211 1.0053e-13
v -0.033489499 -0.016758399 9.5150999e-14
v -0.033489499 0.016758399 9.51589e-14
v -0.0332046 -0.0174271 9.4341303e-14
v -0.0332046 0.0174271 9.4349502e-14
v -0.032955501 -0.0178211 9.36334e-14
v -0.032955501 0.0178211 9.3641803e-14
v -0.0303562 -0.022017101 0.037837502
v -0.0303562 0.022017101 0.037837502
v -0.0299791 -0.022527801 8.5175302e-14
v -0.0299791 0.022527801 8.5186002e-14
v -0.029477 -0.023181001 0.0109875
v -0.029477 0.023181001 0.0109875
v -0.0294233 -0.0231362 0.037837502
v -0.0294233 0.0231362 0.037837502
v -0.027171699 -0.0046999999 0.087984897
v -0.027171699 0.0046999999 0.087984897
v -0.027129799 -0.00465 0.088042997
v -0.027129799 0.00465 0.088042997
v -0.027123 -0.0258958 0.037837502
v -0.027123 0.0258958 0.037837502
v -0.0270226 -0.025800001 0.0391577
v -0.0270226 0.025800001 0.0391577
v -0.0259772 -0.027045101 7.3803397e-14
v -0.0259772 -0.027045101 0.011
v -0.0259772 0.027045101 7.3816299e-14
v -0.0259772 0.027045101 0.011
v -0.0245573 -0.0283406 0.0109875
v -0.0245573 0.0283406 0.0109875
v -0.0244914 -0.00465 0.091686003
v -0.0244914 0.00465 0.091686003
v -0.024379 -0.0059702401 0.091604598
v -0.024379 0.0059702401 0.091604598
v -0.0240537 -0.0070589902 0.091369003
v -0.0240537 0.0070589902 0.091369003
v -0.023868199 -0.0076799602 0.091234602
v -0.023868199 0.0076799602 0.091234602
v -0.023398001 -0.029305 0.037837502
v -0.023398001 0.029305 0.037837502
v -0.023311401 -0.029196599 0.0391577
v -0.023311401 0.029196599 0.0391577
v -0.022985101 -0.0091401301 0.090595096
v -0.022985101 0.0091401301 0.090595096
v -0.0229294 -0.00465 0.093514197
v -0.0229294 0.00465 0.093514197
v -0.0228315 -0.0059702401 0.093415901
v -0.0228315 0.0059702401 0.093415901
v -0.022386299 -0.0076799602 0.092969
v -0.022386299 0.0076799602 0.092969
v -0.0218025 -0.0102305 0.0897386
v -0.0218025 0.0102305 0.0897386
v -0.0216168 -0.0091401301 0.092196502
v -0.0216168 0.0091401301 0.092196502
v -0.0213024 -0.030861899 6.0520003e-14
v -0.0213024 -0.030861899 0.011
v -0.0213024 0.030861899 6.05347e-14
v -0.0213024 0.030861899 0.011
v -0.020510901 -0.00465 0.095468603
v -0.020510901 0.00465 0.095468603
v -0.0204353 -0.0059702401 0.095352203
v -0.0204353 0.0059702401 0.095352203
v -0.0192488 -0.032182802 0.037837502
v -0.0192488 0.032182802 0.037837502
v -0.019177601 -0.0320637 0.0391577
v -0.019177601 0.0320637 0.0391577
v -0.0189129 -0.00465 0.0962843
v -0.0189129 0.00465 0.0962843
v -0.018750001 -0.032476 0.0109875
v -0.018750001 0.032476 0.0109875
v -0.018734301 -0.0324452 0.037837502
v -0.018734301 0.0324452 0.037837502
v -0.0177413 -0.00465 0.096882403
v -0.0177413 0.00465 0.096882403
v -0.016076 -0.033879399 4.5669201e-14
v -0.016076 -0.033879399 0.011
v -0.016076 0.033879399 4.5685301e-14
v -0.016076 0.033879399 0.011
v -0.0155 -0.0099999998 0.097887501
v -0.0155 0.0099999998 0.097887501
v -0.0147505 -0.0344771 0.037837502
v -0.0147505 0.0344771 0.037837502
v -0.014696 -0.034349501 0.0391577
v -0.014696 0.034349501 0.0391577
v -0.0144479 -0.0337696 0.0408675
v -0.0144479 0.0337696 0.0408675
v -0.012265 -0.035437498 0.0109875
v -0.012265 0.035437498 0.0109875
v -0.0116619 -0.0044999998 -0.003
v -0.0116619 0.0044999998 -0.003
v -0.0104332 -0.0360194 2.9635501e-14
v -0.0104332 -0.0360194 0.011
v -0.0104332 0.0360194 2.9652601e-14
v -0.0104332 0.0360194 0.011
v -0.0100597 -0.00741971 -0.003
v -0.0100597 0.00741971 -0.003
v -0.0099848397 -0.036146302 0.037837502
v -0.0099848397 0.036146302 0.037837502
v -0.0099478904 -0.036012501 0.0391577
v -0.0099478904 0.036012501 0.0391577
v -0.0097799497 -0.0354045 0.0408675
v -0.0097799497 0.0354045 0.0408675
v -0.0077434098 -0.0098127201 -0.003
v -0.0077434098 0.0098127201 -0.003
v -0.0053368099 -0.037118301 0.0109875
v -0.0053368099 0.037118301 0.0109875
v -0.0050380901 -0.037160002 0.037837502
v -0.0050380901 0.037160002 0.037837502
v -0.0050194501 -0.037022501 0.0391577
v -0.0050194501 0.037022501 0.0391577
v -0.00493471 -0.036397502 0.0408675
v -0.00493471 0.036397502 0.0408675
v -0.0048774299 -0.0115092 -0.003
v -0.0048774299 0.0115092 -0.003
v -0.0045201299 -0.037226599 1.28344e-14
v -0.0045201299 -0.037226599 0.011
v -0.0045201299 0.037226599 1.2852e-14
v -0.0045201299 0.037226599 0.011
v -0.00166521 -0.0123886 -0.003
v -0.00166521 0.0123886 -0.003
v -1.00217e-14 0.037408698 8.8838404e-18
v 1.00209e-14 -0.037408698 -8.8838404e-18
v 3.3326901e-14 -0.037361201 0.0391577
v 3.3330601e-14 -0.036730502 0.0408675
v 3.3407101e-14 -0.037500001 0.037837502
v 1.09514e-13 0.037500001 0.037837502
v 1.13374e-13 0.037361201 0.0391577
v 1.1823e-13 0.036730502 0.0408675
v 0.0015099701 -0.037469599 -4.2992398e-15
v 0.0015099701 -0.037469599 0.011
v 0.0015099701 0.037469599 -4.2814398e-15
v 0.0015099701 0.037469599 0.011
v 0.00166521 -0.0123886 -0.003
v 0.00166521 0.0123886 -0.003
v 0.00178432 -0.0374575 0.0109875
v 0.00178432 0.0374575 0.0109875
v 0.0048774299 -0.0115092 -0.003
v 0.0048774299 0.0115092 -0.003
v 0.00493471 -0.036397502 0.0408675
v 0.00493471 0.036397502 0.0408675
v 0.0050194501 -0.037022501 0.0391577
v 0.0050194501 0.037022501 0.0391577
v 0.0050380901 -0.037160002 0.037837502
v 0.0050380901 0.037160002 0.037837502
v 0.00750096 -0.036742199 -2.13215e-14
v 0.00750096 -0.036742199 0.011
v 0.00750096 0.036742199 -2.1304e-14
v 0.00750096 0.036742199 0.011
v 0.0077434098 -0.0098127201 -0.003
v 0.0077434098 0.0098127201 -0.003
v 0.0088287201 -0.0363832 0.037837502
v 0.0088287201 0.0363832 0.037837502
v 0.0088409605 -0.036442898 0.0109875
v 0.0088409605 0.036442898 0.0109875
v 0.0097799497 -0.0354045 0.0408675
v 0.0097799497 0.0354045 0.0408675
v 0.0099478904 -0.036012501 0.0391577
v 0.0099478904 0.036012501 0.0391577
v 0.0099848397 -0.036146302 0.037837502
v 0.0099848397 0.036146302 0.037837502
v 0.0100597 -0.00741971 -0.003
v 0.0100597 0.00741971 -0.003
v 0.0116619 -0.0044999998 -0.003
v 0.0116619 0.0044999998 -0.003
v 0.0132977 -0.035063099 -3.77915e-14
v 0.0132977 -0.035063099 0.011
v 0.0132977 0.035063099 -3.7774901e-14
v 0.0132977 0.035063099 0.011
v 0.0144479 -0.0337696 0.0408675
v 0.0144479 0.0337696 0.0408675
v 0.014696 -0.034349501 0.0391577
v 0.014696 0.034349501 0.0391577
v 0.0147505 -0.0344771 0.037837502
v 0.0147505 0.0344771 0.037837502
v 0.0155 -0.0099999998 0.097887501
v 0.0155 0.0099999998 0.097887501
v 0.0155553 -0.034066599 0.037837502
v 0.0155553 0.034066599 0.037837502
v 0.0155781 -0.034111202 0.0109875
v 0.0155781 0.034111202 0.0109875
v 0.0177413 -0.00465 0.096882403
v 0.0177413 0.00465 0.096882403
v 0.018750001 -0.032476 -5.3282801e-14
v 0.018750001 -0.032476 0.011
v 0.018750001 0.032476 -5.32673e-14
v 0.018750001 0.032476 0.011
v 0.0189129 -0.00465 0.0962843
v 0.0189129 0.00465 0.0962843
v 0.019177601 -0.0320637 0.0391577
v 0.019177601 0.0320637 0.0391577
v 0.0192488 -0.032182802 0.037837502
v 0.0192488 0.032182802 0.037837502
v 0.0204353 -0.0059702401 0.095352203
v 0.0204353 0.0059702401 0.095352203
v 0.020510901 -0.00465 0.095468603
v 0.020510901 0.00465 0.095468603
v 0.0205711 -0.031219 -5.8456698e-14
v 0.0205711 0.031219 -5.8441899e-14
v 0.0216168 -0.0091401301 0.092196502
v 0.0216168 0.0091401301 0.092196502
v 0.0217521 -0.0305466 0.0109875
v 0.0217521 0.0305466 0.0109875
v 0.0218025 -0.0102305 0.0897386
v 0.0218025 0.0102305 0.0897386
v 0.022386299 -0.0076799602 0.092969
v 0.022386299 0.0076799602 0.092969
v 0.0228315 -0.0059702401 0.093415901
v 0.0228315 0.0059702401 0.093415901
v 0.0229294 -0.00465 0.093514197
v 0.0229294 0.00465 0.093514197
v 0.022985101 -0.0091401301 0.090595096
v 0.022985101 0.0091401301 0.090595096
v 0.023311401 -0.029196599 0.0391577
v 0.023311401 0.029196599 0.0391577
v 0.023398001 -0.029305 0.037837502
v 0.023398001 0.029305 0.037837502
v 0.023716699 -0.0290477 -6.7394e-14
v 0.023716699 -0.0290477 0.011
v 0.023716699 0.0290477 -6.7380197e-14
v 0.023716699 0.0290477 0.011
v 0.023868199 -0.0076799602 0.091234602
v 0.023868199 0.0076799602 0.091234602
v 0.0240537 -0.0070589902 0.091369003
v 0.0240537 0.0070589902 0.091369003
v 0.024379 -0.0059702401 0.091604598
v 0.024379 0.0059702401 0.091604598
v 0.0244914 -0.00465 0.091686003
v 0.0244914 0.00465 0.091686003
v 0.0270226 -0.025800001 0.0391577
v 0.0270226 0.025800001 0.0391577
v 0.027123 -0.0258958 0.037837502
v 0.027123 0.0258958 0.037837502
v 0.027129799 -0.00465 0.088042997
v 0.027129799 0.00465 0.088042997
v 0.027140001 -0.025877999 0.0109875
v 0.027140001 0.025877999 0.0109875
v 0.027171699 -0.0046999999 0.087984897
v 0.027171699 0.0046999999 0.087984897
v 0.0280692 -0.024867101 -7.97598e-14
v 0.0280692 -0.024867101 0.011
v 0.0280692 0.024867101 -7.9748003e-14
v 0.0280692 0.024867101 0.011
v 0.0303562 -0.022017101 0.037837502
v 0.0303562 0.022017101 0.037837502
v 0.031694598 -0.0200425 -9.0059802e-14
v 0.031694598 0.0200425 -9.0050302e-14
v 0.032860499 -0.0178211 -9.3371999e-14
v 0.032860499 0.0178211 -9.3363502e-14
v 0.034499198 -0.0146987 -9.8027401e-14
v 0.034499198 0.0146987 -9.8020401e-14
v 0.035293002 0.0123211 -1.00276e-13
v 0.036410298 -0.0089743398 -1.03456e-13
v 0.036410298 0.0089743398 -1.03452e-13
v 0.037378401 -0.0030175 -1.06205e-13
v 0.037378401 0.0030175 -1.06204e-13
v 0.038513001 0.0099766599 0.067218803
v 0.038515501 -0.00997678 0.067212403
v 0.038627598 -0.0091401301 0.068996802
v 0.038627598 0.0091401301 0.068996802
v 0.0390171 0.0099993702 0.065943003
v 0.039021801 -0.0099996198 0.065927997
v 0.039411101 0.0091624502 0.067683198
v 0.039413799 -0.00916267 0.067675903
v 0.039742399 -0.0070800399 0.069804199
v 0.039742399 0.0070800399 0.069804199
v 0.039765399 -0.0069399602 0.069820903
v 0.039765399 0.0069399602 0.069820903
v 0.039963901 0.0057330402 0.069964603
v 0.039967898 0.0092037003 0.066266
v 0.039973099 -0.0092041502 0.0662494
v 0.0401337 -0.0046999999 0.070087597
v 0.0401337 0.0046999999 0.070087597
v 0.040143002 0.0081602298 0.068061501
v 0.040146001 -0.0081605501 0.068053797
v 0.040310901 0.0092412904 0.064778604
v 0.040312 -0.0092414599 0.064771801
v 0.0404296 0.0092743896 0.0632708
v 0.0404297 -0.0092747696 0.063252203
v 0.040532399 -0.0046999999 0.069501802
v 0.0405325 0.0046999999 0.069501899
v 0.040661901 0.0047170301 0.069294102
v 0.040669601 0.00703678 0.068333797
v 0.040672801 -0.0070372201 0.068325602
v 0.040747698 0.0082231797 0.066531003
v 0.040753301 -0.0082238698 0.066513002
v 0.040978599 0.0058676498 0.0684935
v 0.0409819 -0.00586819 0.068485104
v 0.0410266 0.0046999999 0.0686545
v 0.041053802 -0.0047751502 0.068521701
v 0.0411212 0.0082805902 0.064923301
v 0.041122399 -0.0082808398 0.064915903
v 0.0412517 0.0083311601 0.063292503
v 0.041251801 -0.0083317403 0.063272402
v 0.041288801 -0.0048090401 0.068079703
v 0.041298099 -0.0046999999 0.0680703
v 0.041315801 0.0071215602 0.066724099
v 0.041321799 -0.0071224901 0.0667051
v 0.041418102 -0.0046999999 0.067846
v 0.041419499 -0.0048278701 0.067833997
v 0.041497901 0.0048408499 0.067649603
v 0.041658301 0.00597132 0.066840403
v 0.041664701 -0.0059724599 0.066820897
v 0.041717999 0.0071990001 0.065029897
v 0.041719198 -0.00719934 0.065022103
v 0.0417483 -0.0073271799 0.061564501
v 0.0417495 0.0073269098 0.061572801
v 0.041776199 0.0046999999 0.066932902
v 0.041788999 -0.0046999999 0.066895999
v 0.041862901 0.0072673298 0.063308597
v 0.041863099 -0.0072681201 0.0632874
v 0.041871801 0.0046999999 0.066645399
v 0.042061001 0.0049518999 0.065940998
v 0.042068101 -0.0049536498 0.065912001
v 0.0420863 0.00606628 0.0650957
v 0.0420876 -0.0060666902 0.065087602
v 0.042138901 -0.0062239999 0.061514899
v 0.0421401 0.00622368 0.061523501
v 0.0422475 0.0061502699 0.063318796
v 0.042247798 -0.0061512399 0.063296802
v 0.0422584 -0.0046999999 0.065078102
v 0.042300399 0.0046999999 0.064824902
v 0.042371601 -0.0050576902 0.064064696
v 0.042374399 0.00515447 0.062064499
v 0.042380001 0.00506311 0.063960597
v 0.042381302 -0.0051505398 0.062151801
v 0.042438801 0.0046999999 0.062640101
v 0.042440802 -0.0046999999 0.063220203
v 0.042443 -0.0046999999 0.0628815
v 0.042443302 0.0046999999 0.062953003
vn -0.99927545 -0.02174872 0.031236079
vn -0.99665952 0.0020699294 -0.081642389
vn -0.99823725 0.0090746861 0.058651946
vn -0.99658376 -4.9192542e-05 -0.082588136
vn -0.98787838 0.13171116 -0.082149088
vn -0.9966042 -0.022054126 0.079333127
vn -0.98721683 -0.13664044 -0.082050405
vn -0.9951694 0.02183778 0.095713444
vn -0.98951572 -0.010593508 0.14403598
vn -0.98365653 0.0099237496 0.1797812
vn -0.97033501 0.23954922 0.032653809
vn -0.97012883 -0.24050225 0.03176298
vn -0.9663806 -0.24449454 -0.079566978
vn -0.96640736 0.24438427 -0.079579949
vn -0.95627391 0.23023559 0.18036592
vn -0.95666438 -0.22823006 0.18084314
vn -0.96766067 0.020516356 0.25141978
vn -0.97329587 -0.020031452 0.22867849
vn -0.96110088 -0.0068314821 0.27611315
vn -0.87333518 0.48607546 -0.031877395
vn -0.87284088 -0.48698062 -0.031599559
vn -0.94424778 0.0095199225 0.32909802
vn -0.93767333 -0.013293451 0.34726366
vn -0.92035264 -0.38591772 -0.063393936
vn -0.9204663 0.38563627 -0.063454442
vn -0.90093338 0.40387407 0.15875983
vn -0.90059257 -0.40401098 0.16033733
vn -0.92050821 0.21619238 0.32546189
vn -0.92031264 -0.21844825 0.32450724
vn -0.92169827 -0.016642539 0.3875505
vn -0.91692698 0.12182952 0.38000342
vn -0.91477048 0.00030599136 0.40397385
vn -0.87156695 0.3921873 0.294211
vn -0.87152421 -0.39189857 0.29472217
vn -0.88176823 0.004079178 0.47166532
vn -0.87856954 0.069544986 0.4725242
vn -0.80513787 0.59303105 -0.0082034981
vn -0.80515528 -0.59300739 -0.008200286
vn -0.80799329 0.57200599 0.14126639
vn -0.80764723 -0.57214403 0.14267834
vn -0.87852997 0.069464192 0.47260958
vn -0.88673759 -0.0040496695 0.46225536
vn -0.84971857 0.19847789 0.48845154
vn -0.8498829 -0.20063761 0.48728177
vn -0.7831713 0.56334066 0.26322985
vn -0.78318775 -0.56310707 0.26368034
vn -0.83376831 0.36378315 0.41532165
vn -0.83342844 -0.36374348 0.41603798
vn -0.86381686 -0.011584314 0.5036729
vn -0.83000284 -0.010679872 0.55765688
vn -0.8651107 0.0090572545 0.50149924
vn -0.73800868 0.67258674 0.054499038
vn -0.73767877 -0.67291719 0.054885644
vn -0.67598903 0.72663879 0.12261646
vn -0.67565 -0.72688836 0.1230059
vn -0.68633533 0.55372888 0.47151685
vn -0.68620884 -0.55372596 0.47170445
vn -0.81018996 -0.01908231 0.58585685
vn -0.8101697 0.051130593 0.58396125
vn -0.62343246 0.75802225 0.19166149
vn -0.62320244 -0.75814366 0.19192924
vn -0.7963897 -0.19894454 0.57112563
vn -0.79638565 -0.19896959 0.57112265
vn -0.79643273 0.1989394 0.57106751
vn -0.73779172 -0.41788623 0.53012687
vn -0.73765904 0.41834271 0.52995139
vn -0.64242381 0.69679558 0.31901044
vn -0.6421603 -0.69678915 0.31955433
vn -0.57038409 0.78825474 0.23090385
vn -0.5701741 -0.78835309 0.23108639
vn -0.57399374 -0.70674103 0.4135797
vn -0.57402986 0.70672858 0.41355106
vn -0.47470972 0.81993651 0.31992945
vn -0.47465742 -0.81994998 0.31997222
vn -0.91033685 -0.019017708 -0.41343096
vn -0.91086113 0.010261748 -0.41258547
vn -0.90064073 -0.19719185 -0.38724905
vn -0.90073353 0.1971032 -0.38707823
vn -0.87455028 -0.28926629 -0.389213
vn -0.89367348 0.24422045 -0.37643602
vn -0.84024322 0.35799798 -0.40722102
vn -0.84025675 -0.35800204 -0.40718925
vn -0.84024245 0.35799974 -0.40722072
vn -0.73159277 -0.39599442 -0.55494183
vn -0.73154032 0.39537615 -0.55545157
vn -0.78337306 -0.49537694 -0.3754043
vn -0.78333795 0.49535471 -0.37550679
vn -0.77908009 -0.62691903 0.0026042033
vn -0.77906716 0.62693512 0.0026041958
vn -0.74833298 -0.53449005 -0.39283365
vn -0.74830228 0.53448468 -0.39289919
vn -0.77237082 -0.63517195 1.4579216e-05
vn -0.7723611 0.63518363 1.4836673e-05
vn -0.76809853 -0.64027029 0.008866922
vn -0.76809865 0.64027035 0.0088616814
vn -0.80540812 -0.10389268 0.58354443
vn -0.80540812 0.10389248 0.58354449
vn -0.80990517 -1.5377656e-05 0.5865609
vn -0.80990505 7.6750594e-06 0.58656085
vn -0.73207313 -0.68105727 0.015164084
vn -0.73210508 0.68102354 0.015139207
vn -0.67346078 -0.72923076 0.12113274
vn -0.67346072 0.72923106 0.1211314
vn -0.51397687 -0.4997744 -0.69717538
vn -0.67743486 -0.73557937 0.0022439235
vn -0.51397681 0.49977434 -0.69717532
vn -0.67743486 0.73557931 0.0022439214
vn -0.63625199 -0.77147651 -0.0027073182
vn -0.63625199 0.77147651 -0.0027073198
vn -0.79930973 -0.0083837435 0.60086077
vn -0.78569376 0.01008652 0.61853343
vn -0.78794849 -0.21277857 0.57780826
vn -0.78794891 0.21277826 0.57780784
vn -0.75511104 -0.34609446 0.55679965
vn -0.75511104 0.34609449 0.55679965
vn -0.67783749 -0.54545742 0.49296308
vn -0.67785287 0.54545885 0.49294022
vn -0.62496519 -0.78063214 0.0056562913
vn -0.62496525 0.78063208 0.0056562922
vn -0.60800368 -0.77082616 0.19015411
vn -0.60805732 0.77079701 0.1901008
vn -0.55855852 -0.71654522 0.41782224
vn -0.55855852 0.71654522 0.41782224
vn -0.69092292 -0.0096974894 0.72286338
vn -0.69258547 0.017754966 0.72111726
vn -0.64010626 -0.26248717 0.72205579
vn -0.64010632 0.26248711 0.72205579
vn -0.63265961 -0.47573641 0.61107832
vn -0.63265961 0.47573635 0.61107832
vn -0.44565052 -0.82933134 0.33705372
vn -0.44566721 0.82932752 0.33704105
vn -0.58431554 -0.61713874 0.5269869
vn -0.58431548 0.61713874 0.5269869
vn -0.43497625 -0.62047702 -0.65253645
vn -0.56991494 -0.82170051 0.0022462115
vn -0.43497631 0.62047708 -0.65253651
vn -0.56991488 0.82170051 0.0022462115
vn -0.55547971 -0.02618972 0.83111757
vn -0.56034982 0.015922654 0.82810295
vn -0.58610976 -0.19319651 0.78686112
vn -0.58610976 0.19319649 0.78686106
vn -0.52972704 -0.84816045 0.0036102815
vn -0.5297271 0.84816045 0.0036102822
vn -0.46420696 -0.82499546 0.32232645
vn -0.46423212 0.8249827 0.32232258
vn -0.45465261 -0.005168552 0.89065379
vn -0.45464244 0.0084494418 0.89063394
vn -0.49583238 -0.86841422 -0.002638319
vn -0.49583238 0.86841422 -0.0026383197
vn -0.45432076 -0.89076066 0.011744271
vn -0.45432079 0.89076078 0.011744273
vn -0.43013471 -0.0038704616 0.90275645
vn -0.42314938 0.0015752348 0.90605855
vn -0.31311697 -0.69585377 -0.6463322
vn -0.45624906 -0.8898505 0.0016423201
vn -0.31311697 0.69585377 -0.6463322
vn -0.45624906 0.8898505 0.0016423198
vn -0.10748915 -0.74047762 0.66342968
vn -0.11647538 0.81986296 0.56058729
vn -0.38547885 -0.92270637 0.0043599666
vn -0.38547888 0.92270637 0.0043599671
vn -0.41546696 -0.84572679 0.33486342
vn -0.41546702 0.84572667 0.33486339
vn -0.31375542 -0.8786186 0.35998186
vn -0.31375554 0.8786186 0.35998186
vn -0.34454975 -0.93876755 -0.00094746682
vn -0.34454975 0.93876755 -0.00094746606
vn -0.087080054 -0.014475953 -0.99609613
vn -0.078554146 0.017788718 -0.99675113
vn -0.17626661 -0.69512987 -0.69693941
vn -0.30076623 -0.95369774 0.00036538957
vn -0.1762666 0.69512987 -0.69693947
vn -0.30076617 0.9536978 0.00036538878
vn -0.074978672 -0.055972125 -0.99561304
vn -0.070815511 0.052864291 -0.99608767
vn -0.25038859 -0.96813434 0.0046271253
vn -0.25038856 0.96813434 0.0046271249
vn -0.24824186 -0.9430095 0.22160558
vn -0.24824186 0.9430095 0.22160558
vn -0.24715196 -0.89470786 0.37204012
vn -0.24715196 0.8947078 0.37204015
vn -0.055728868 -0.069479287 -0.99602556
vn -0.050242767 0.062639557 -0.99677068
vn -0.20035912 -0.97972208 -0.00096500985
vn -0.20035911 0.97972208 -0.00096501008
vn -0.1354536 -0.99075675 0.0073045744
vn -0.1354536 0.99075675 0.0073045744
vn -0.1216942 -0.95734805 0.26205993
vn -0.1216942 0.95734799 0.2620599
vn -0.12333905 -0.90968901 0.39655191
vn -0.12333905 0.90968907 0.39655188
vn -0.041736424 -0.091463722 -0.99493337
vn -0.03801281 0.083303593 -0.99579895
vn -0.071786843 -0.79472381 -0.60271114
vn -0.06733267 -0.9977302 0.00083436287
vn -0.071786858 0.79472375 -0.60271126
vn -0.06733267 0.99773014 0.00083436287
vn -0.013082817 -0.10381457 -0.99451071
vn -0.011789688 0.09355332 -0.99554443
vn -0.034332272 0.85196048 -0.52247924
vn -0.034332249 -0.85196048 -0.52247941
vn 1.8112553e-09 -0.96923256 0.24614672
vn 1.1170007e-08 -0.90745842 0.42014173
vn -0.019263849 -0.99980348 0.0046793004
vn -0.019263851 0.99980354 0.0046793008
vn -1.8112553e-09 0.96923256 0.24614672
vn 0 0.90745854 0.42014173
vn 0.06719391 -0.79923904 -0.59724516
vn 0.02934674 -0.99956924 0.00036798677
vn 0.06719391 0.79923916 -0.59724516
vn 0.02934674 0.99956924 0.00036798691
vn 0.01332151 -0.10391269 -0.99449718
vn 0.011464706 0.089428879 -0.99592727
vn 0.071819343 -0.99741548 0.0020646588
vn 0.071819343 0.99741548 0.002064659
vn 0.041370828 -0.10476966 -0.99363565
vn 0.037283659 0.094419084 -0.99483413
vn 0.1233391 -0.90968901 0.39655191
vn 0.12333905 0.90968907 0.39655188
vn 0.12841001 -0.95993096 0.24908531
vn 0.12840998 0.9599309 0.24908531
vn 0.12433086 -0.99223828 0.0022485838
vn 0.12433086 0.99223828 0.0022485838
vn 0.11733707 -0.69462967 -0.70973349
vn 0.20066094 -0.97965813 0.0022562859
vn 0.11733707 0.69462967 -0.70973349
vn 0.20066094 0.97965819 0.0022562859
vn 0.072708443 -0.090130277 -0.99327242
vn 0.066337712 0.082233086 -0.99440283
vn 0.20073603 -0.9795686 0.012266294
vn 0.20073603 0.9795686 0.012266294
vn 0.27332968 -0.96191633 -0.0027939079
vn 0.27332965 0.96191633 -0.002793906
vn 0.24715196 -0.8947078 0.37204015
vn 0.24715196 0.89470786 0.37204015
vn 0.25543693 -0.93667674 0.23955917
vn 0.25543693 0.93667674 0.23955917
vn 0.29389703 -0.95582598 0.0046212752
vn 0.293897 0.95582592 0.0046212738
vn 0.094385251 -0.070238657 -0.99305493
vn 0.085126363 0.063348509 -0.99435425
vn 0.055869281 -0.011637137 -0.99837029
vn 0.11033758 0.027774332 -0.99350595
vn 0.27788937 -0.77460784 -0.56811994
vn 0.33056515 -0.9437812 0.0019242854
vn 0.27788934 0.77460784 -0.56811994
vn 0.33056515 0.9437812 0.0019242843
vn 0.31375542 -0.8786186 0.35998186
vn 0.31375557 0.8786186 0.35998186
vn 0.41517276 -0.84533483 0.33621532
vn 0.41517279 0.84533483 0.33621529
vn 0.36252794 -0.93196172 0.0045625218
vn 0.36252797 0.93196166 0.0045625223
vn 0.11647537 -0.81986296 0.56058729
vn 0.10748917 0.74047756 0.66342974
vn 0.45432433 -0.89076751 0.011070382
vn 0.45432433 0.89076751 0.011070383
vn 0.43938109 -0.89830029 -0.00094155571
vn 0.43938109 0.89830029 -0.00094155571
vn 0.42314938 -0.001575236 0.90605855
vn 0.43013471 0.0038704616 0.90275645
vn 0.35972112 -0.62130314 -0.69612014
vn 0.46043271 -0.88769424 0.00080891629
vn 0.35972112 0.62130308 -0.69612008
vn 0.46043271 0.88769424 0.00080891629
vn 0.4546425 -0.0084494445 0.89063394
vn 0.45465261 0.0051685642 0.89065379
vn 0.46423078 -0.82523584 0.32167622
vn 0.46420562 0.82524848 0.32168004
vn 0.51334041 -0.85817599 0.0039428482
vn 0.51334047 0.85817599 0.0039428482
vn 0.58610976 -0.19319651 0.78686112
vn 0.58610976 0.19319649 0.78686106
vn 0.56034982 -0.015922656 0.82810301
vn 0.55547971 0.02618973 0.83111751
vn 0.27719018 -0.40157497 -0.87287056
vn 0.27719015 0.40157497 -0.87287056
vn 0.58431548 -0.61713874 0.5269869
vn 0.58431554 0.61713874 0.5269869
vn 0.5689106 -0.82239884 -0.00096352096
vn 0.5689106 0.82239884 -0.00096352014
vn 0.44566721 -0.82932752 0.33704102
vn 0.44565046 0.82933134 0.33705372
vn 0.63265967 -0.47573635 0.61107832
vn 0.63265961 0.47573635 0.61107826
vn 0.64010638 -0.26248711 0.72205579
vn 0.64010632 0.26248711 0.72205579
vn 0.69258547 -0.017754965 0.72111726
vn 0.69092298 0.0096974904 0.72286344
vn 0.5585584 -0.71654516 0.41782215
vn 0.55855852 0.71654516 0.41782224
vn 0.60805714 -0.77079701 0.19010073
vn 0.60800368 0.77082604 0.19015408
vn 0.61880541 -0.78551495 0.0067980289
vn 0.61880541 0.78551495 0.006798028
vn 0.55768043 -0.64851987 -0.51808745
vn 0.67514503 -0.73768479 0.00067026803
vn 0.55768037 0.64851975 -0.51808745
vn 0.67514491 0.73768473 0.00067026971
vn 0.67785281 -0.54545891 0.49294016
vn 0.67783749 0.54545742 0.49296308
vn 0.7551111 -0.34609449 0.55679959
vn 0.7551111 0.34609449 0.55679971
vn 0.78794885 -0.21277827 0.57780784
vn 0.78794849 0.21277833 0.57780838
vn 0.78569376 -0.010086522 0.61853343
vn 0.79930973 0.0083837416 0.60086077
vn 0.67346066 -0.72923106 0.1211314
vn 0.67346084 0.72923076 0.12113263
vn 0.72118276 -0.69259614 0.014344071
vn 0.72115415 0.69262576 0.014365892
vn 0.80990505 -7.675173e-06 0.58656085
vn 0.80990517 1.5377371e-05 0.5865609
vn 0.69552881 -0.71849501 -0.002140908
vn 0.69552881 0.71849507 -0.0021409087
vn 0.80540812 -0.10389249 0.58354449
vn 0.80540806 0.10389268 0.58354443
vn 0.73797101 -0.58953977 -0.32839245
vn 0.76313567 -0.64623666 0.001514242
vn 0.73798645 0.58952993 -0.32837534
vn 0.76313567 0.6462366 0.001514242
vn 0.77822608 -0.62797964 0.0023879632
vn 0.77823681 0.62796634 0.0023886175
vn 0.75582403 -0.50061756 -0.42203334
vn 0.75583792 0.50078511 -0.42180955
vn 0.81256711 -0.42646167 -0.39732215
vn 0.81257945 0.4264681 -0.39729035
vn 0.86028725 -0.34119284 -0.37880507
vn 0.85762542 0.3675881 -0.35966331
vn 0.86287552 0.28807437 -0.41528189
vn 0.89186776 -0.2145104 -0.39819258
vn 0.89782983 0.19681852 -0.3939085
vn 0.95728236 -0.043769438 -0.28582299
vn 0.81077158 0.061868463 -0.582084
vn 0.47465739 0.81995004 0.31997225
vn 0.47470972 -0.81993651 0.31992945
vn 0.57402986 -0.70672858 0.413551
vn 0.57399374 0.70674103 0.4135797
vn 0.57017398 0.78835309 0.23108661
vn 0.57038379 -0.7882548 0.230904
vn 0.64216042 0.69678915 0.31955433
vn 0.64242381 -0.69679558 0.31901044
vn 0.73765904 -0.41834271 0.52995127
vn 0.73779172 0.4178862 0.53012681
vn 0.79643273 -0.19893949 0.57106745
vn 0.79638577 0.19896896 0.57112265
vn 0.79638982 0.19894397 0.57112569
vn 0.6232025 0.7581436 0.19192946
vn 0.62343246 -0.75802231 0.19166151
vn 0.8101697 -0.051130604 0.58396125
vn 0.81018996 0.019082276 0.58585685
vn 0.68620872 0.5537259 0.47170439
vn 0.68633538 -0.55372882 0.47151691
vn 0.67565 0.7268883 0.12300584
vn 0.67598903 -0.72663879 0.12261648
vn 0.73767871 0.67291731 0.054885522
vn 0.73800856 -0.67258692 0.054499146
vn 0.86511064 -0.0090572545 0.50149924
vn 0.83000278 0.010679873 0.55765694
vn 0.8638168 0.011584315 0.5036729
vn 0.83342844 0.36374342 0.41603798
vn 0.83376843 -0.36378315 0.41532165
vn 0.78318775 0.56310707 0.26368034
vn 0.7831713 -0.56334066 0.26322982
vn 0.8498829 0.20063761 0.48728177
vn 0.84971857 -0.19847789 0.48845154
vn 0.88673759 0.0040496695 0.4622553
vn 0.87852997 -0.069464184 0.47260961
vn 0.80764729 0.57214409 0.14267837
vn 0.80799323 -0.57200593 0.14126639
vn 0.79192823 0.61060762 -0.002791031
vn 0.79191077 -0.61063033 -0.0027920937
vn 0.87856954 -0.069544971 0.47252417
vn 0.88176823 -0.0040791775 0.47166532
vn 0.87152421 0.39189857 0.29472214
vn 0.87156689 -0.3921873 0.294211
vn 0.91477048 -0.00030599089 0.40397388
vn 0.91692698 -0.12182952 0.38000342
vn 0.92169827 0.016642539 0.38755047
vn 0.92031258 0.21844822 0.32450721
vn 0.92050821 -0.21619238 0.32546186
vn 0.90059257 0.40401101 0.16033733
vn 0.90093338 -0.40387407 0.1587598
vn 0.89384604 -0.44538212 -0.051712021
vn 0.89372438 0.44563425 -0.0516426
vn 0.93767333 0.01329345 0.34726366
vn 0.94424778 -0.0095199225 0.32909802
vn 0.87248635 0.48758572 -0.032061178
vn 0.87295794 -0.48672009 -0.032372653
vn 0.96110088 0.0068314807 0.27611315
vn 0.97329593 0.020031454 0.22867854
vn 0.96766067 -0.020516353 0.25141975
vn 0.95666444 0.22823009 0.18084316
vn 0.95627385 -0.23023561 0.18036593
vn 0.95088989 -0.30042633 -0.074513897
vn 0.95086676 0.30050388 -0.074497811
vn 0.97012883 0.24050225 0.03176298
vn 0.97033501 -0.23954922 0.032653812
vn 0.98365653 -0.0099237505 0.1797812
vn 0.98951572 0.010593508 0.14403598
vn 0.9951694 -0.021837782 0.095713452
vn 0.98447514 0.15413009 -0.083979897
vn 0.9966042 0.022054128 0.079333127
vn 0.98479432 -0.15208158 -0.083971597
vn 0.9967761 0.00017981393 -0.080233447
vn 0.99823725 -0.0090746861 0.05865195
vn 0.99684334 -0.0021837144 -0.079362988
vn 0.99927545 0.02174872 0.031236084
s 1
f 197//197 196//196 187//187
f 218//218 234//234 254//254
f 250//250 234//234 236//236
f 254//254 203//203 218//218
f 250//250 282//282 254//254
f 250//250 236//236 238//238
f 222//222 220//220 204//204
f 203//203 220//220 218//218
f 234//234 220//220 236//236
f 218//218 220//220 234//234
f 255//255 207//207 159//159
f 219//219 207//207 255//255
f 172//172 196//196 199//199
f 324//324 372//372 318//318
f 118//118 142//142 144//144
f 104//104 105//105 100//100
f 100//100 105//105 118//118
f 100//100 53//53 38//38
f 90//90 174//174 104//104
f 395//395 384//384 328//328
f 328//328 384//384 326//326
f 326//326 384//384 324//324
f 254//254 248//248 250//250
f 234//234 248//248 254//254
f 234//234 250//250 248//248
f 282//282 250//250 268//268
f 282//282 290//290 254//254
f 224//224 225//225 222//222
f 238//238 236//236 230//230
f 220//220 230//230 236//236
f 220//220 222//222 230//230
f 225//225 230//230 222//222
f 230//230 225//225 238//238
f 216//216 244//244 224//224
f 216//216 262//262 244//244
f 220//220 202//202 204//204
f 203//203 202//202 220//220
f 101//101 54//54 103//103
f 207//207 191//191 159//159
f 191//191 207//207 189//189
f 169//169 85//85 175//175
f 76//76 78//78 169//169
f 169//169 78//78 80//80
f 306//306 288//288 304//304
f 272//272 274//274 254//254
f 274//274 266//266 254//254
f 288//288 286//286 304//304
f 286//286 274//274 272//272
f 274//274 286//286 288//288
f 254//254 286//286 272//272
f 384//384 395//395 389//389
f 324//324 389//389 372//372
f 384//384 389//389 324//324
f 249//249 255//255 251//251
f 235//235 219//219 255//255
f 249//249 235//235 255//255
f 251//251 235//235 249//249
f 189//189 207//207 206//206
f 295//295 271//271 269//269
f 299//299 311//311 298//298
f 295//295 299//299 298//298
f 311//311 299//299 295//295
f 295//295 293//293 311//311
f 295//295 269//269 293//293
f 283//283 251//251 255//255
f 251//251 283//283 269//269
f 305//305 344//344 303//303
f 311//311 315//315 298//298
f 321//321 315//315 311//311
f 395//395 328//328 331//331
f 332//332 334//334 243//243
f 172//172 156//156 167//167
f 196//196 185//185 187//187
f 172//172 185//185 196//196
f 177//177 187//187 185//185
f 177//177 185//185 172//172
f 119//119 107//107 101//101
f 229//229 298//298 320//320
f 315//315 320//320 298//298
f 315//315 321//321 320//320
f 217//217 264//264 229//229
f 104//104 92//92 90//90
f 100//100 92//92 104//104
f 38//38 90//90 92//92
f 88//88 38//38 92//92
f 38//38 94//94 100//100
f 88//88 94//94 38//38
f 100//100 94//94 92//92
f 92//92 94//94 88//88
f 13//13 77//77 79//79
f 7//7 75//75 77//77
f 7//7 77//77 13//13
f 38//38 86//86 90//90
f 84//84 86//86 38//38
f 174//174 90//90 86//86
f 174//174 86//86 84//84
f 13//13 79//79 24//24
f 357//357 310//310 372//372
f 270//270 263//263 262//262
f 262//262 280//280 270//270
f 118//118 120//120 100//100
f 118//118 144//144 120//120
f 174//174 182//182 104//104
f 168//168 174//174 84//84
f 77//77 168//168 79//79
f 77//77 75//75 168//168
f 212//212 216//216 224//224
f 216//216 228//228 262//262
f 318//318 296//296 228//228
f 238//238 252//252 250//250
f 244//244 232//232 224//224
f 238//238 232//232 244//244
f 224//224 232//232 225//225
f 225//225 232//232 238//238
f 180//180 188//188 190//190
f 178//178 188//188 180//180
f 188//188 203//203 190//190
f 203//203 188//188 202//202
f 202//202 188//188 204//204
f 192//192 134//134 182//182
f 182//182 134//134 104//104
f 93//93 95//95 101//101
f 93//93 89//89 95//95
f 25//25 81//81 80//80
f 80//80 81//81 169//169
f 175//175 87//87 91//91
f 85//85 87//87 175//175
f 305//305 289//289 307//307
f 305//305 287//287 289//289
f 275//275 289//289 287//287
f 275//275 273//273 255//255
f 255//255 273//273 287//287
f 287//287 273//273 275//275
f 266//266 260//260 254//254
f 261//261 267//267 255//255
f 267//267 275//275 255//255
f 290//290 278//278 254//254
f 282//282 337//337 290//290
f 394//394 401//401 399//399
f 407//407 404//404 333//333
f 331//331 404//404 395//395
f 333//333 404//404 331//331
f 307//307 317//317 305//305
f 305//305 317//317 351//351
f 313//313 317//317 307//307
f 313//313 351//351 317//317
f 210//210 223//223 226//226
f 197//197 205//205 196//196
f 210//210 205//205 211//211
f 187//187 205//205 197//197
f 189//189 205//205 187//187
f 206//206 205//205 189//189
f 257//257 251//251 269//269
f 271//271 257//257 269//269
f 293//293 309//309 311//311
f 293//293 339//339 348//348
f 332//332 243//243 330//330
f 329//329 330//330 243//243
f 325//325 327//327 243//243
f 327//327 329//329 243//243
f 402//402 334//334 332//332
f 187//187 179//179 189//189
f 177//177 179//179 187//187
f 173//173 172//172 167//167
f 177//177 173//173 167//167
f 172//172 173//173 177//177
f 119//119 137//137 136//136
f 143//143 137//137 119//119
f 143//143 136//136 137//137
f 179//179 177//177 163//163
f 145//145 143//143 119//119
f 136//136 193//193 183//183
f 156//156 193//193 136//136
f 199//199 193//193 172//172
f 193//193 156//156 172//172
f 143//143 149//149 136//136
f 149//149 156//156 136//136
f 136//136 109//109 119//119
f 119//119 109//109 107//107
f 325//325 241//241 320//320
f 320//320 241//241 229//229
f 325//325 243//243 241//241
f 226//226 246//246 217//217
f 246//246 264//264 217//217
f 229//229 277//277 298//298
f 264//264 277//277 229//229
f 213//213 210//210 226//226
f 210//210 213//213 199//199
f 226//226 217//217 213//213
f 75//75 4//4 76//76
f 7//7 4//4 75//75
f 1//1 4//4 7//7
f 21//21 84//84 38//38
f 84//84 21//21 24//24
f 24//24 21//21 13//13
f 113//113 64//64 59//59
f 164//164 180//180 158//158
f 180//180 190//190 158//158
f 130//130 158//158 122//122
f 203//203 158//158 190//190
f 310//310 292//292 294//294
f 294//294 280//280 296//296
f 268//268 294//294 292//292
f 270//270 294//294 268//268
f 280//280 294//294 270//270
f 318//318 314//314 296//296
f 310//310 296//296 314//314
f 310//310 308//308 292//292
f 322//322 318//318 372//372
f 310//310 322//322 372//372
f 53//53 55//55 38//38
f 100//100 55//55 53//53
f 61//61 55//55 120//120
f 61//61 40//40 55//55
f 55//55 40//40 38//38
f 21//21 38//38 40//40
f 21//21 40//40 27//27
f 122//122 71//71 130//130
f 116//116 71//71 122//122
f 120//120 144//144 74//74
f 130//130 74//74 144//144
f 71//71 74//74 130//130
f 168//168 82//82 79//79
f 82//82 168//168 84//84
f 24//24 79//79 82//82
f 24//24 82//82 84//84
f 228//228 296//296 276//276
f 228//228 276//276 262//262
f 280//280 276//276 296//296
f 262//262 276//276 280//280
f 318//318 240//240 324//324
f 228//228 240//240 318//318
f 244//244 245//245 238//238
f 238//238 245//245 252//252
f 252//252 245//245 244//244
f 263//263 258//258 262//262
f 244//244 262//262 258//258
f 252//252 244//244 258//258
f 263//263 270//270 258//258
f 268//268 250//250 256//256
f 252//252 256//256 250//250
f 268//268 256//256 270//270
f 258//258 270//270 256//256
f 258//258 256//256 252//252
f 170//170 154//154 192//192
f 154//154 134//134 192//192
f 134//134 108//108 104//104
f 134//134 118//118 108//108
f 108//108 105//105 104//104
f 105//105 108//108 118//118
f 142//142 118//118 135//135
f 134//134 135//135 118//118
f 135//135 134//134 142//142
f 170//170 184//184 176//176
f 171//171 170//170 176//176
f 142//142 150//150 144//144
f 178//178 162//162 176//176
f 162//162 160//160 176//176
f 164//164 162//162 180//180
f 178//178 180//180 162//162
f 144//144 162//162 130//130
f 150//150 162//162 144//144
f 162//162 150//150 160//160
f 158//158 162//162 164//164
f 130//130 162//162 158//158
f 72//72 131//131 73//73
f 145//145 73//73 131//131
f 163//163 131//131 159//159
f 145//145 131//131 163//163
f 72//72 56//56 117//117
f 60//60 67//67 73//73
f 72//72 73//73 67//67
f 72//72 67//67 56//56
f 101//101 52//52 54//54
f 85//85 83//83 25//25
f 25//25 83//83 81//81
f 85//85 169//169 83//83
f 81//81 83//83 169//169
f 278//278 290//290 284//284
f 278//278 284//284 254//254
f 284//284 286//286 254//254
f 286//286 284//284 304//304
f 302//302 304//304 284//284
f 350//350 304//304 345//345
f 350//350 345//345 366//366
f 340//340 336//336 292//292
f 336//336 268//268 292//292
f 268//268 336//336 282//282
f 282//282 336//336 337//337
f 316//316 306//306 304//304
f 350//350 316//316 304//304
f 316//316 312//312 306//306
f 316//316 350//350 312//312
f 408//408 406//406 407//407
f 401//401 394//394 398//398
f 398//398 389//389 395//395
f 404//404 398//398 395//395
f 401//401 398//398 406//406
f 398//398 404//404 407//407
f 406//406 398//398 407//407
f 235//235 251//251 237//237
f 205//205 215//215 211//211
f 215//215 205//205 223//223
f 211//211 215//215 210//210
f 215//215 223//223 210//210
f 205//205 200//200 196//196
f 205//205 210//210 200//200
f 200//200 199//199 196//196
f 199//199 200//200 210//210
f 264//264 265//265 271//271
f 403//403 406//406 408//408
f 406//406 403//403 401//401
f 391//391 392//392 399//399
f 399//399 392//392 394//394
f 350//350 359//359 351//351
f 366//366 358//358 350//350
f 359//359 350//350 358//358
f 359//359 358//358 360//360
f 391//391 393//393 380//380
f 360//360 365//365 359//359
f 359//359 365//365 351//351
f 159//159 141//141 139//139
f 327//327 385//385 329//329
f 327//327 325//325 385//385
f 407//407 405//405 408//408
f 402//402 408//408 405//405
f 402//402 405//405 334//334
f 333//333 405//405 407//407
f 334//334 405//405 333//333
f 191//191 181//181 159//159
f 163//163 181//181 179//179
f 189//189 181//181 191//191
f 179//179 181//181 189//189
f 156//156 161//161 167//167
f 167//167 161//161 177//177
f 163//163 177//177 161//161
f 121//121 145//145 119//119
f 60//60 121//121 54//54
f 145//145 121//121 73//73
f 103//103 54//54 121//121
f 101//101 121//121 119//119
f 103//103 121//121 101//101
f 106//106 109//109 136//136
f 109//109 106//106 107//107
f 183//183 106//106 136//136
f 93//93 106//106 91//91
f 175//175 106//106 183//183
f 175//175 91//91 106//106
f 107//107 106//106 101//101
f 93//93 101//101 106//106
f 323//323 320//320 321//321
f 323//323 321//321 311//311
f 246//246 259//259 264//264
f 264//264 259//259 265//265
f 257//257 271//271 259//259
f 265//265 259//259 271//271
f 264//264 271//271 281//281
f 281//281 277//277 264//264
f 277//277 281//281 298//298
f 295//295 298//298 281//281
f 271//271 295//295 281//281
f 12//12 21//21 27//27
f 21//21 12//12 13//13
f 7//7 12//12 1//1
f 7//7 13//13 12//12
f 43//43 59//59 64//64
f 111//111 125//125 113//113
f 112//112 96//96 58//58
f 96//96 112//112 110//110
f 114//114 65//65 116//116
f 65//65 114//114 112//112
f 122//122 128//128 116//116
f 158//158 126//126 128//128
f 128//128 114//114 116//116
f 112//112 128//128 126//126
f 114//114 128//128 112//112
f 310//310 297//297 296//296
f 296//296 297//297 294//294
f 294//294 297//297 310//310
f 322//322 319//319 318//318
f 322//322 310//310 319//319
f 318//318 319//319 314//314
f 314//314 319//319 310//310
f 120//120 102//102 100//100
f 102//102 55//55 100//100
f 55//55 102//102 120//120
f 61//61 46//46 40//40
f 27//27 46//46 34//34
f 40//40 46//46 27//27
f 61//61 120//120 70//70
f 74//74 70//70 120//120
f 70//70 74//74 61//61
f 212//212 224//224 208//208
f 222//222 208//208 224//224
f 201//201 208//208 204//204
f 170//170 192//192 198//198
f 208//208 198//198 212//212
f 208//208 201//201 198//198
f 326//326 324//324 242//242
f 240//240 242//242 324//324
f 326//326 242//242 328//328
f 331//331 328//328 242//242
f 331//331 242//242 333//333
f 170//170 166//166 154//154
f 154//154 166//166 160//160
f 171//171 166//166 170//170
f 160//160 166//166 176//176
f 166//166 171//171 176//176
f 134//134 148//148 142//142
f 154//154 148//148 134//134
f 188//188 186//186 204//204
f 195//195 204//204 186//186
f 184//184 186//186 176//176
f 178//178 176//176 186//186
f 188//188 178//178 186//186
f 154//154 160//160 155//155
f 150//150 155//155 160//160
f 142//142 155//155 150//150
f 148//148 155//155 142//142
f 148//148 154//154 155//155
f 123//123 131//131 72//72
f 117//117 123//123 72//72
f 131//131 123//123 159//159
f 45//45 67//67 60//60
f 67//67 45//45 56//56
f 56//56 66//66 117//117
f 117//117 66//66 115//115
f 66//66 43//43 64//64
f 113//113 66//66 64//64
f 115//115 66//66 113//113
f 52//52 37//37 54//54
f 91//91 37//37 93//93
f 93//93 37//37 89//89
f 37//37 87//87 85//85
f 87//87 37//37 91//91
f 37//37 95//95 89//89
f 95//95 37//37 101//101
f 37//37 52//52 101//101
f 3//3 1//1 6//6
f 12//12 6//6 1//1
f 8//8 9//9 10//10
f 8//8 6//6 9//9
f 6//6 8//8 3//3
f 2//2 4//4 1//1
f 3//3 2//2 1//1
f 4//4 2//2 76//76
f 357//357 372//372 355//355
f 308//308 355//355 292//292
f 355//355 310//310 357//357
f 310//310 355//355 308//308
f 392//392 381//381 394//394
f 392//392 387//387 381//381
f 389//389 370//370 372//372
f 355//355 372//372 370//370
f 381//381 376//376 394//394
f 362//362 381//381 366//366
f 362//362 376//376 381//381
f 300//300 284//284 290//290
f 284//284 300//300 302//302
f 337//337 300//300 290//290
f 336//336 342//342 337//337
f 235//235 221//221 219//219
f 237//237 221//221 235//235
f 207//207 219//219 221//221
f 206//206 207//207 221//221
f 221//221 205//205 206//206
f 205//205 221//221 223//223
f 239//239 237//237 251//251
f 400//400 391//391 399//399
f 401//401 400//400 399//399
f 403//403 400//400 401//401
f 391//391 400//400 393//393
f 393//393 400//400 403//403
f 365//365 379//379 380//380
f 379//379 386//386 380//380
f 387//387 386//386 379//379
f 339//339 335//335 348//348
f 293//293 269//269 335//335
f 339//339 293//293 335//335
f 283//283 335//335 269//269
f 338//338 335//335 283//283
f 338//338 283//283 291//291
f 283//283 255//255 291//291
f 279//279 291//291 255//255
f 381//381 378//378 366//366
f 381//381 387//387 378//378
f 365//365 347//347 351//351
f 347//347 305//305 351//351
f 363//363 382//382 369//369
f 363//363 369//369 348//348
f 363//363 375//375 382//382
f 375//375 393//393 382//382
f 393//393 375//375 380//380
f 352//352 375//375 363//363
f 141//141 127//127 139//139
f 125//125 139//139 127//127
f 125//125 127//127 113//113
f 141//141 159//159 127//127
f 158//158 140//140 126//126
f 126//126 140//140 138//138
f 138//138 140//140 158//158
f 138//138 124//124 126//126
f 126//126 124//124 112//112
f 112//112 124//124 110//110
f 159//159 147//147 153//153
f 139//139 147//147 159//159
f 393//393 397//397 382//382
f 403//403 397//397 393//393
f 402//402 397//397 408//408
f 408//408 397//397 403//403
f 320//320 371//371 325//325
f 323//323 371//371 320//320
f 356//356 371//371 311//311
f 371//371 323//323 311//311
f 163//163 159//159 165//165
f 181//181 165//165 159//159
f 165//165 181//181 163//163
f 161//161 156//156 157//157
f 149//149 143//143 157//157
f 149//149 157//157 156//156
f 73//73 69//69 60//60
f 121//121 69//69 73//73
f 69//69 121//121 60//60
f 59//59 97//97 113//113
f 113//113 97//97 111//111
f 96//96 98//98 58//58
f 96//96 110//110 98//98
f 158//158 132//132 122//122
f 132//132 128//128 122//122
f 128//128 132//132 158//158
f 65//65 57//57 116//116
f 57//57 71//71 116//116
f 46//46 57//57 34//34
f 222//222 204//204 214//214
f 208//208 222//222 214//214
f 198//198 194//194 170//170
f 198//198 201//201 194//194
f 170//170 194//194 184//184
f 195//195 194//194 204//204
f 201//201 204//204 194//194
f 186//186 194//194 195//195
f 184//184 194//194 186//186
f 123//123 133//133 159//159
f 45//45 26//26 33//33
f 45//45 33//33 56//56
f 45//45 39//39 26//26
f 37//37 39//39 54//54
f 54//54 39//39 60//60
f 60//60 39//39 45//45
f 16//16 12//12 27//27
f 12//12 16//16 6//6
f 6//6 16//16 9//9
f 16//16 27//27 34//34
f 8//8 10//10 15//15
f 15//15 33//33 26//26
f 14//14 25//25 80//80
f 78//78 14//14 80//80
f 2//2 5//5 76//76
f 76//76 5//5 78//78
f 14//14 78//78 5//5
f 376//376 383//383 394//394
f 389//389 383//383 370//370
f 370//370 383//383 364//364
f 383//383 376//376 364//364
f 398//398 383//383 389//389
f 398//398 394//394 383//383
f 345//345 343//343 366//366
f 343//343 362//362 366//366
f 300//300 343//343 302//302
f 302//302 343//343 304//304
f 345//345 304//304 343//343
f 336//336 340//340 349//349
f 342//342 336//336 349//349
f 340//340 292//292 349//349
f 355//355 349//349 292//292
f 342//342 349//349 364//364
f 349//349 370//370 364//364
f 370//370 349//349 355//355
f 259//259 253//253 257//257
f 253//253 259//259 246//246
f 257//257 253//253 251//251
f 251//251 253//253 239//239
f 226//226 233//233 246//246
f 239//239 246//246 233//233
f 390//390 392//392 391//391
f 380//380 390//390 391//391
f 386//386 390//390 380//380
f 386//386 387//387 390//390
f 392//392 390//390 387//387
f 335//335 341//341 348//348
f 341//341 335//335 338//338
f 338//338 352//352 341//341
f 363//363 348//348 341//341
f 363//363 341//341 352//352
f 285//285 291//291 279//279
f 285//285 279//279 255//255
f 287//287 285//285 255//255
f 305//305 303//303 285//285
f 305//305 285//285 287//287
f 338//338 301//301 352//352
f 291//291 301//301 338//338
f 352//352 301//301 344//344
f 344//344 301//301 303//303
f 285//285 303//303 301//301
f 285//285 301//301 291//291
f 366//366 368//368 358//358
f 365//365 360//360 367//367
f 379//379 365//365 367//367
f 358//358 367//367 360//360
f 344//344 346//346 365//365
f 347//347 365//365 346//346
f 346//346 344//344 305//305
f 347//347 346//346 305//305
f 369//369 354//354 348//348
f 371//371 356//356 354//354
f 371//371 354//354 369//369
f 293//293 348//348 354//354
f 309//309 293//293 354//354
f 309//309 354//354 311//311
f 356//356 311//311 354//354
f 344//344 361//361 352//352
f 361//361 375//375 352//352
f 365//365 361//361 344//344
f 365//365 380//380 361//361
f 375//375 361//361 380//380
f 9//9 18//18 10//10
f 16//16 18//18 9//9
f 59//59 50//50 58//58
f 115//115 129//129 117//117
f 127//127 159//159 129//129
f 115//115 113//113 129//129
f 127//127 129//129 113//113
f 133//133 129//129 159//159
f 123//123 117//117 129//129
f 123//123 129//129 133//133
f 152//152 146//146 158//158
f 158//158 146//146 138//138
f 330//330 396//396 332//332
f 332//332 396//396 402//402
f 397//397 402//402 396//396
f 330//330 329//329 396//396
f 385//385 396//396 329//329
f 388//388 396//396 385//385
f 396//396 388//388 397//397
f 385//385 325//325 388//388
f 371//371 388//388 325//325
f 397//397 388//388 382//382
f 369//369 382//382 388//388
f 371//371 369//369 388//388
f 157//157 143//143 151//151
f 157//157 151//151 161//161
f 145//145 151//151 143//143
f 145//145 163//163 151//151
f 161//161 151//151 163//163
f 99//99 97//97 59//59
f 97//97 99//99 111//111
f 57//57 68//68 71//71
f 74//74 68//68 61//61
f 71//71 68//68 74//74
f 61//61 68//68 46//46
f 46//46 68//68 57//57
f 208//208 209//209 204//204
f 214//214 204//204 209//209
f 214//214 209//209 208//208
f 66//66 47//47 43//43
f 56//56 47//47 66//66
f 33//33 47//47 56//56
f 15//15 11//11 8//8
f 5//5 11//11 14//14
f 26//26 11//11 15//15
f 8//8 11//11 3//3
f 2//2 3//3 11//11
f 2//2 11//11 5//5
f 343//343 353//353 362//362
f 364//364 353//353 342//342
f 376//376 353//353 364//364
f 362//362 353//353 376//376
f 342//342 353//353 337//337
f 343//343 300//300 353//353
f 300//300 337//337 353//353
f 239//239 247//247 246//246
f 246//246 247//247 253//253
f 253//253 247//247 239//239
f 233//233 227//227 239//239
f 223//223 227//227 226//226
f 226//226 227//227 233//233
f 378//378 373//373 366//366
f 373//373 368//368 366//366
f 19//19 17//17 18//18
f 18//18 17//17 10//10
f 15//15 10//10 17//17
f 19//19 22//22 17//17
f 59//59 51//51 50//50
f 35//35 42//42 51//51
f 43//43 51//51 59//59
f 63//63 65//65 112//112
f 63//63 44//44 65//65
f 44//44 42//42 30//30
f 50//50 44//44 58//58
f 11//11 26//26 20//20
f 39//39 20//20 26//26
f 39//39 37//37 20//20
f 20//20 85//85 25//25
f 85//85 20//20 37//37
f 14//14 20//20 25//25
f 11//11 20//20 14//14
f 227//227 223//223 231//231
f 227//227 231//231 239//239
f 239//239 231//231 237//237
f 221//221 231//231 223//223
f 231//231 221//221 237//237
f 373//373 377//377 368//368
f 373//373 378//378 377//377
f 367//367 377//377 379//379
f 379//379 377//377 387//387
f 378//378 387//387 377//377
f 18//18 29//29 19//19
f 34//34 29//29 16//16
f 29//29 18//18 16//16
f 44//44 30//30 29//29
f 15//15 28//28 33//33
f 17//17 28//28 15//15
f 22//22 28//28 17//17
f 47//47 28//28 43//43
f 28//28 47//47 33//33
f 22//22 23//23 30//30
f 23//23 22//22 19//19
f 29//29 30//30 23//23
f 29//29 23//23 19//19
f 32//32 22//22 30//30
f 42//42 32//32 30//30
f 35//35 32//32 42//42
f 51//51 42//42 49//49
f 51//51 49//49 50//50
f 44//44 49//49 42//42
f 50//50 49//49 44//44
f 112//112 58//58 62//62
f 112//112 62//62 63//63
f 44//44 62//62 58//58
f 63//63 62//62 44//44
f 44//44 48//48 65//65
f 57//57 48//48 34//34
f 48//48 57//57 65//65
f 29//29 34//34 48//48
f 29//29 48//48 44//44
f 368//368 374//374 358//358
f 377//377 374//374 368//368
f 358//358 374//374 367//367
f 367//367 374//374 377//377
f 31//31 28//28 22//22
f 32//32 31//31 22//22
f 28//28 31//31 43//43
f 36//36 43//43 31//31
f 36//36 31//31 32//32
f 51//51 41//41 35//35
f 32//32 35//35 41//41
f 32//32 41//41 36//36
f 41//41 51//51 43//43
f 36//36 41//41 43//43
f 76//76 169//169 168//168
f 76//76 168//168 75//75
f 306//306 289//289 288//288
f 306//306 307//307 289//289
f 274//274 289//289 275//275
f 274//274 288//288 289//289
f 254//254 260//260 255//255
f 261//261 255//255 260//260
f 267//267 274//274 275//275
f 274//274 267//267 266//266
f 260//260 267//267 261//261
f 267//267 260//260 266//266
f 254//254 158//158 203//203
f 159//159 158//158 255//255
f 255//255 158//158 254//254
f 306//306 312//312 307//307
f 307//307 312//312 313//313
f 313//313 312//312 351//351
f 350//350 351//351 312//312
f 159//159 153//153 158//158
f 158//158 153//153 152//152
f 168//168 242//242 174//174
f 229//229 242//242 217//217
f 175//175 183//183 242//242
f 241//241 242//242 229//229
f 175//175 242//242 169//169
f 242//242 193//193 199//199
f 228//228 216//216 242//242
f 182//182 174//174 242//242
f 212//212 242//242 216//216
f 182//182 242//242 192//192
f 168//168 169//169 242//242
f 240//240 228//228 242//242
f 213//213 242//242 199//199
f 193//193 242//242 183//183
f 241//241 243//243 242//242
f 213//213 217//217 242//242
f 198//198 242//242 212//212
f 198//198 192//192 242//242
f 334//334 242//242 243//243
f 334//334 333//333 242//242
f 138//138 139//139 124//124
f 125//125 124//124 139//139
f 124//124 111//111 110//110
f 111//111 124//124 125//125
f 153//153 146//146 152//152
f 147//147 146//146 153//153
f 138//138 146//146 139//139
f 146//146 147//147 139//139
f 98//98 99//99 58//58
f 59//59 58//58 99//99
f 111//111 99//99 110//110
f 98//98 110//110 99//99
